#----------------------------------PLEASE NOTE---------------------------------#
#This file is the author's own work and represents their interpretation of the #
#song. You may only use this file for private study, scholarship, or research. #
#------------------------------------------------------------------------------##
Date: Wed, 1 Nov 1995 11:58:34 -0800 (PST)
From: James Albers <jalbers@sdcc10.ucsd.edu>

Faget-KoRn
Transcribed by James Albers

Riff 1-Gtr1
d||-------------------------||
a||-------------------------||
F||-------------------------||
C||------------------16-16--||
G||------------------15-15--||
D||-------7----------14-14--||
A||--0-0--0--00-00-0-13-13--||

Riff 2-Gtr1
d||-------------------------||
a||-------------------------||
F||-------------------------||
C||------------------16-16--||
G||------------------15-15--||
D||------------------14-14--||
A||--0-00-0--00-0-00--------||

End of Riff 2
d||-------------------------||
a||-------------------------||
F||-------------------------||
C||-------------------------||
G||-------------------------||
D||-------------------------||
A||--0-00-0--00-0-00--------||

Fill 1-Gtr2
d||-----------------||
a||-----------------||       The F# note (9th fret on A) may be incorrect
F||-----------------||	     but I can't figure that out so that's my 
C||-----------------||	     guess.  Same applies for the next riff.
G||-----------------||
D||--7/8---7/8------||
A||------9-----8~~--||

Riff 3
d||-----------------------------------------------------||
a||-----------------------------------------------------||
F||-----------------------------------------------------||
C||------------------16-16------------------------------||
G||------------------15-15------------------------------||
D||-------7----------14-14---------7-----7/8---7/8------||
A||--0-0--0--00-00-0-13-13----0-0--0--00-----9-----8~~--||

Riff 4a(Gtr1-Brian)
d||-----------------------||
a||-----------------------||
F||-----------------------||
C||-----------------------||
G||-----------------------||
D||-----------------8888--||
A||--0-0--0--00-00-0------||

Riff 4b(Gtr2-Munkey)
			      1.........   2............
d||-------------------------7------------||--------0----||
a||--13----11------\4---------------6----||------0---2--||
F||----------------------7-------4-------||----10-------||
C||--------------------------------------||---9---------||
G||--------------------------------------||-------------||
D||--------------------------------------||-------------||
A||--------------------------------------||-------------||

Riff 5 
d||--------------------------||
a||--------------------------||
F||--------------------------||
C||-------------------16-16--||
G||-------------------15-15--||
D||--7----7---7---7---14-14--||
A||--0-00-0-0-0-0-0-0-13-13--||

Riff 6
d||-------------------||
a||-------------------||  	Gtr 2 scrapes the strings-from soft to loud
F||-------------------||
C||-------------------||
G||-------------------||
D||------7-----8--8---||
A||--0000---000-00----||

Riff 7
d||-------------------||
a||-------------------||
F||-------------------||
C||-------------------||
G||------9-----10-10--||
D||------7-----8--8---||
A||--0000---000-00----||

Riff 8a
d||--------------------||
a||--------------------||
F||--------------------||
C||--------------------||
G||------4------4-5-4--||
D||--2---2-3----2-3-2--||
A||--0-----1-----------||

   intro to riff 8b          Riff 8b
d||-------------------------||----------------||
a||--12--13--12--15--12--8--||--12-13-12\(8)--|| 	Repeat this last
F||-------------------------||----------------||	section--tremolo
C||-------------------------||----------------||	picking sounds best.
G||-------------------------||----------------||
D||-------------------------||----------------||
A||-------------------------||----------------||

=================================================
Here I am defending this "No mo' "(?) world
Why did you tease me, make me feel upset
Walking stereotypes feeding their heads
I'm ugly, please just go away

I can see inside to find this blessing in disguise
Why do you treat me this way, make your head stay(?)

As I walk I can never seem to escape
All the laughing, all the pain
If you were me what would you do
Nothing probably, you'd just turn away

I can see inside to find this blessing in disguise
Why do you treat me this way, make your head stay(?)
Faget, faget, faget

Here I am defending this "No mo' "(?) world
Why did you tease me, make me feel upset
Walking sereotypes feeding their heads
I'm ugly, please just go away

I can see inside to find this blessing in disguise
Why do you treat me this way, make your head stay(?)
Faget, pussy

I'm just a pretty boy, whatever ya call it
You wouldn't know a real man if ya saw it
It keeps goin' day after day son
You fake as if you don't want none
I'm sick and tired of people treating me this way everday
Who gives a fuck right now I've got something to say
To all the people that think I'm strange
That I should be outta here locked up in a cage
You don't know what the hell to fuck now anyway
You got this pretty boy feeling like I'm enslaved
To a world that never appreciated shit
You can suck my dick and fucking like it!

(vocal adlibs that rhyme with "-ay")

I'm just a pretty boy, I'm supposed to fuck a girl
I'm just a pretty boy, will you at least fuck a girl (REPEAT 2x)

All my life who am I (REPEAT 11X)
All my life ...
I'm just a faget (REPEAT 3x)
I'm a faget
I'm not a faget [what am I] (REPEAT 3x)
You mutherfucking queers
=======================================================
Note: Unfortunately in this song you need a seven string or two 
guitarist-one tuned (ADGCea) and another (DGCFad)--to play this song.
As for the lyrics,  think most of it is correct, but I have no idea what 
he is saying after the "...suck my dick and like it..." part (I just call 
it vocal adlib). I don't remember the order of the riffs after each 
section, but it shouldn't be too difficult to figure it out.

Laters--
James <jalbers@ucsd.edu>



THI IS A COOL SONG. I JUST PICKED IT UP. I TRIED TO FIGURE OUT THE LYRICS
BUT THEY ARE TO GRUNTY TO TELL.

BAND:KORN
SONG:FAGET
ALBUM:KORN

TUNE DOWN ALL STRINGS 3 1/2 STEPS

MAIN RIFF

------------------------------------------------------
------------------------------------------------------
---------------------10-10----------------------------
---------------------9--9-----------------------------
---------7-----------8--8-----------7-----7-8-7-5-7---
-0-0-0-0---0-0-0-0-0--------0-0-0-0---0-0-----------8-

VERSE RIFF

---11--9-----------10--------------------------------
----------7-----6------------------------------------
-------------------------8-----------------------------
------------------------------------------------------
------------------------------------------------------
------------------------------------------------------

THERE IS A LITTLE RIFF ADDED TO THE ABOVE ONE RIGHT BEFORE THE CHORUS. IT GOES LIKE THIS

-11-9--------10---------------------------------------
-------7---6-------9-------7-5------------------------
-----------------8---8--------------------------------
------------------------------------------------------
------------------------------------------------------
------------------------------------------------------

ANY CORRECTIONS? E-MAIL ME AT JIMC1030

