                                   I'm Broken
                          By Pantera: Far Beyond Driven

Tabbed in by Tim Wenas,                         Please e-mail with any
        snoopy@empire.apana.org.au              corrections etc... Probably
        tim.wenas@empire.apana.org.au           lots! <g>

Note!! This uses dropped D tuning - ie, low to hi: D A D G B E.


Intro                  After intro <g>
----------------------|--------------------------------------|----------------
-
----------------------|--------------------------------------|----------------
-
----------------------|--------------------------------------|----------------
-
----------------------|-------------------------------3h5p3--|----------------
-
3h5--3h5--3p0---------|--3h5--3h5--3p0---------3h5p3---------|--3h5--3h5--3---
-
---------------5p3p0--|-----------------5p3p0----------------|----------------
-


                           Verse             Bridge               Verse
--------------------------|-----------------|--------------------|------------
-
--------------------------|-----------------|--------------------|------------
-
-----------------------5--|-----------------|--------------------|------------
-
------------------5p7-----|--5--5-----0--0--|--------------------|--11--11----
-
p0---------3h5p3----------|--5--5-----0--0--|--0--------0--6--4--|--11--11----
-
----5p3p0-----------------|--5--5-----0--0--|-----5--3-----------|--11--11----
-


          Chorus/Bridge? (also bassline under solo.)
---------|--------------------------------|-----------------------------------
-
---------|--------------------------------|-----------------------------------
-
---------|--------------------------------|-----------------------------------
-
---0--0--|--------------------------------|-----------------------------------
-
---0--0--|--------------------------------|-----------------------------------
-
---0--0--|--5--6--5--3--2-----2--3--2--1--|-----------------------------------
-

Lyrics: (good ol' "death grunt")

   I wonder if we'll smile in our coffins while loved ones
   Mourn the day, the absence of our faces, living, laughing,
   Eyes awake. Is this too much for them to take?
     Too young for ones conclusion, the lifestyle won.
   Such values you taught your son. That's how.
           Look at me now. I'm broken.
           Inherit my life.
   One day we all will die, a cliched fact of life. Force fed
   To make us heed. Inbred to sponge our bleed. Every
   Warning, a leaking rubber, a poison apple for mingled
   Blood. Too young for ones delusion the lifestyle cost
   Venereal Mother embrace the los$. That's how
     Look at you now. You're broken
        Inherit your life.

==============================================================================
==                           TABLATURE EXPLANATION                            
==============================================================================
----------                            ----------
----5h8--- Hammeron                   ----(8)--- Ghost Note
----------                            ----------
----5p8--- Pulloff                    ----------

----------                            ----------
----5/8--- Slide Up                   -----x---- Dead Note
----------                            ----------
----5\8--- Slide Down                 ----------

----------                            ||------|| Repeat Start & End
----5~~~-- Vibrato                    ||*----*||
----------                            ||*----*||
----------                            ||------||
==============================================================================
==           Created with a shareware version of the BUCKET 'O TAB            
==                  tablature creation software for Windows                   
==                           For more information:                            
==                          email: gse@ocsystems.com                          
==      US Mail: The Bucket, 3176-B5 Summit Square Dr., Oakton, VA 22124      
==============================================================================
