#----------------------------------PLEASE NOTE---------------------------------#
#This file is the author's own work and represents their interpretation of the #
#song. You may only use this file for private study, scholarship, or research. #
#------------------------------------------------------------------------------##
from:jamesj@svpal.org
 
                            PANTERA-RISE
                       Vulgar Display Of Power     
 
 
 
 
Ok Here's 2 riffs that I know are right so... 
 
riff a                            Play twice
|--------------------------------------------------------------------|
|--------------------------------------------------------------------|
|--------------------------------------------------------------------|
|-----10----10-----10-----10-----------------------------------------|
|-----8------8------8------8-----------------------------------------|
|-000----000----000----000-------------------------------------------|

riff a                      play 2 times
|--------------------------------------------------------------------|
|--------------------------------------------------------------------|
|--------------------------------------------------------------------|
|--------------------------------------------------------------------|
|-----5------5------5------5-----------------------------------------|
|-333-4--333-4--333-4--333-4-----------------------------------------|

riff a                        play 2 times
|--------------------------------------------------------------------|
|--------------------------------------------------------------------|
|--------------------------------------------------------------------|
|-----7------7------7------7-----------------------------------------|
|-----5------5------5------5-----------------------------------------|
|-555----555----555----555-------------------------------------------|

riff a                                  
|--------------------------------------------------------------------|
|--------------------------------------------------------------------|
|--------------------------------------------------------------------|
|--------------------------------------------------------------------|
|-----9------9------9------9-----9-9-9-9---9----x\-------------------|
|-777 7--777-7--777-7--777-7---777-8-7-8---7----x\-------------------|
                                                  
 
Riff B
|--------------------------------------------------------------------|
|--------------------------------------------------------------------|
|--------------------------------------------------------------------|
|----x-x-x-----------x-x-x-----------x-x-x---------------------------|
|-5--x-x-x--3---3/5--x-x-x---3--3/5--x-x-x-3---3/5------6------------|
|-3--x-x-x--1---1/3--x-x-x---1--1/3--x-x-x-1---1/3------4------------|

Of anyone has any idea of the chord he uses during the verses, 
let me know, closest thing I could come up with is this
 
|--------------------------------------------------------------------|
|--------------------------------------------------------------------|
|--------------------------------------------------------------------|
|-444--4--444---444---444--4--444--444--2-2--5---2--2--5---2---2--5--|
|-222--2--222---222---222--2--222--222--2-2--5---2--2--5---2---2--5--|
|-222--2--222---222---222--2--222--222--0-0--3---0--0--3---0---0--3--|
                                                
 
***********************************************************************    
jamesj@svpal.org                    | Check out Fear Factory's new
Face Down Arms out                  | Album-Demanufacture.
  Nailed to the Cross of Doubt      |  It's fuckin' KILLER
Blood Runs Like Rain                |**********************************
  Drowning for this world in vain   |Fav Bands
Crown Of Black Thorns               |Megadeth/Slayer/Pantera/Sepultura
  Human Skin, Ripped and torn       |Fear Factory/Machine Head/CoC
Where is Your Savior now?           |And My Own.                                 
       --Burton C. Bell/Fear Factory|
***********************************************************************    

