Wonderwall
 
Em       G     
Today is gonna be the day 
           Dsus4                   Asus4/7 
that they gonna throw it back to you,  
Em          G 
by now you should have somehow 
    Dsus4                Asus4/7 
realized what you gotta do.  
Em                   G      Dsus4            Asus4/7    
I don't belive that anybody feels the way I do 
           C     Dsus4     Asus4/7   
about you now. 
 
 
Em             G   
Backbeat, the word is on the street 
         Dsus4                      Asus4/7 
that the fire in your heart is out, 
Em              G  
I'm sure you've heard it all before, 
        Dsus4              Asus4/7  
but you never really had a doubt. 
Em                  G       Dsus4           Asus4/7       
I don't belive that anybody feels the way I do 
          Em   G    Dsus4    Asus4/7 
about you now 

   C			D		Em
And all the roads we have to walk along are winding

  C			D		Em
And all the lights that lead us there are blinding
C		D   
There are many things that I 
      G       D         Em               Asus4/7  
would like to say to    you but I don't know how
hold then silence)

Chorus
C  Em  Dsus
Because maybe.....You're gonna be the one that saves me
                                            Asus4/7
And after all.......You're my wonderwall      


Em       G     
Today was gonna be the day 
          Dsus4                     Asus4/7 
but they'll never throw it back to you,  
Em          G 
by now you should have somehow 
    Dsus4                 Asus4/7 
realized what you're not to do.  
Em                   G      Dsus4           Asus4/7    
I don't belive that anybody feels the way I do 
           C     Dsus4     Asus4/7   
about you now. 

Pre-chorus
  C			D		Em
And all the roads that lead to you were winding

  C			D		Em
And all the lights that light the way are blinding
C		D   
There are many things that I 
      G       D         Em               Asus4/7  
would like to say to    you but I don't know how


Chorus
------
C  Em  Dsus
I said maybe
You're gonna be the one who saves me?  (2x)
And after all
You're my wonderwall 

Asus4/7  

Said maybe
You're gonna be the one that saves me
You're gonna be the one that saves me
You're gonna be the one that saves me