Received: from nevada.edu (animal-farm.nevada.edu) by redrock.nevada.edu (5.65c/M1.4)
	with SMTP id <AA18685>; Mon, 24 Aug 1992 04:59:46 -0700
Received: from wrcd1.urz.Uni-Wuppertal.DE by animal-farm.nevada.edu. id aa21126;
          24 Aug 92 4:50 PDT
Received: from localhost by wrcd1.urz.uni-wuppertal.de (5.61/1.34) id AA05656; Mon, 24 Aug 92 12:09:13 +0200
Message-Id: <9208241009.AA05656@wrcd1.urz.uni-wuppertal.de>
Default-Recipient-Options: report nonreceipt, no reply, return content
To: jamesb@nevada.edu
Subject: song: Layla, artist: Eric Clapton 
Sensitivity: personal
Importance: normal
Priority: non-urgent
Delivery-Options: allow alternate recipients, return content, allow conversion,
                  mask P1 recipients
Date: Mon, 24 Aug 92 12:09:12 +0200
From: altenb@wrcd1.urz.uni-wuppertal.de


Body-Part: 2; Text ------------------------------------------------------




                                "LAYLA"    (Eric Clapton)
                             


This is my version on Mr. Slowhand's LAYLA.


Key:
        P - pull off from previous note
        B - bend note
        H - hammer on



Lick 1:
                             D#m C# H      Bb Ab C#     Bb C# D#m                   
                               \ /  |      |  |  |      |  |  |
  e||------------------------------------------------------------------||
  B||o--------------H--P--------S-------------------------------------o||
  G||--------------8-11-8------8-6---------------6---------6--8--------||
  D||-------8--11----------11--8-6--9------8--6--6------8--6--8--------||
  A||o------------------------------9------8--6---------8-------------o||
  E||------------------------------------------------------------------||



Lick 2:
                     H  P         B
  e|---------------11-14-11-----14-16------14----13-----------11--------|
  B|--------11--14---------14---------------------------14--------------|
  G|--------------------------------------------------------------------|
  D|--------------------------------------------------------------------|
  A|--------------------------------------------------------------------|
  E|--------------------------------------------------------------------|

                   H  P         B
  e|---------------11-14-11-----16-18------16----13---------------------|
  B|--------11--14---------14---------------------------14----16--------|
  G|--------------------------------------------------------------------|
  D|--------------------------------------------------------------------|
  A|--------------------------------------------------------------------|
  E|--------------------------------------------------------------------|





INTRO:          Lick 1
                Lick 2  (2 x)



                Dm                            Am
                What will you do when you get lonely
                Dm          C#      D#      F
                With nobody waiting by your side
                Gm          C           F               Bb
                You've been running and hiding much too long,
                Gm            C                 F
                You know it's just your foolish pride.



           Bb   D#m C# B A# Ab  C#  Bb  C#   D#m
CHORUS:         Layla,      you got me on my knees.
                D#m C# B A# Ab  C#   Bb    C#   D#m
                Layla,      I'm begging darling please.
                D#m C# B A# Ab C#    Bb    C#    D#m      C# B A# Ab C# Bb C#
                Layla,         darling won't you ease my worried mind.



                Dm                   Am
                Tried to give you consolation,
                Dm       C#        D#      F
                Your old man won't let you down
                Gm     C        F                Bb
                Like a fool, I fell in love with you,
                Gm         C                  F
                Turned the whole world upside down



        
                CHORUS



                Dm                         Am
                Let's make the best of the situation
                Dm       C#      D#    F 
                Before I fin'lly go insane.
                Gm           C         F            Bb
                Please don't say we'll never find a way
                Gm          C               F
                And tell me all my loves in vain



                CHORUS



PIANO-PART:     Lick 3                     )
                Lick 3, Lick 4   (3 x)     >  (2 x)
                Lick 5                     ) 

                Lick 3
                Lick 3, Lick 4
                Lick 3  (4 x)
                Lick 3, Lick 4




(I'm not shure about the chords.)

Lick 3:         C#  Fm  Fm-F#-Ab  F#  Fm  D#m  C#

Lick 4:         D#m  Ab C#  D#m  Fm  D#m  C#  A  C#

Lick 5:         C#  C  Bb

                Fm  F#  Ab  F#  F  D#

                D#  Fm  F#  Fm  D#  C#

                Bb  C# Bb  D#  Bb

                C#  C  Bb  Ab  


------------------------------------------------------------------------------

        Martin Altenbeck
        ALTENBECK@PHYSIK.UNI-WUPPERTAL.DE  or
        ALTENB@WRCD1.URZ.UNI-WUPPERTAL.DE
        Department of Physics  
        University of Wuppertal (Germany)

------------------------------------------------------------------------------

