From uunet!wupost!uwm.edu!bionet!raven.alaska.edu!news.u.washington.edu!plains!tscott@plains.NoDak.edu Sat Jul  4 13:07:35 PDT 1992
Article: 512 of alt.guitar.tab
Path: nevada.edu!uunet!wupost!uwm.edu!bionet!raven.alaska.edu!news.u.washington.edu!plains!tscott@plains.NoDak.edu
From: tscott@plains.NoDak.edu (Timothy E Scott)
Newsgroups: alt.guitar.tab
Subject: For Whom the Bell Tolls by Metallica
Message-ID: <18908@plains.NoDak.edu>
Date: 4 Jul 92 02:51:13 GMT
Distribution: usa
Organization: North Dakota State University, Fargo
Lines: 87

For Whom the Bell Tolls by Metallica
Transcription by Tim Scott

  ====     ====	     Rhythm A		  ====	   ====    4x 
|-|--|-----|--|----||--------------|--|---|--|-----|--|------||------------
|-|--|-----|--|----||--------------|--|---|--|-----|--|------||------------
|-|--|--Z--|--|--Z-||.----.,;:'"':;,.-|---|--|--Z--|--|--Z--.||------------
|-4--4-----4--4----||.-(2)---------|-(2)--4--4-----4--4-----.||------------
|-4--4-----4--4----||--(2)---------|-(2)--4--4-----4--4------||------------
|-2--2-----2--2----||--(0)---------|-(0)--2--2-----2--2------||------------

(Lead over Rhythm transcribed for guitar...4x w/Rhythm A and 4x w/Rhythm B)
      -----          ----   -----
|-----|---|---|)-|-|-|--|---|---|--|-|-------------------------------------
|-----|---|---|--|-|-|--|---|---|--|-|-------------------------------------
|-Z---|---|---|--|-|-|--|---|---|--|-|-------------------------------------
|----12--11--10--9-|-|--|--12---|--|-|-------------------------------------
|------------------|10--9-------|--|-|-------------------------------------
|------------------|-----------10-(9)|-------------------------------------

Rhythm B	     .     .   8x	   --- --- --- ---   --- --- --- ---
||-------------|-|---|)----|)----||-|--||--|-|-|-|-|-|-|-|-|-|-|-|-|-|-|-|-|-
||-------------|-|---|-----|-----||-|--||--|-|-|-|-|-|-|-|-|-|-|-|-|-|-|-|-|-
||.---.,;:'"':;,.|---|-----|----.||-|--||.-|-|-|-|-|-|-|-|-|-|-|-|-|-|-|-|-3-
||.(2)---------|(2)--4-----4----.||-|--||.-2-5-4-3-2-5-4-3-|-2-5-4-3-2-4-5-3-
||-(2)---------|(2)--4-----4-----||-|--||--2-5-4-3-2-5-4-3-|-2-5-4-3-2-4-5-1-
||-(0)---------|(0)--2--x--2--x--||-|--||--0-3-2-1-0-3-2-1-|-0-3-2-1-0-2-3---

4x			       Rhythm C	
-||------------|-----------|-||------------|----------|------------|-|.----
-||------------|-----------|-||------------|----------|------------|-|-----
.||---.,;:'"':;,.----------|-||.---.,;:'":;,.---------|------------|-|--Z--
.||(2)---------|(2)--------|-||.(2)--------|(2)-------|(5)---------|-5-----
-||(2)---------|(2)--------|-||-(2)--------|(2)-------|(5)---------|-5-----
-||(0)---------|(0)--------|-||-(0)--------|(0)-------|(3)---------|-3-----

							2x
----------|------------|---------|----------|--|----|-----||---------------
----------|------------|---------|----------|--|----|-----||---------------
---Z---Z--|---.,;:'"':;,.--------|----------|--|----|----.||---------------
----------|(2)---------|(2)------|(5)-------|(10)--(7)---.||---------------
----------|(2)---------|(2)------|(5)-------|(10)--(7)----||---------------
----------|(0)---------|(0)------|(3)-------|(-8)--(5)----||---------------

Rhythm D
    -----     -----	    -----
||--|-|-|--|.-|-|-|--|.--|--|-|-|--|--|--|--|-|-|-|--|--|-|-|--|-|---------
||--|-|-|--|--|-|-|--|---|--|-|-|--|--|--|--|-|-|-|--|--|-|-|--|-|---------
||.-|-|-|--|--|-|-|--|---|--|-|-|--|--|--|--|-|-|-|--|--|-|-|--|-|---------
||.-2-|-|--5--2-|-|--7---|--2-|-|--5--8--4--|-2-|-|--5--2-|-|--7-|---------
||--2-|-|--5--2-|-|--7---|--2-|-|--5--8--4--|-2-|-|--5--2-|-|--7-|---------
||--0-0-0--3--0-0-0--5---|--0-0-0--3--6--2--|-0-0-0--3--0-0-0--5-|---------

      
 -----       2x   Rhythm C      2x   Rhythm D  2x  
-|-|-|--|-|-|--||------------------|-------------||---------|--------|-----
-|-|-|--|-|-|--||------------------|-------------||---------|--------|-----
-|-|-|--3-|-|-.||------------------|-------------||.--------|--------|-----
-2-|-|--3-4-3-.||------------------|-------------||.(2)-----|(2)-----|-----
-2-|-|--1-4-3--||------------------|-------------||-(2)-----|(2)-----|-----
-0-0-0----2-1--||------------------|-------------||-(0)-----|(0)-----|-----

                    -----   -----
----------------|-|-|-|-|-|-|-|-|--|-----------|----------||---------------
----------------|-|-|-|-|-|-|-|-|--|-----------|----------||---------------
----------------|-|-|-|-|-|-|-|-|--|-----------|---------.||---------------
(2)-------------|-5-5-5-5-5-5-5-5--|(2)--------|(9)------.||---------------
(2)-------------|-5-5-5-5-5-5-5-5--|(2)--------|(9)-------||---------------
(0)-------------|-3-3-3-3-3-3-3-3--|(0)--------|(7)-------||---------------

Rhythm  C    2x  Rhythm D  2x       ---     --- --- (slower..till fade)
----------------|------------||--|.-|-|--|.-|-|-|-|--||--------------------
----------------|------------||--|--|-|--|--|-|-|-|--||--------------------
----------------|------------||.-|--|-|--|--|-|-|-|-.||--------------------
----------------|------------||.-2--4-4--2--4-4-5-5-.||--------------------
----------------|------------||--2--4-4--2--4-4-5-5--||--------------------
----------------|------------||--0--2-2--0--2-2-3-3--||--------------------

I'm not sure if the notation is absolutely correct -- I wrote this down
a while ago.  Z = rests.  Parentheses around chords signify half/whole note
notation...

--tim
-- 
------------------------------------------------------------------------------
uunet!plains!tscott OR tscott@plains OR tscott@plains.nodak.edu "Call collect!"
------------------------------------------------------------------------------


