#----------------------------------PLEASE NOTE---------------------------------#
#This file is the author's own work and represents their interpretation of the #
#song. You may only use this file for private study, scholarship, or research. #
#------------------------------------------------------------------------------##
Date: Sat, 31 Dec 1994 16:41:50 -0600
From: gregh@tcs.itis.com (Greg and or Paul Halvorson)
Subject: TAB: Hit The Lights by Metallica

                              HIT THE LIGHTS
                               by Metallica
                             from Kill 'em All

    Here's the main riff.

                 Repeat a whole bunch of times
||---------------------|---------------------||
||---------------------|---------------------||
||*--------5--7--5--7--|--------------------*||
||*--------5--7--5--7--|--------5h7p5-------*||
||---0--0--------------|--0--0---------7--6--||
||---------------------|---------------------||
                                                                               



===============================================================================
==                           TABLATURE EXPLANATION                           ==
===============================================================================

----------                            ----------
----5h8--- Hammeron                   ----(8)--- Ghost Note
----------                            ----------
----5p8--- Pulloff                    ----------

----------                            ----------
----5/8--- Slide Up                   -----x---- Dead Note
----------                            ----------
----5\8--- Slide Down                 ----------

----------                            ||------|| Repeat Start & End
----5~~~-- Vibrato                    ||*----*||
----------                            ||*----*||
----------                            ||------||

Rhythm:
  w = whole note            W = dotted whole
  h = half note             H = dotted half
  q = quarter note          Q = dotted quarter
  e = eighth note           E = dotted eighth
  s = sixteenth note        S = dotted sixteenth
  ^ = triplet

===============================================================================
==           Created with a shareware version of the BUCKET 'O TAB           ==
==                  tablature creation software for Windows                  ==
==                           For more information:                           ==
==                         email: gse@ocsystems.com                          ==
==     US Mail: The Bucket, 3176-B5 Summit Square Dr., Oakton, VA 22124      ==
===============================================================================
   


