#----------------------------------PLEASE NOTE---------------------------------#
#This file is the author's own work and represents their interpretation of the #
#song. You may only use this file for private study, scholarship, or research. #
#------------------------------------------------------------------------------##
Date: Tue, 5 Dec 1995 16:46:39 -0600 (CST)
From: gregh@tcs.itis.com (Greg and or Paul Halvorson)
Subject: TAB: Metal Militia by Metallica

                                 Metal Militia
                                 By Metallica
                               from Kill 'em All

This is the newest version of this tab. I found  2 errors in it, and added
another riff to it (one played during verses).

Tabbed By Paul Halvorson

  Intro
||-----------------------------------------------------------------------------
||-----------------------------------------------------------------------------
||-----------------------------------------------------------------------------
||-----------------------------------------------------------------------------
||-3/5~~~-----8\7---------------------------------------------------5--7-------
||-1/3~~~-----6\5---0--0--0--0--0--0--0--0--0--0--0--0--0--0--0--0--3--5-------
                                                                               

                                                                               
-------------------------------------------------------------------------------
-------------------------------------------------------------------------------
-------------------------------------------------------------------------------
-------------------------------------------------------------------------------
------------------------------------------------8--7---------------------------
0--0--0--0--0--0--0--0--0--0--0--0--0--0--0--0--6--5-----0--0--0--0--0--0------
                                                                               

                                                                               
------------------------------------------------------------------------||
------------------------------------------------------------------------||
------------------------------------------------------------------------||
------------------------------------------------------------------------||
------------------------------5--7-----------------------------8--7--5--||
0--0--0--0--0--0--0--0--0--0--3--5-----0--0--0--0--0--0--0--0--6--5--3--||
                                                                               

Before Main Riff
||----------------------------------------||
||----------------------------------------||
||----------------------------------------||
||----------------------------------------||
||-8--7--5-----8--7--5-----8--7--5-----7--||
||-6--5--3-----6--5--3-----6--5--3-----5--||
                                                                               

  Repeat a few times.              Not sure about this part.
||-------------------------------||------------------------||
||-------------------------------||------------------------||
||*-----------------------------*||---3-----2--------------||
||*-----7-----5-----2-----1--0--*||---1--5--0-----x--x--2--||
||---0-----0-----0-----0---------||------3--------x--x--0--||
||-------------------------------||------------------------||
                                                                               

           o-/|-o
          o-/ |-o
         o-/__|-o
           |--|
           |--|
           |--|
           |--|
           |--|
           |--|
           |--|
           |--|
          /    \
         /  ~~  \
        /   ~~   \
       /    /\    \
      /   /    \   \
     / /   Paul   \ \
     /              \



===============================================================================
==                           TABLATURE EXPLANATION                           ==
===============================================================================

----------                            ----------
----5h8--- Hammeron                   ----(8)--- Ghost Note
----------                            ----------
----5p8--- Pulloff                    ----------

----------                            ----------
----5/8--- Slide Up                   -----x---- Dead Note
----------                            ----------
----5\8--- Slide Down                 ----------

----------                            ||------|| Repeat Start & End
----5~~~-- Vibrato                    ||*----*||
----------                            ||*----*||
----------                            ||------||

Rhythm:
  w = whole note            W = dotted whole
  h = half note             H = dotted half
  q = quarter note          Q = dotted quarter
  e = eighth note           E = dotted eighth
  s = sixteenth note        S = dotted sixteenth
  ^ = triplet

===============================================================================
==           Created with a shareware version of the BUCKET 'O TAB           ==
==                  tablature creation software for Windows                  ==
==                           For more information:                           ==
==                         email: gse@ocsystems.com                          ==
==     US Mail: The Bucket, 3176-B5 Summit Square Dr., Oakton, VA 22124      ==
===============================================================================
   


