Unforgiven Intro
written and performed by Hetfield
as heard on Live Shit: Binge and Purge San Diego, 1992
tab by Phil Boyle; ibzrg470@apk.net


Remember this is played on an electric/accoustic guitar, the
timbre won't sound the same on your average electric.

e--------------------- play this   ----------------------------...
B--------------------- a few times ---------------------0-0----...
G--------------------- (without    -------(5)-7h9p7--4------2--...
D----------6h7p6---6-- open E)     --7-9-10-------------------2...
A----//7-8-------8---7 then end    ---------------------0------...
E--0------------------ with this   ----------------------------...





