From rec.music.makers.guitar.tablature Tue Feb  8 16:54:52 1994
Newsgroups: rec.music.makers.guitar.tablature
Path: news.tcd.ie!ieunet!EU.net!sunic!corax.udac.uu.se!txfs1.hfb.se!tex1!ep93tas
From: ep93tas@t.hfb.se (Tony Asplund - HFB T)
Subject: TAB: Whiplash - Metallica
Message-ID: <1994Feb7.115517.11159@t.hfb.se>
Sender: news@t.hfb.se
Reply-To: ep93tas@t.hfb.se
Organization: Falun/Borlange University College
Date: Mon, 7 Feb 1994 11:55:17 GMT
Lines: 178



Whiplash - Metallica
--------------------

Transcribed by Tony 'Bony' Asplund

Hers's the riffs included in the song:

INTRO
I------------------I------------------I------------------I------------------I
I------------------I------------------I------------------I------------------I
I------------------I------------------I------------------I------------------I
I-9-9-9-9----------I-9-9-9-9----------I-9-9-9-9----------I-9-9-9-9----------I
I-9-9-9-9----------I-9-9-9-9----------I-9-9-9-9----------I-9-9-9-9----------I
I-7-7-7-7----------I-7-7-7-7----------I-7-7-7-7----------I-7-7-7-7----------I

I------------------I------------------I------------------I------------------I
I------------------I------------------I------------------I------------------I
I-12---------------I------------------I------------------I------------------I
I-12---------------I------------------I------------------I------------------I
I-10---------------I------------------I------------------I------------------I
I-0----------------I------------------I------------------I------------------I
								    END INTRO
I------------------I------------------I------------------I------------------I
I------------------I------------------I------------------I------------------I
I------------------I------------------I------------------I------------------I
I-9----------------I-9----------------I-9----------------I-9----------------I
I-9----------------I-9----------------I-9----------------I-9----------------I
I-7----------------I-7----------------I-7----------------I-7----------------I

RIFF A      END RIFF A
I--------------------I
I--------------------I
I------------7-6-5-2-I
I------------7-6-5-2-I
I--------------------I
I-0#########---------I

RIFF B      END RIFF B
I--------------------I
I--------------------I
I--------------------I
I------------------5-I
I------------------5-I
I-0###############---I
RIFF C			END RIFF C
I--------------------------------I
I--------------------------------I
I-5--5-4-2-----------------------I
I-5--5-4-2-----4-4-4--4-4-4--4---I
I-3--3-2-0---4-4-4-4--4-4-4--4---I
I----------0-2-2-2-2--2-2-2--2-0-I

RIFF D     END RIFF D
I-------------------I
I-------------------I
I-7--6--5-----------I
I-7--6--5--7--6--5--I
I-5--4--3--7--6--5--I
I----------5--4--3--I

RIFF E           END RIFF E
I-------------------------I
I-------------------------I
I-------------------------I
I---------5-----5---------I
I-8-7-5---5-----5---------I
I-------7-----7---0-0-0-0-I

RIFF F
I------------------------I------------------------I------------------------I
I------------------------I------------------------I------------------------I
I------------------------I------------------------I------------------------I
I-2---4-4-4---2---4---2--I-2---4-4-4---2---4---2--I-2---4-4-4---2---4---2--I
I-2---4-4-4---2---4---2--I-2---4-4-4---2---4---2--I-2---4-4-4---2---4---2--I
I-0---2-2-2---0---2---0--I-0---2-2-2---0---2---0--I-0---2-2-2---0---2---0--I
								  END RIFF F
I------------------------I------------------------I------------------------I
I------------------------I------------------------I------------------------I
I------------------------I------------------------I------------------------I
I-2---4-4-4---2---4---2--I-(2)--------------------I-2---4-4-4---2----4---4-I
I-2---4-4-4---2---4---2--I-(2)--------------------I-2---4-4-4---2----4---4-I
I-0---2-2-2---0---2---0--I-(0)--------------------I-0---2-2-2---0----2---2-I

Here's the song:

INTRO

RIFF A x 8

RIFF B x 4

RIFF B x 4
 Late at night all systems go
 You have come to see the show
 We do our best You're the rest
 You make it real you know
 There is a feeling deep inside
 That drives you fuckin' mad
 A feeling of a hammerhead
 You need it oh so bad

RIFF C x 3
    Adrenalin starts to flow
    You're thrashing all around
    Acting like a maniac

    WHIPLASH 

RIFF A x 4

RIFF B x 4
 Bang your head against the stage
 Like you never did before
 Make it ring Make it bleed
 Make it really sore
 In a frenzied madness
 with your leather and your spikes
 Heads are bobbing all around
 It is hot as hell tonight

RIFF C x 3
    Adrenalin starts to flow
    You're thrashing all around
    Acting like a maniac

    WHIPLASH

RIFF A x 4
	
RIFF B x 4
 Here on the stage the Marshal noise
 is piercing through your ears
 It kicks your ass kick your face
 Exploding feeling nears
 Now is the time to let it rip
 To let it fuckin' loose
 We are gathered here to maim and kill
 Cause this is what we choose

RIFF C x 3
    Adrenalin starts to flow
    You're thrashing all around
    Acting like a maniac

    WHIPLASH

RIFF D

RIFF E x 24 (last 16 with solo)

E5 (VII fret)

RIFF A x 4 (with solo)

RIFF B x 4
 The show is through the metal is gone
 It is time to hit the road
 Another town Another gig
 Again we will explode
 Hotel rooms and motorways
 Life out here is raw
 But we will never stop
 We will never quit
 cause we are Metallica

RIFF C x 3
    Adrenalin starts to flow
    You're thrashing all around
    Acting like a maniac

RIFF C x 1

RIFF F x 1




