Received: from BROLGA.NEWCASTLE.EDU.AU (cc.newcastle.edu.au [134.148.4.24]) by post-office.nevada.edu (8.6.4/8.6.4) with ESMTP id TAA08143 for <jamesb@animal-farm.nevada.edu>; Thu, 24 Feb 1994 19:48:48 -0800
Received: from cc.newcastle.edu.au by cc.newcastle.edu.au (PMDF V4.2-14 #5210)
 id <01H9B1CEALSW985V6H@cc.newcastle.edu.au>; Fri, 25 Feb 1994 14:48:29 +1100
Received: from animal-farm.nevada.edu by redrock.nevada.edu (5.65c/M1.4) with
 SMTP id <AA21339>; Wed, 10 Nov 1993 20:06:04 -0800
Received: from post1.INRE.ASU.EDU by animal-farm.nevada.edu id
 <AA29458@animal-farm.nevada.edu>; Wed, 10 Nov 1993 20:06:01 -0800
Received: from ASUVM.INRE.ASU.EDU (MAILER@ASUACAD) by asu.edu (PMDF V4.2-13
 #2382) id <01H55XFR3MM88Y50M5@asu.edu>; Wed, 10 Nov 1993 21:05:48 MST
Received: from ASUACAD (NJE origin AUDSM@ASUACAD) by ASUVM.INRE.ASU.EDU (LMail
 V1.1d/1.7f) with BSMTP id 0917; Wed, 10 Nov 1993 21:07:09 -0700
Date: Fri, 25 Feb 1994 14:47:59 +1100
From: George PISZCZUK <PHGPI@cc.newcastle.edu.au>
Subject: joy
Subject: TAB: Jesu Joy of Man's Desiring - Bach
To: scho:;, jamesb@animal-farm.nevada.edu
Cc: George PISZCZUK <PHGPI@cc.newcastle.edu.au>
Message-id: <01H55XFR3MMA8Y50M5@asu.edu>
MIME-version: 1.0
Content-transfer-encoding: 7BIT



Here is the Drop-D version.

 Timothy Lipetz

        Jesu, Joy of Man's Desiring in Gmaj    by J.S.Bach


E||-----------------------0-----|-----3--2--3-----------------|
B||--0--------0--3--1--1-----3--|--3-----------3--0--------0--|
G||-----0--2--------------------|--------------------0--2-----|
D||-----------------------------|-----------------------------|
A||-----------------------------|-----------2-----------------|
D||--5--------4--------2--------|--5-----------------5--------|

E|--------0--------------------|-----------------------------|
B|--1--3-----3-----0-----0-----|--------------------1--0-----|
G|--------------5-----------0--|-----0--2--------2--------2--|
D|--2--------0--------7--------|--4--------0--4--------------|
A|-----------------------------|-----------------------------|
D|-----------5--------5--------|--0--------0--------0--------|

E|-----------------------0-----|-----3--2--3-----------------|
B|--0--------0--3--1--1-----3--|--3-----------3--0--------0--|
G|-----0--2--------------------|--------------------0--2-----|
D|-----------------------------|-----------------------------|
A|-----------------------------|-----------2-----------------|
D|--5--------4--------2--------|--5-----------------5--------|

                                 1+++++++++++++++++++++++++++\
E|-----------------------------|-----------3-----------------||
B|-----------0-----------------|-----0--3-----3--0-----0-----||
G|-----7--5-----2--0-----0-----|--0-----------------0-----2-:||
D|--------------------0-----4--|-----------------------------||
A|--7--------------------------|-----------------------------||
D|--5--------5--------0--------|--5-----------------5--------||

  2+++++++++++++++++++++++++++\
E|-----------3-----------------|
B|-----0--3-----3--0-----0--3--|
G|--0-----------------0--------|
D|-----------------------------|
A|-----------------------------|
D|--5--------------------------|

(refrain:)

E|--7-----------------8-------|-10----------------10--------|
B|--8----------------10-------|-12----------------12--------|
G|--0--0--------0-----0--0----|--0--0--------0-----0--0-----|
D|--------0--------0--------0-|--------0--------0--------0--|
A|----------------------------|-----------------------------|
D|-----------5----------------|-----------5-----------------|

E|--8-----------------7-------|--5--------------5---8--7--5--|
B|-10-----------------8-------|-----7--------7---------------|
G|--0--0--------0-----0--0----|--------7--7------------------|
D|--------0--------0--------0-|------------------------------|
A|----------------------------|------------------------------|
D|-----------5----------------|--0--------0---------0--------|

E|--7-----------------8-------|-10-----------------7--------|
B|--8----------------10-------|-12-----------------8--------|
G|--0--0--------0-----0--0----|--0--0--------0-----0--0-----|
D|--------0--------0--------0-|--------0--------0--------0--|
A|----------------------------|-----------------------------|
D|-----------5----------------|-----------5-----------------|

E|--5-----7/8---7--------5--------|--3--------------------------||
B|--7-----------------------------|-----------------------0-----||
G|-----7-----------7--------7-----|-----0--------0-----------2--||
D|--------------------7--------7--|--------0--------0----------:||
A|--------------------------------|-----------------------------||
D|--0-----------0--------0--------|--5--------5--------5--------||

(repeat ALL the way back to the beginning, then:)

E||-----------------------0-----|-----3--2--3-----------------|
B||--0--------0--3--1--1-----3--|--3-----------3--0--------0--|
G||-----0--2--------------------|--------------------0--2-----|
D||-----------------------------|-----------------------------|
A||-----------------------------|-----------2-----------------|
D||--5--------4--------2--------|--5-----------------5--------|

E|--------0--------------------|-----------------------------|
B|--1--3-----3-----0-----0-----|--------------------1--0-----|
G|--------------5-----------0--|-----0--2--------2--------2--|
D|--2--------0--------7--------|--4--------0--4--------------|
A|-----------------------------|-----------------------------|
D|-----------5--------5--------|--0--------0--------0--------|

E|-----------------------0-----|-----3--2--3-----------------|
B|--0--------0--3--1--1-----3--|--3-----------3--0--------0--|
G|-----0--2--------------------|--------------------0--2-----|
D|-----------------------------|-----------------------------|
A|-----------------------------|-----------2-----------------|
D|--5--------4--------2--------|--5-----------------5--------|

                                 1+++++++++++++++++++++++++++\
E|-----------------------------|-----------3-----------------||
B|-----------0-----------------|-----0--3-----3--0-----0-----||
G|-----7--5-----2--0-----0-----|--0-----------------0-----2-:||
D|--------------------0-----4--|-----------------------------||
A|--7--------------------------|-----------------------------||
D|--5--------5--------0--------|--5-----------------5--------||



  2+++++++++++++++++++++++++++\
E|-----------3-----------------|
B|-----0--3-----3--0-----0--3--|
G|--0-----------------0--------|
D|-----------------------------|
A|-----------------------------|
D|--5-----------------5--------|

E|--1-----------------0--------|-----------------------------|
B|-----3--0--------1-----1-----|--------------------1--0-----|
G|-----------0--2-----------2--|-----0--2--------2--------2--|
D|-----------------------------|--4--------0--4--------------|
A|-----------------------------|-----------------------------|
D|-----------5-----------------|--0--------0--------0--------|
    ^
    this measure sounds odd to me, but I left it as original (tjl)

E|-----------------------0-----|-----3--2--3-----------------|
B|--0--------0--3--1--1-----3--|--3-----------3--0--------0--|
G|-----0--2--------------------|--------------------0--2-----|
D|-----------------------------|-----------------------------|
A|-----------------------------|-----------2-----------------|
D|--5--------4--------2--------|--5-----------------5--------|
                                  _
                                          /.\
E|-----------------------------|-----------3----------------||
B|-----------0-----------------|-----0--3--0----------------||
G|-----7--5-----2--0-----0-----|--0--------0----------------||
D|--------------------0-----4--|-----------0----------------||
A|--7--------------------------|----------------------------||
D|--5--------5--------0--------|--5--------5----------------||
          ^
          this a C# in original, I think C sounds better. (tjl)

Thanks to Timothy Lipetz for the tab.

Peace,
Paul Z                           audsm@asuacad                    :-)

--
     "Life is what happens to you while you're busy making other plans"

     ~~~~~~~~~~~~~~~~~~~~~       - John Lennon      ~~~~~~~~~~~~~~~~~~~~

