

#----------------------------------PLEASE NOTE---------------------------------#
#This file is the author's own work and represents their interpretation of the #
#song. You may only use this file for private study, scholarship, or research. #
#------------------------------------------------------------------------------##
From: Steve22067@aol.com
Date: Wed, 28 Jun 1995 21:33:48 -0400

Aneurysm
by:Kurt Cobain
transcribed by Steve22067@aol.com
\=slide down
/=slide up
INTRO(play twice) *distortion off and reverb off
||------------------------------------------------------------------||
||------------------------------------------------------------------||
||------------------------5-------------4---------------2--------||
||------4----------------5-------------4---------------2---------||
||------4-------3--3-------3--2--2------2---0--0--------0---||
||--2-------2-----------------------------------------------------||
INTRO 2 *distortion on and high reverb on
||----------------------------------------------------------------------||
||----------------------------------------------------------------------||
||--3-3-3-3-3-3-3-3-3/4-4-4-4-4-4-4-4-4/-5-5-5-5-5-5---||
||----------------------------------------------------------------------||
||----------------------------------------------------------------------||
||----------------------------------------------------------------------||

||--------------------------------------------------------------------||
||--------------------------------------------------------------------||
||--5/6-6-6-6-6/7-7-7-7-7/8-8-8-8-8/9-9-9/10-10-10---||
||--------------------------------------------------------------------||
||--------------------------------------------------------------------||
||--------------------------------------------------------------------||

||--------------------------------------||
||--------------------------------------||
||-10/11-11-11/13/14/-----------||
||--------------------------------------||
||--------------------------------------||
||--------------------------------------||
INTRO 3 *distortion on / reverb off(play 8 x's)
||----------------------------------------------------------||
||----------------------------------------------------------||
||----------/5-5-5-5-5\4-4-4-4-4\2-2-2-2-2-------||
||-4-4-4--/5-5-5-5-5\4-4-4-4-4\2-2-2-2-2-------||
||-4-4-4--/3-3-3-3-3\2-2-2-2-2\0-0-0-0-0-------||
||-2-2-2-------------------------------------------------||
INTRO 4-(similar to intro 2, figure it out yourself)

VERSE PART 1(no singing)(play once) *reverb off
||--------------------------------------------------------------------||
||--------------------------------------------------------------------||
||--------------------------------------------------------------------||
||-9-9-9-9-9-9-9-9-9-9-9-9-9-9-9-9-9-9-9-9-9-9-9-9--||
||-9-9-9-9-9-9-9-9-9-9-9-9-9-9-9-9-9-9-9-9-9-9-9-9--||
||-7-7-7-7-7-7-7-7-7-7-7-7-7-7-7-7-7-7-7-7-7-7-7-7--||
x-----slight palm mute------------------------------------------x

||-------------------------------------------------------------------||
||-------------------------------------------------------------------||
||------------------------------------------------------7-----------||
||-9-9-9-9-9-9-9-9-9-9-9-9-9-9-9-9-9-9-----7-(10 x's)||
||-9-9-9-9-9-9-9-9-9-9-9-9-9-9-9-9-9-9-----5-----------||
||-7-7-7-7-7-7-7-7-7-7-7-7-7-7-7-7-7-7-----------------||
x----slight palm mute----x                        x------don-----x
(don=distortion on)
VERSE PART 2 *reverb off
||-------------------------------------------------------------------||
||-------------------------------------------------------------------||
||-------------------------------------------------------------------||
||-9-9-9-9-9-9-9-9-9-9-9-9-9-9-9--9-9-9-9-9-9-9-----||
||-9-9-9-9-9-9-9-9-9-9-9-9-9-9-9--9-9-9-9-9-9-9-----||
||-7-7-7-7-7-7-7-7-7-7-7-7-7-7-7--7-7-7-7-7-7-7-----||
x--------slight palm mute----------x
||------------------------------||
||------------------------------||
||-7-7-7-7-7-7-7-7-7-7---||
||-7-7-7-7-7-7-7-7-7-7---||
||-5-5-5-5-5-5-5-5-5-5---||
||------------------------------||
x-----------don--------------x

CHORUS *distortion on/reverb off
||------------------------------------------------||
||------------------------------------------------||
||-----------------------------------------------||
||--4-4---/6-7-7-7-8-9-9-9-8-7-7-7-----||
||--4-4---/6-7-7-7-8-9-9-9-8-7-7-7-----||
||--2-2---/4-5-5-5-6-7-7-7-6-5-5-5-----||
*on chorus, do everything with a slide

Song Order
intro-2x's
intro part 2-1 x
intro part 3-8 x's
intro 4-1 x
verse part 1-1 x
verse part 2-5x's(no singing first time)
chorus-8 x's
verse part 2-4 x's
chorus-8 x's
intro part 4-1 x
intro part 3-10 x's (with intro part 4 over the last 3 times of intro part 3)
into part 4-see above and song ends with it-1 x

Send comments, suggestions and corrections to Steve22067@aol.com


