Received: from animal-farm.nevada.edu by redrock.nevada.edu (5.65c/M1.4)
	with SMTP id <AA01617>; Wed, 13 Jan 1993 03:54:11 -0800
Received: from peladon.rmit.OZ.AU by animal-farm.nevada.edu id <AA26064@animal-farm.nevada.edu>; Wed, 13 Jan 1993 03:54:07 -0800
Received: from minyos.xx.rmit.OZ.AU by peladon.rmit.OZ.AU with SMTP id AA00417
  (5.65c/IDA-1.4.4 for <jamesb@nevada.edu>); Wed, 13 Jan 1993 22:53:50 +1100
Received: by minyos.xx.rmit.oz.au 
Date: Wed, 13 Jan 93 22:53:35 EDT
From: s892011@minyos.xx.rmit.OZ.AU (Mr.Scary)
Message-Id: <9301131153.27873@minyos.xx.rmit.oz.au>
To: jamesb@nevada.edu
Subject: NIRVANA: Come as you are - correction


Hi James !  I've noticed a mistake in Nirvana/ComeAsYouAre.tab  Below is
the correct version (the last 2 B's were originaly Bb)

---


Come As You Are
===============                        This is a very simple song, and this   
				       should get you started.  I'm not sure
-------------------------------	       about the chords during the chorus, but
-------------------------------	       this riff is palyed during most of
-------------------------------        the verses.
-------------------------------
---------0---0---------2-----2-
-0-0-1-2---2---2-2-1-0---0-0---

---

Mr.Scary (Gary Chapman)
----------------------------
s892011@minyos.xx.rmit.oz.au
