From: Michelle@forex.demon.co.uk (Michelle Cain)

@ALBUM: incesticide.
Incesticide - Nirvana


@SONG: Dive
 

Oh
Pick me, Pick me yea
Live alone, lone single
Atleast, atleast yea
Everyone is hollow

Pick me, pick me yea
Everyone is waiting
Pick me pick me yea
You can be the baby

hey
dive
dive
dive
dive in me
dive
dive
dive
dive in me
dive in me
dive in me
dive in me

Kiss this, kiss that yea
Live alone, lone single
Atleast, atleast yea
You could be my hero

Pick me, pick me yea
Everyone is waiting
Hit me, hit me yea
I'm real good at hitting

hey
dive
dive
dive
dive in me
dive
dive
dive
dive in me
dive in me
dive in me
dive in me

dive
dive
dive
dive in me
dive
dive
dive
dive in me
dive
dive
dive
dive in me
dive in me
dive in me
dive in me
dive in me
dive in me
dive in me


@SONG: Sliver
 

Mom and dad went to a show
droped me off a Grandpa Joe's
I kicked and screamed, said please, oh no

(chorus)
Grandma take me home
I wanna be alone

Had to eat my dinner there
had mashed potato's and stuff like that
couldnt chew my meat too good

(chorus)

said why don't you stop your crying 
go outside and ride your bike 
thats what i did, i killed my toes 

(chorus)

after dinner, i had ice cream
fell asleep, and watched tv
woke up in my mother's arms

(chorus)


@SONG: Stain
 

Well he never bleeds and he never fucks
And he never leaves cuz he's got bad luck.
Well he never reads and he never draws
And he never sleeps cuz he's got bad blood yeah
I'm a stain, I'm a stain, I'm a stain, I'm a stain


@SONG: Been A Son
 

She should have stayed away from friends
She should have had more time to spend
She should have died when she was born
She should have worn the crown of thorns
She should have been a son
She should have been a son
She should have been a son
She should have been a son
She should have stood out in the crowd
She should have made her mother proud
She should have fallen on her stance
She should have had another chance
She should have been a son
She should have been a son
She should have been a son
She should have been a son


@SONG: Turnaround
 

Take a step outside yourself
And turn around
Take a look at who you are
It's pretty scary
So silly
Revolting
You're not much
You can't do anything

Take a step outside the city
And turn around
Take a look at what you are
It is revolting
You're really nowhere
So wasteful
So foolish
Poppycock

Who said don't look back?
Don't believe 'em
Go for that crazy sounding restaurant 
'Cos they're gonna try and get behind you
Don't you let them do it
You know what I'm talking about?
You hear me talking?
You hear me talking?

It's pretty scary it's so revolting

Take a step outside the country
And turn around
Take a look at what you are
It is amazing
Take a good look
You're no big deal
You're so petty
It's lots

Take a step outside the planet
Turn around and around
Take a look at where you are
It's pretty scary


@SONG: Molly's Lips
 

She said
She'd take me anywhere
She'd take me anywhere
As long as she stays with me

She said
She'd take me anywhere
She'd take me anywhere
As long as I stayed clean

Kiss kiss
Molly's lips
Kiss kiss
Molly's lips
Kiss kiss
Molly's lips
Kiss kiss
Molly's lips


@SONG: Son of a Gun
 

Up up up and down
Turn turn turnaround
Round round roundabout
And over again
Gun gun son of a gun
You are the only one
Makes any difference what I say
The sun shines in the bedroom
When we play
The raining always starts
When you go away


@SONG: New Wave Polly
 

Polly wants a cracker
Think I should get off of her first
I think she wants some water
To put out the blow torch

It isn't me 
We have some seed
Let me clip
Your dirty wings
Let me take a ride
Don't hurt yourself
I want some help
To help myself
I've got some rope
You have been told
I promise you
I have been true
Let me take a ride
Don't hurt yourself
I want some help
To help myself

Polly wants a cracker
Maybe she would like more food
She asks me to untie her
A chase would be nice for a few

It isn't me 
We have some seed
Let me clip
Your dirty wings
Let me take a ride
Don't hurt yourself
I want some help
To help myself
I've got some rope
You have been told
I promise you
I have been true
Let me take a ride
Don't hurt yourself
I want some help
To help myself

{Polly said}
Polly says her back hurts
And she's just as bored as me
She caught me off my guard
It amazes me, the will of instinct

It isn't me 
We have some seed
Let me clip
Your dirty wings
Let me take a ride
Don't hurt yourself
I want some help
To help myself
I've got some rope
You have been told
I promise you
I have been true
Let me take a ride
Don't hurt yourself
I want some help
To help myself

@SONG: Beeswax
 

Lying here sitting in front of a fire
Not only Megan said I could thrive on a shot
Grinning my manhood and judge the mantle
I cut it up for you
say hey hey
And I wake up
I got my do this way (3X)

She laughs about it
squeeking inflection when the wind blows just right
Dragging your thumbs of my shirt
How many jumps is in it 
Right hey
When I'm getting back
I got my do this way
{incomprehensible babble}

Hear my fucking hate
I got my do this way

If your world is getting ugly
Fiberglass situation is as can as cotton candy 
Sunning out to save a ranch you ovulate
Freedom and count out being wrong
I feel you will gladly take it anal
Filly sli reminds me of someone
I understand your fear for the Love Boat
Don't need to kneel
Save all the cho ho
And I get along
I got my feel this pay
I got a little tale
I got my do this way
{incomprehensible babble}
When you're getting in
I got my do this way

@SONG: Downer
 

Put your sincerity
I've got a royalty
Defending your country
Wish away

I've had a lobotomy
Save your family
Surrealistic fantasy
Bad boy

Fight!

 All we know is
 Restitution
 Living out your
 Date of future
 There's a hope
 Please show me faster
 Don't forget
 To pass a riot

 Somebody served a dinner
 Much like I am
 I know I can't
 Make enough although
 If you go along
 I sing your song

Sickening pessimists
Picketing masses
Separated communists
Apocalyptic bastards
Rinkydink God
For putting me on this Earth
Being very frivolous
Death in mind

Nurse!

 All we know is
 Restitution
 Living out your
 Date of future
 There's a hope
 Please send it faster
 Don't forget
 To pass a riot

 Somebody served a dinner
 Much like I am
 I know I can't
 Make enough although
 If you go along
 I sing your song.


@SONG: Mexican Seafood
 

Oh, it's your face, it isn't even
true the jaws and claims
you entertain and chew the fungus mold
is my intraction
oh, it's only a, it is infection.
Only her tonight, until I pay
Only her tonight, I fell asleep
Oh, coming from, the diarrhea
Oh, her tired form
I come in peace and live a dirty book
on the cloudy class, fender burn, and become a childhood mess
Only her tonight, until I plea
Only her tonight, until I sing
Oh, take me back, lets just concise some
flies, bugs and fleas and even meal can't 
stain the vaseline
It's headed burger's out
in case it learns and takes it's childhood such


@SONG: Hairspray Queen
 

I was your mine, you were mine
I didn't mean you were, mine I was your (3X)
You're in a 
you rang
yours rang
 
I was your mine, you were mine
I didn't mean you were, mine I was your (3X)
Your in a 

At night, wishful gardens
At night, where the heart is
At night, disco gardens
At night, we'll be ga.......

I was your mine, you were mine
I didn't mean you were, mine I was your (3X)
Your in a
Wishful gardens, at night
Where the heart is, at night
Wishful gardens, at night
Wishful gardens

I was your mine, you were mine
I didn't mean you were, mine I was your (3X)
Your in a 
Your rang
Your's rang
at night wishful gardens
at night, where the heart is
at night you were so modest
at night, crisco lockers
at night, the mount for homely
it's like, fistful garbage
at night, the whiz go ga....


@SONG: Aero Zeppelin
 

What's the season of love if you can't have everything
what's the reason of love if you can lose everything
what's the meaning of love, it's a crime if anything
what's the meaning of love, it's grand, it's grand

How can a culture can forget it's plan of yesterday
and you swear it's not a trend
does it matter anyways
barely heat the top of friend like it moves everyday
you could shit upon the stairs
you'll be friends
you'll be friends
you'll be friends
you'll be friends

All the kids have laid it out
and it's back is probably
still it's subtle in the tape
keep a form on equally
now you know it's just the fact
where the world is nowadays
and the day is what we learn
does it matter anyways


@SONG: Big Long Now
 

It's not cold enough
please put his side up
she is moon gray
can we show our faces now
I'm not in a string
she's not turning gray
simple as it seems
can we show our faces now
endless climb
I am blind
what can I hear
call a lie
speaking a phrase
instantly grown
I am blind
waiting in line
{again, substituting 'why am I sure' as the last line}


@SONG: Aneurism
 

Come on over
Do the twist (aha)
Overdo it
Have a fit (aha)
Come on over
Shoot the shit (aha)
Love you so much
Makes me sick (aha)

Beat me out of me (beat up beat up)

She gave the perfect strain to my heart.



Transcribed by Jeff McRae
Nevermind on IRC
jamcrae@rodan.acs.syr.edu


From @xmission.xmission.com:mikejon@xmission.com Sun Dec 25 19:38:27 1994
Received: from punt.demon.co.uk by forex.demon.co.uk with SMTP
	id AA1175 ; Sun, 25 Dec 94 19:38:23 GMT
Received: from punt.demon.co.uk via puntmail for Michelle@forex.demon.co.uk;
          Sun, 25 Dec 94 00:09:36 GMT
Received: from xmission.xmission.com by punt.demon.co.uk id aa00891;
          25 Dec 94 0:09 GMT
Received: (from mikejon@localhost) by xmission.xmission.com (8.6.9/8.6.9) id RAA20801 for Michelle@forex.demon.co.uk; Sat, 24 Dec 1994 17:09:06 -0700
~From: Mike Jones <mikejon@xmission.com>
Message-Id: <199412250009.RAA20801@xmission.xmission.com>
~Subject: Incesticide Lyrics
To: Michelle@forex.demon.co.uk
~Date: Sat, 24 Dec 1994 17:09:05 -0700 (MST)
X-Mailer: ELM [version 2.4 PL22]
Content-Type: text
Content-Length: 9174      
Status: R

@ALBUM: incesticide.
Incesticide - Nirvana


@SONG: Dive
 

Oh
Pick me, Pick me yea
Live alone, lone single
Atleast, atleast yea
Everyone is hollow

Pick me, pick me yea
Everyone is waiting
Pick me pick me yea
You can be the baby

hey
dive
dive
dive
dive in me
dive
dive
dive
dive in me
dive in me
dive in me
dive in me

Kiss this, kiss that yea
Live alone, lone single
Atleast, atleast yea
You could be my hero

Pick me, pick me yea
Everyone is waiting
Hit me, hit me yea
I'm real good at hitting

hey
dive
dive
dive
dive in me
dive
dive
dive
dive in me
dive in me
dive in me
dive in me

dive
dive
dive
dive in me
dive
dive
dive
dive in me
dive
dive
dive
dive in me
dive in me
dive in me
dive in me
dive in me
dive in me
dive in me


@SONG: Sliver
 

Mom and dad went to a show
droped me off a Grandpa Joe's
I kicked and screamed, said please, oh no

(chorus)
Grandma take me home
I wanna be alone

Had to eat my dinner there
had mashed potato's and stuff like that
couldnt chew my meat too good

(chorus)

said why don't you stop your crying 
go outside and ride your bike 
thats what i did, i killed my toes 

(chorus)

after dinner, i had ice cream
fell asleep, and watched tv
woke up in my mother's arms

(chorus)


@SONG: Stain
 

Well he never bleeds and he never fucks
And he never leaves cuz he's got bad luck.
Well he never reads and he never draws
And he never sleeps cuz he's got bad blood yeah
I'm a stain, I'm a stain, I'm a stain, I'm a stain


@SONG: Been A Son
 

She should have stayed away from friends
She should have had more time to spend
She should have died when she was born
She should have worn the crown of thorns
She should have been a son
She should have been a son
She should have been a son
She should have been a son
She should have stood out in the crowd
She should have made her mother proud
She should have fallen on her stance
She should have had another chance
She should have been a son
She should have been a son
She should have been a son
She should have been a son


@SONG: Turnaround
 

Take a step outside yourself
And turn around
Take a look at who you are
It's pretty scary
So silly
Revolting
You're not much
You can't do anything

Take a step outside the city
And turn around
Take a look at what you are
It is revolting
You're really nowhere
So wasteful
So foolish
Poppycock

Who said don't look back?
Don't believe 'em
Go for that crazy sounding restaurant 
'Cos they're gonna try and get behind you
Don't you let them do it
You know what I'm talking about?
You hear me talking?
You hear me talking?

It's pretty scary it's so revolting

Take a step outside the country
And turn around
Take a look at what you are
It is amazing
Take a good look
You're no big deal
You're so petty
It's lots

Take a step outside the planet
Turn around and around
Take a look at where you are
It's pretty scary


@SONG: Molly's Lips
 

She said
She'd take me anywhere
She'd take me anywhere
As long as she stays with me

She said
She'd take me anywhere
She'd take me anywhere
As long as I stayed clean

Kiss kiss
Molly's lips
Kiss kiss
Molly's lips
Kiss kiss
Molly's lips
Kiss kiss
Molly's lips


@SONG: Son of a Gun
 

Up up up and down
Turn turn turnaround
Round round roundabout
And over again
Gun gun son of a gun
You are the only one
Makes any difference what I say
The sun shines in the bedroom
When we play
The raining always starts
When you go away


@SONG: New Wave Polly
 

Polly wants a cracker
Think I should get off of her first
I think she wants some water
To put out the blow torch

It isn't me 
We have some seed
Let me clip
Your dirty wings
Let me take a ride
Don't hurt yourself
I want some help
To help myself
I've got some rope
You have been told
I promise you
I have been true
Let me take a ride
Don't hurt yourself
I want some help
To help myself

Polly wants a cracker
Maybe she would like more food
She asks me to untie her
A chase would be nice for a few

It isn't me 
We have some seed
Let me clip
Your dirty wings
Let me take a ride
Don't hurt yourself
I want some help
To help myself
I've got some rope
You have been told
I promise you
I have been true
Let me take a ride
Don't hurt yourself
I want some help
To help myself

{Polly said}
Polly says her back hurts
And she's just as bored as me
She caught me off my guard
It amazes me, the will of instinct

It isn't me 
We have some seed
Let me clip
Your dirty wings
Let me take a ride
Don't hurt yourself
I want some help
To help myself
I've got some rope
You have been told
I promise you
I have been true
Let me take a ride
Don't hurt yourself
I want some help
To help myself

@SONG: Beeswax
 

Lying here sitting in front of a fire
Not only Megan said I could thrive on a shot
Grinning my manhood and judge the mantle
I cut it up for you
say hey hey
And I wake up
I got my do this way (3X)

She laughs about it
squeeking inflection when the wind blows just right
Dragging your thumbs of my shirt
How many jumps is in it 
Right hey
When I'm getting back
I got my do this way
{incomprehensible babble}

Hear my fucking hate
I got my do this way

If your world is getting ugly
Fiberglass situation is as can as cotton candy 
Sunning out to save a ranch you ovulate
Freedom and count out being wrong
I feel you will gladly take it anal
Filly sli reminds me of someone
I understand your fear for the Love Boat
Don't need to kneel
Save all the cho ho
And I get along
I got my feel this pay
I got a little tale
I got my do this way
{incomprehensible babble}
When you're getting in
I got my do this way

@SONG: Downer
 

Put your sincerity
I've got a royalty
Defending your country
Wish away

I've had a lobotomy
Save your family
Surrealistic fantasy
Bad boy

Fight!

 All we know is
 Restitution
 Living out your
 Date of future
 There's a hope
 Please show me faster
 Don't forget
 To pass a riot

 Somebody served a dinner
 Much like I am
 I know I can't
 Make enough although
 If you go along
 I sing your song

Sickening pessimists
Picketing masses
Separated communists
Apocalyptic bastards
Rinkydink God
For putting me on this Earth
Being very frivolous
Death in mind

Nurse!

 All we know is
 Restitution
 Living out your
 Date of future
 There's a hope
 Please send it faster
 Don't forget
 To pass a riot

 Somebody served a dinner
 Much like I am
 I know I can't
 Make enough although
 If you go along
 I sing your song.


@SONG: Mexican Seafood
 

Oh, it's your face, it isn't even
true the jaws and claims
you entertain and chew the fungus mold
is my intraction
oh, it's only a, it is infection.
Only her tonight, until I pay
Only her tonight, I fell asleep
Oh, coming from, the diarrhea
Oh, her tired form
I come in peace and live a dirty book
on the cloudy class, fender burn, and become a childhood mess
Only her tonight, until I plea
Only her tonight, until I sing
Oh, take me back, lets just concise some
flies, bugs and fleas and even meal can't 
stain the vaseline
It's headed burger's out
in case it learns and takes it's childhood such


@SONG: Hairspray Queen
 

I was your mine, you were mine
I didn't mean you were, mine I was your (3X)
You're in a 
you rang
yours rang
 
I was your mine, you were mine
I didn't mean you were, mine I was your (3X)
Your in a 

At night, wishful gardens
At night, where the heart is
At night, disco gardens
At night, we'll be ga.......

I was your mine, you were mine
I didn't mean you were, mine I was your (3X)
Your in a
Wishful gardens, at night
Where the heart is, at night
Wishful gardens, at night
Wishful gardens

I was your mine, you were mine
I didn't mean you were, mine I was your (3X)
Your in a 
Your rang
Your's rang
at night wishful gardens
at night, where the heart is
at night you were so modest
at night, crisco lockers
at night, the mount for homely
it's like, fistful garbage
at night, the whiz go ga....


@SONG: Aero Zeppelin
 

What's the season of love if you can't have everything
what's the reason of love if you can lose everything
what's the meaning of love, it's a crime if anything
what's the meaning of love, it's grand, it's grand

How can a culture can forget it's plan of yesterday
and you swear it's not a trend
does it matter anyways
barely heat the top of friend like it moves everyday
you could shit upon the stairs
you'll be friends
you'll be friends
you'll be friends
you'll be friends

All the kids have laid it out
and it's back is probably
still it's subtle in the tape
keep a form on equally
now you know it's just the fact
where the world is nowadays
and the day is what we learn
does it matter anyways


@SONG: Big Long Now
 

It's not cold enough
please put his side up
she is moon gray
can we show our faces now
I'm not in a string
she's not turning gray
simple as it seems
can we show our faces now
endless climb
I am blind
what can I hear
call a lie
speaking a phrase
instantly grown
I am blind
waiting in line
{again, substituting 'why am I sure' as the last line}


@SONG: Aneurism
 

Come on over
Do the twist (aha)
Overdo it
Have a fit (aha)
Come on over
Shoot the shit (aha)
Love you so much
Makes me sick (aha)

Beat me out of me (beat up beat up)

She gave the perfect strain to my heart.



Transcribed by Jeff McRae
Nevermind on IRC
jamcrae@rodan.acs.syr.edu


From @xmission.xmission.com:mikejon@xmission.com Sun Dec 25 19:38:27 1994
Received: from punt.demon.co.uk by forex.demon.co.uk with SMTP
	id AA1175 ; Sun, 25 Dec 94 19:38:23 GMT
Received: from punt.demon.co.uk via puntmail for Michelle@forex.demon.co.uk;
          Sun, 25 Dec 94 00:09:36 GMT
Received: from xmission.xmission.com by punt.demon.co.uk id aa00891;
          25 Dec 94 0:09 GMT
Received: (from mikejon@localhost) by xmission.xmission.com (8.6.9/8.6.9) id RAA20801 for Michelle@forex.demon.co.uk; Sat, 24 Dec 1994 17:09:06 -0700
~From: Mike Jones <mikejon@xmission.com>
Message-Id: <199412250009.RAA20801@xmission.xmission.com>
~Subject: Incesticide Lyrics
To: Michelle@forex.demon.co.uk
~Date: Sat, 24 Dec 1994 17:09:05 -0700 (MST)
X-Mailer: ELM [version 2.4 PL22]
Content-Type: text
Content-Length: 9174      
Status: R

@ALBUM: incesticide.
Incesticide - Nirvana


@SONG: Dive
 

Oh
Pick me, Pick me yea
Live alone, lone single
Atleast, atleast yea
Everyone is hollow

Pick me, pick me yea
Everyone is waiting
Pick me pick me yea
You can be the baby

hey
dive
dive
dive
dive in me
dive
dive
dive
dive in me
dive in me
dive in me
dive in me

Kiss this, kiss that yea
Live alone, lone single
Atleast, atleast yea
You could be my hero

Pick me, pick me yea
Everyone is waiting
Hit me, hit me yea
I'm real good at hitting

hey
dive
dive
dive
dive in me
dive
dive
dive
dive in me
dive in me
dive in me
dive in me

dive
dive
dive
dive in me
dive
dive
dive
dive in me
dive
dive
dive
dive in me
dive in me
dive in me
dive in me
dive in me
dive in me
dive in me


@SONG: Sliver
 

Mom and dad went to a show
droped me off a Grandpa Joe's
I kicked and screamed, said please, oh no

(chorus)
Grandma take me home
I wanna be alone

Had to eat my dinner there
had mashed potato's and stuff like that
couldnt chew my meat too good

(chorus)

said why don't you stop your crying 
go outside and ride your bike 
thats what i did, i killed my toes 

(chorus)

after dinner, i had ice cream
fell asleep, and watched tv
woke up in my mother's arms

(chorus)


@SONG: Stain
 

Well he never bleeds and he never fucks
And he never leaves cuz he's got bad luck.
Well he never reads and he never draws
And he never sleeps cuz he's got bad blood yeah
I'm a stain, I'm a stain, I'm a stain, I'm a stain


@SONG: Been A Son
 

She should have stayed away from friends
She should have had more time to spend
She should have died when she was born
She should have worn the crown of thorns
She should have been a son
She should have been a son
She should have been a son
She should have been a son
She should have stood out in the crowd
She should have made her mother proud
She should have fallen on her stance
She should have had another chance
She should have been a son
She should have been a son
She should have been a son
She should have been a son


@SONG: Turnaround
 

Take a step outside yourself
And turn around
Take a look at who you are
It's pretty scary
So silly
Revolting
You're not much
You can't do anything

Take a step outside the city
And turn around
Take a look at what you are
It is revolting
You're really nowhere
So wasteful
So foolish
Poppycock

Who said don't look back?
Don't believe 'em
Go for that crazy sounding restaurant 
'Cos they're gonna try and get behind you
Don't you let them do it
You know what I'm talking about?
You hear me talking?
You hear me talking?

It's pretty scary it's so revolting

Take a step outside the country
And turn around
Take a look at what you are
It is amazing
Take a good look
You're no big deal
You're so petty
It's lots

Take a step outside the planet
Turn around and around
Take a look at where you are
It's pretty scary


@SONG: Molly's Lips
 

She said
She'd take me anywhere
She'd take me anywhere
As long as she stays with me

She said
She'd take me anywhere
She'd take me anywhere
As long as I stayed clean

Kiss kiss
Molly's lips
Kiss kiss
Molly's lips
Kiss kiss
Molly's lips
Kiss kiss
Molly's lips


@SONG: Son of a Gun
 

Up up up and down
Turn turn turnaround
Round round roundabout
And over again
Gun gun son of a gun
You are the only one
Makes any difference what I say
The sun shines in the bedroom
When we play
The raining always starts
When you go away


@SONG: New Wave Polly
 

Polly wants a cracker
Think I should get off of her first
I think she wants some water
To put out the blow torch

It isn't me 
We have some seed
Let me clip
Your dirty wings
Let me take a ride
Don't hurt yourself
I want some help
To help myself
I've got some rope
You have been told
I promise you
I have been true
Let me take a ride
Don't hurt yourself
I want some help
To help myself

Polly wants a cracker
Maybe she would like more food
She asks me to untie her
A chase would be nice for a few

It isn't me 
We have some seed
Let me clip
Your dirty wings
Let me take a ride
Don't hurt yourself
I want some help
To help myself
I've got some rope
You have been told
I promise you
I have been true
Let me take a ride
Don't hurt yourself
I want some help
To help myself

{Polly said}
Polly says her back hurts
And she's just as bored as me
She caught me off my guard
It amazes me, the will of instinct

It isn't me 
We have some seed
Let me clip
Your dirty wings
Let me take a ride
Don't hurt yourself
I want some help
To help myself
I've got some rope
You have been told
I promise you
I have been true
Let me take a ride
Don't hurt yourself
I want some help
To help myself

@SONG: Beeswax
 

Lying here sitting in front of a fire
Not only Megan said I could thrive on a shot
Grinning my manhood and judge the mantle
I cut it up for you
say hey hey
And I wake up
I got my do this way (3X)

She laughs about it
squeeking inflection when the wind blows just right
Dragging your thumbs of my shirt
How many jumps is in it 
Right hey
When I'm getting back
I got my do this way
{incomprehensible babble}

Hear my fucking hate
I got my do this way

If your world is getting ugly
Fiberglass situation is as can as cotton candy 
Sunning out to save a ranch you ovulate
Freedom and count out being wrong
I feel you will gladly take it anal
Filly sli reminds me of someone
I understand your fear for the Love Boat
Don't need to kneel
Save all the cho ho
And I get along
I got my feel this pay
I got a little tale
I got my do this way
{incomprehensible babble}
When you're getting in
I got my do this way

@SONG: Downer
 

Put your sincerity
I've got a royalty
Defending your country
Wish away

I've had a lobotomy
Save your family
Surrealistic fantasy
Bad boy

Fight!

 All we know is
 Restitution
 Living out your
 Date of future
 There's a hope
 Please show me faster
 Don't forget
 To pass a riot

 Somebody served a dinner
 Much like I am
 I know I can't
 Make enough although
 If you go along
 I sing your song

Sickening pessimists
Picketing masses
Separated communists
Apocalyptic bastards
Rinkydink God
For putting me on this Earth
Being very frivolous
Death in mind

Nurse!

 All we know is
 Restitution
 Living out your
 Date of future
 There's a hope
 Please send it faster
 Don't forget
 To pass a riot

 Somebody served a dinner
 Much like I am
 I know I can't
 Make enough although
 If you go along
 I sing your song.


@SONG: Mexican Seafood
 

Oh, it's your face, it isn't even
true the jaws and claims
you entertain and chew the fungus mold
is my intraction
oh, it's only a, it is infection.
Only her tonight, until I pay
Only her tonight, I fell asleep
Oh, coming from, the diarrhea
Oh, her tired form
I come in peace and live a dirty book
on the cloudy class, fender burn, and become a childhood mess
Only her tonight, until I plea
Only her tonight, until I sing
Oh, take me back, lets just concise some
flies, bugs and fleas and even meal can't 
stain the vaseline
It's headed burger's out
in case it learns and takes it's childhood such


@SONG: Hairspray Queen
 

I was your mine, you were mine
I didn't mean you were, mine I was your (3X)
You're in a 
you rang
yours rang
 
I was your mine, you were mine
I didn't mean you were, mine I was your (3X)
Your in a 

At night, wishful gardens
At night, where the heart is
At night, disco gardens
At night, we'll be ga.......

I was your mine, you were mine
I didn't mean you were, mine I was your (3X)
Your in a
Wishful gardens, at night
Where the heart is, at night
Wishful gardens, at night
Wishful gardens

I was your mine, you were mine
I didn't mean you were, mine I was your (3X)
Your in a 
Your rang
Your's rang
at night wishful gardens
at night, where the heart is
at night you were so modest
at night, crisco lockers
at night, the mount for homely
it's like, fistful garbage
at night, the whiz go ga....


@SONG: Aero Zeppelin
 

What's the season of love if you can't have everything
what's the reason of love if you can lose everything
what's the meaning of love, it's a crime if anything
what's the meaning of love, it's grand, it's grand

How can a culture can forget it's plan of yesterday
and you swear it's not a trend
does it matter anyways
barely heat the top of friend like it moves everyday
you could shit upon the stairs
you'll be friends
you'll be friends
you'll be friends
you'll be friends

All the kids have laid it out
and it's back is probably
still it's subtle in the tape
keep a form on equally
now you know it's just the fact
where the world is nowadays
and the day is what we learn
does it matter anyways


@SONG: Big Long Now
 

It's not cold enough
please put his side up
she is moon gray
can we show our faces now
I'm not in a string
she's not turning gray
simple as it seems
can we show our faces now
endless climb
I am blind
what can I hear
call a lie
speaking a phrase
instantly grown
I am blind
waiting in line
{again, substituting 'why am I sure' as the last line}


@SONG: Aneurism
 

Come on over
Do the twist (aha)
Overdo it
Have a fit (aha)
Come on over
Shoot the shit (aha)
Love you so much
Makes me sick (aha)

Beat me out of me (beat up beat up)

She gave the perfect strain to my heart.



Transcribed by Jeff McRae
Nevermind on IRC
jamcrae@rodan.acs.syr.edu

 Here are the lyrics that I got from someone else on the
 net. 

 One more thing, can you explain what that thing on your
 sig is? I mean the "]B=8{**********" type thing.
-- 
--

(:michelle:) 


