Pennyroyal Tea By Nirvana
Lyrics and Tab written by Curt Cobain
Transcribed (Kelly Kristek)

All Comments and Corrections are welcome so please mail me if i am
wrong!!!
My mailing adress is <kkr@gibeah.connected.com>



  This is the main acoustic strumming part just repeat this riff. The
  strumming may not be exact, just listen to cd and you'll get it.       
e:0------0-----0-----------0-----0-------------3-----3----------3-----3--|
B:1------1-----1-----------1-----1-------------0-----0----------0-----0--|
G:2------2-----2-----------2-----2-------------0-----0----------0-----0--|
D:2---------2-----2-----2-----2-----2-------------0----------------0-----|
A:0----0-------------0---------------------2----------------2------------|
E:--------------------------------------3----------------3---------------|
  I'm on .....       My time...       With Everyone......

  Start the
  Distortion
   this note
e:----3---|
B:----0---|
G:----0---|
D:----0---|
A:----2---|
E:----3---|


       Play this with distortion. (Sing verse 1 and 2 then 1 agian then go
       to verse three and play that..)
            sit and drink penny... Tea.................   <verse 1>
            Steal...thats inside.. Me..............       <verse 2>
e:----------------------------------------------------------------------|
B:----------------------------------------------------------------------|
G:---|>5--5-5--5-5-5-5/7--7-7--7-7---3--3-3-3--3-3-3--3-3-3-3-3-3-3-3/|-|
D:---|>5--5-5--5-5-5-5/7--7-7--7-7---3--3-3-3--3-3-3--3-3-3-3-3-3-3-3/|-|
A:---|>3--3-3--3-3-3-3/5--5-5--5-5---1--1-1-1--1-1-1--1-0-1-0-1-0-1-0/|-|
E:---|----------------------------------------------------------------|-|
     |-------<------<----<---Back To Begining<--<----<----<-----------|

  

          I'm anemic Royal......Ty....................<Verse3>
e:--------------------------------------------------------------|
B:--------------------------------------------------------------|
G:-5--5-5--5-5-5-5/7--7-7--7-7---3--3-3-3--3-3-3--3-3-3-3-3-3-3-|
D:-5--5-5--5-5-5-5/7--7-7--7-7---3--3-3-3--3-3-3--3-3-3-3-3-3-3-|
A:-3--3-3--3-3-3-3/5--5-5--5-5---1--1-1-1--1-1-1--1-1-1-1-1-1-1-|
E:--------------------------------------------------------------|
                                                         Back to Acoustic
                                               
    SOLO
    This is the best i can figure out for the solo.If you have a better 
    Version of it please send me a copy.
e:-----------------------------------------------------------3----3-3-2-0----|
B:------------------------------------------------------------------------3-2|
G:--------2b(3)--2/3\2-------------2b(3)---2b(3)-----------------------------|
D:-----2----------------2-------2--------2-------2---------------------------|
A:--0------------------------0----------------------------2------------------|
E:-----------------------------------------------------3---------------------|
                      


  

e:----3-3-2-0-----------|
B:------------3-2-0-----|
G:------------------2-0-|
D:----------------------|
A:----------------------|
E:----------------------|
            Play this solo twice then go to next riff 

                                               
e:-------------------------------------------------------------------------|
B:-----5----5---5-5/7-----7----7--------3----3--3-3-3-3-3-3-3-3---------5--|
G:-----5----5---5-5/7-----7----7--------3----3--3-3-3-3-3-3-3-3---------5--|
D:---5----5-----5-5/7-----7----7------3----3----3-3-3-3-3-3-3-3-------5----|
A:-3------------3-3/5---5----5------1-----------1-0-1-0-1-0-1-0-----3------|
E:-------------------------------------------------------------------------|


B:--5---5-5/7-----7----7----3-3-3-3-3-3-3-|
G:--5---5-5/7-----7----7----3-3-3-3-3-3-3-|
D:5-----5-5/7-----7----7----3-3-3-3-3-3-3-|
A:------3-3/5---5----5------1-1-1-1-1-1-1-|
E:----------------------------------------|

After the solo go back to the Acoustic part and play  
the part under verse's 1 and 2 three times...

        
        
        OUTRO                     P=pulloff

      Distorded              Normal guitar
e:--------------------------------------------------|--|
B:------1-Hit-this-chord--------1-------------1p0---|--|
G:------2-a-few-times-then------2----------2--------|--|
D:------2-go-to-this...---------2-------2-----------|--|
A:--------------------------------------------------|--|
E:--------------------------------------------------|--|
                                         Let Ring

