#----------------------------------PLEASE NOTE---------------------------------#
#This file is the author's own work and represents their interpretation of the #
#song. You may only use this file for private study, scholarship, or research. #
#------------------------------------------------------------------------------#


Date: Sun, 13 Apr 97 12:54:29 PDT
From: Tibor Risko <ozzy@icon.co.za>


-------------------------|----------------------|------
-------------------------|----------------------|------
------------13----(13)/--|----------------------|------
-------------------------|----------------------|------
--13br-11----------------|--13br--11--11--------|------
-------------------------|-----------------16\--|------


-------------12br------------------------------------------------
-------------------11br---9--------------------------------------
---------------------------11---10---8-----10---8----------------
---------------------------------------10----------10----^^^^^---
--13br-11--------------------------------------------------------
-----------------------------------------------------------------


-------------------------|--------------------------
-------------------------|--------------------------
-----------13------(13)/-|--------------------------
-------------------------|--------------------------
-13br-11-----------------|---13br-11-11-------------
-------------------------|-----------------13\------

-----------12br--11--12br-----------11--8--8------------|
---------------------------11b(12)------------11--9-----|
-----------------------------------------------------10-|
--------------------------------------------------------|
13br--11------------------------------------------------|
--------------------------------------------------------|

-------------12b(13)--11-----(11)\------------
----------------------------------------------
10--10----------------------------------------
--------13------------------------------------
----------------------------------------------
----------------------------------------------

