#----------------------------------PLEASE NOTE---------------------------------#
#This file is the author's own work and represents their interpretation of the #
#song. You may only use this file for private study, scholarship, or research. #
#------------------------------------------------------------------------------#
#
From: PARSONEA@snyalfva.cc.alfredtech.edu
Date:     Fri, 19 Jan 1996 21:47 EST
Subject:  upload-faith no more

submitted by Eric Parsons

Ugly in the morning 
Faith No More
bla bla bla....
WWWWWWWAAAAAAAAAAAAAOOOOOOOOOOOOOOOOOOOOOOOOOO
BROTHERHOOD!!!!!!!
This song is F*#%&ng crazy live

---------------------------------------------------2------------------------
---5--------3---------4--------------4-------------------4----------------
---5--------3---------4------------------4-------------------4-----------
---3--------3---------2----------2-------------2-----------------------
-----------------------------------------------------------------------
----------------------------------------------------------------------


---------------------------------------------------------------------------
-----5------------3---------------4---4---4-------------------------------
-----5------------3---------------4---4---4--------------------------------
-----3--------------------3-------2---2---2-------------------------------
---------------------------------------------------------------------------
----------------------------------0---0---0-------------------------------



ring  out                                      ring out
---------------------------------------------------------2-----------------
---5------5-------3-----3----4--------------4-------------------4-----------
---5--------5-----3-----3----4------------------4-------------------4-------
---3---3-----3----3-----3----2----------2-------------2---------------------
----------------------------------------------------------------------------
----------------------------------------------------------------------------
----------------------------------------------------------------------------


then there is this riff I think with a flanger or some chorus

---------------------------------------
----------------------------------------    played really fast
----------------------------------------
----------------------------3---3---3---
------------1---4------2------------------
0-0-0-3-0-0---0---0--0-------------------


d----------------------------3-------3--------------3---
a-//--------5-----5----------1-------1--------------1---
e //--0--0--3--0--3--0--1--1---0--1-----0--1--0--1--

    WHAT YOU MEANT!------------------------------------

d--5------------3--3--4--4--5--5--6--6-----
a--3--5---6--6--1--1--2--2--3--3--4--4------
e-----3---4--4----------------------------
     bla bla bla   


back into the 2nd verse is 
-------------------------------------------------------------------------
------16----------------16---------------17-------15----16----------------16----
------16--------16-------------16--------17-------15----16-----------16---------
------14--14---------------14------14----15-------15----14-------------------14--
-------------14--------------------------------------------------14---------
------------------------------------------------------------0--0--------0----------

   more variations like this , which I don't feel like writing


   end
   g-----------------------------5--5--5-
   d------3---------6-----4------3--3--3-
   a------1---------4-----2--------------
   e---------0--0-----0--0---0-
   
   then put these power chords before that part to get the ending 
   a--5--4--3--2-
   e--3--2--1--0-   very very very fast.

   BROTHERHOOD OUT MOTHER F*%$^#S
   BP REIGNS TERROR ON THE UNDERGROUND DEATH METAL SCENE!
   WWWWAAAAAAAAAAAAOOOOOOOOOOOOOOO





