#----------------------------------PLEASE NOTE---------------------------------#
#This file is the author's own work and represents their interpretation of the #
#song. You may only use this file for private study, scholarship, or research. #
#------------------------------------------------------------------------------##
From: Ben Yau <byau@jarthur.Claremont.EDU>

SONG: Everything I do I do it for You
ARTIST" Bryan Adams.


This is as much as I can figure out.
it's easiest if you just use the top four strings (E, B, G, D)


each 4 dashes is an eight note.. the star on top is the beginning of each
measure

*       *       *       *       | *       *       *       *        |
2---------------2-------2-3-3-2-| 0---------------0-------0-5-5-0- |
----3-------3-------3-----------| ----2-------2-------2---2-5-5--- |
--------2-------2-----------0---| --------2-------2--------------- |
0-----------------------0-------| 2------------------------------- |

*       *       *       *       | *       *       *       *        |
3---------------3---------0-2---| 0---------------0-------0---0--- |
----0-------0-------0---3---3-3-| ----2-------2-------2-------2--- |
0-------0-------0-------2-----2-| --------2-------2-------2------- |
--------------------------------| -------------------------------- |

*       *       *       *       | *       *       *       *        |
2---------------2-------2-3-3-2-| 0---------------0-------0-5-5-0- |
----3-------3-------3-----------| ----2-------2-------2---2-5-5--- |
--------2-------2-----------0---| --------2-------2--------------- |
0-----------------------0-------| 2------------------------------- |

3---------------3-------3+------| 2----0------2---0-----------0--- |
----0-------0-----------0-------| 3-----3-----3---2--------------- |
0-------0-------0-------0-------| ------------2------------------- |
------------------------0-------| 0-----------0---2--------------- |

etc..  ihopefully by now you can figure out that I'm basically just 
playing the chords with a certain plucking order.  that's all it really is.
Here are the chords I use (only top four strings) (DGBE)

VERSE:

D(0232)			A(2220)			G(0003)
Look Into my eyes	There you'll see	What you mean to

A(2220)
Me....

D(0232)			A(2220)				G(0003)
search your heart	search your soul..& when you 	find me there you will

D(0232)			A(2220)
search...no		more

G(0003)					D(0232)		A(2220)
You can't tell me it's not worth 	tryin'		for
You can't tell me it's not worth 	dyin'		for

you know it's..
D(0232)				A(2220)			D(0232)
true..everything I		do... I do it for 	you..

VERSE2:
Look into your heart..you will find..there's nothing there to hide
Take me as I am..take my life, I'd give it all - I would sacrifice

Don't tell me it's not worth fighting for
I can't help it, there's nothing I want more
You know it's true, everything I do..I do it for you

A(2220)		D(0232)		A(2225)		G(0003)
Ther's no love	like your love	and no other	could give more love

D(0232)			A(2225)			*(4546)		A(2225)
There's no where	unless you're there	all the time	all the way

*-- not sure what chord this is.. was about to put Ab but that's wrong...

(instrumental)  G(0003) D(0232) G(0003)  D(0232)

G(0003)				D(0232)			A(2220)
Can't tell me it's not worth	tryin'			for
I can't help it there's nothin'	I want			more

yeahh..

D(0232)			A(2225)			G(0003)
I'd fight for you	I'd lie for you		WWalk the wire for you

G(0003)			A(2225)			*(3336)
yeah i'd die		for			you....


D(0232)			A(2220)			G(0003)
you know it's true	everything I do		whoa....

A(2220)			D(0232)
I'd do it for 		you..



submitted by:
byau@jarthur.claremont.edu
Ben Yau. (JTSFMH)

