Received: from animal-farm.nevada.edu by redrock.nevada.edu (5.65c/M1.4)
	with SMTP id <AA29351>; Wed, 24 Feb 1993 10:07:22 -0800
Received: from madrone.eecs.ucdavis.edu by animal-farm.nevada.edu id <AA01566@animal-farm.nevada.edu>; Wed, 24 Feb 1993 10:07:16 -0800
Received: by madrone.eecs.ucdavis.edu (5.57/Ultrix3.0-C/eecs 1.1)
	id AA01290; Wed, 24 Feb 93 10:07:08 -0800
Date: Wed, 24 Feb 93 10:07:08 -0800
From: darsie@eecs.ucdavis.edu (Richard Darsie)
Message-Id: <9302241807.AA01290@madrone.eecs.ucdavis.edu>
To: jamesb@animal-farm.nevada.edu
Subject: Tab: Woody Guthrie, "Baltimore to Washington"


Title: BALTIMORE TO WASHINGTON
Notes: WRITTEN/RECORDED BY WOODY GUTHRIE   arr. by Kev
Should be "lively" to fast.
Tuning:EADGBE

               C
------------|--3--------3-----3-----3------3-s-5--0----------------------|--
------------|--|--------|-----|-----|------|------|---3---1--------------|--
------------|--|--------|-----|-----|------|------|-------|-------0------|--
------------|--|---2----|--2--|--2--|--2---|------|-------|--2-------2---|--
------0--2--|--3--------|-----3-----|------3------3-------3--------------|--
---3--------|-----------3-----------3---------------------------3--------|--
        I've  gam-bled all a-round the    town of Newport News and  the

    F                           C
-----------------------------|--0--------0-------------0-------|--------------
---------1*------3w----1-----|--|--------|---3w--1-----|-------|--------------
----2------------|-----|-----|--|---0----|-------|-----|-------|--------------
----|--3------3--|--3--|--3--|--|--------|-------|--2--|---2---|--------------
----|------------|-----|-----|--3--------3-------3-----3-------|--------------
----1------1-----1-----1-----|---------------------------------|--------------
   more    I    gam-  ble      boys the more I  lose.  Bal-ti

  G                                  C
-----------------5p3--------------|-------------------|------------|----------
--3--------------|-------5p3------|--1-------------1--|------------|----------
--|--------4-----|-------|--------|--|-------0-----|--|------------|----------
--|--5--------5--|---5---|-----5--|--|--2-------2--|--|------------|----------
--|--------------|-------|--------|--3-------------3--|--3--2--1---|----------
--3-----3--------3-------3--------|--------3----------|------------|----------
 more                to Washing-    ton.

  F                              C                 F   Br
------------------------------|-----------------|------|----------------------
--------1------3w------1------|--1-----------1--|------|------------3w--------
--2-----|------|-------|------|--|-----0-----|--|--2---|-----2------|---------
--|--3--|---3--|---3---|----3-|--|--2-----2--|--|--|---|--------3---|---------
--|-----|------|-------|------|--3-----------3--|--|----------------|---------
--1-----1------1-------1------|--------3--------|--1------1---------1---------
  Oh   Balti- more to Wash-ing- ton                Oh    Bal-   ti-more

                C                               F
--------------|--0-------------0-------------|--------------------------------
------1-------|--|-------1-----|-------1-----|--------1-----3-----------------
------|-------|--|-------------|-------------|--2-----|-----|-----------------
--3---|---3---|--|--2-------2--|--2-------2--|--|--3--|--3--|---3-------------
------|-------|--3-------------3-------------|--|-----|-----|-----------------
------1-------|--------3-------------3-------|--1-----1-----1-----------------
  to Wash-ing-  ton                            Bal-   ti-  more to

             C                              G
----------|--0---------------------------|-------------------------|----------
--1-------|--|--------1-----------1------|--3--------3-----5p3-----|----------
--|-------|--|--------------------|------|--|--------------|-------|----------
--|----3--|--|--2--------2-----2--|---2--|--|--3--------3--|---3---|----------
--|-------|--3--------------3-----3------|--|--------------|-------|----------
--1-------|--------3---------------------|--3-----3--------3-------|----------
 Wash-ing-  ton                   I guess  they                got

  G7        C
---------|--------------------|-----------------------------------------------
--0------|--1--------------1--|-----------------------------------------------
--|------|--|--------0-----|--|-----------------------------------------------
--|---0--|--|--2--------2--|--|-----------------------------------------------
--|------|--3--------------3--|-----------------------------------------------
--3------|--------3-----------|-----------------------------------------------
troubles   too.

Explanatory notes:   *  Indicates a "grace" note
                     p  is a pull-off
                     w  is a slur -I use SG's term of "wham" to avoid
confusion with:      s  slide from 1st to 2nd note
                     Br is a "brush" across the strings shown

Lyrics:     I've gambled all around the town of Newport News
            and the more I gamble, boys the more I lose!
            Baltimore to Washington.

            Oh Baltimore to Washington.
            Oh Baltimore to Washington.
            Baltimore to Washington,
            I guess they got troubles too.

            The hobos know me up and down the line,
            they don't know the troubles on my mind.
            I guess they got troubles too.

            I guess they got troubles too, boys.
            I guess they got troubles too.
            I guess they got troubles too.
            Baltimore to Washington.

            The po-lice know me up and down the line-
            they don't know the troubles on my hands;
            I guess they got troubles too.

            I guess they got troubles too.
            I guess they got troubles too.
            I guess the po-lice they got their troubles too.
            Baltimore to Washington.

            Goin' up North I'm goin' North this Fall,
            if my luck don't change I won't be back at all.
            Baltimore to Washington.

            Oh Baltimore to Washington.
            Oh Baltimore to Washington.
            Baltimore to Washington,
            I guess they got troubles too.

