#----------------------------------PLEASE NOTE---------------------------------#
#This file is the author's own work and represents their interpretation of the #
#song. You may only use this file for private study, scholarship, or research. #
#------------------------------------------------------------------------------##
>From rte@Virginia.EDU (Richard T. Eppink)
Subject: TAB: Loser
Date: Sat, 12 Mar 1994 16:10:16 GMT

A fairly simple song, nonetheless, there was a request so:

It's in drop D, so, do all that.

The intro/verse part is played with a slide and goes as follows

e---------------------------------------------------------------
B---------------------------------------------------------------
G---------------------------------------------------------------
D---0-0--12-0-12---12\------0-0--12-0-12---12\------------------
A---0-0--12-0-12---12\\-----0-0--12-0-12---12\\-----------------
D---0-0--12-0-12---12\\\----0-0--12-0-12---12\\\----------------

That continues over and over through out.

The other part, that is played over the slide part is as
follows:

e---------------------------------------------------------------
B-----------7-7-7-5-5-----------7-7-7-8-8-----------------------
G---7-7-9-7-------------7-7-9-7---------------------------------

And that is also repeated over and over at different parts.
As far as the lyrics go, they were posted recently to 
alt.music.alternative, but I don't have them.


thisletterfrom JEZMUND, TFB thankyouforyourtime.
HAHAHAHAHAHAHAHAHAHAHAHAHAHAHAHAHAHAHAHAHAHAHAHAHAHAHAHAHAHAHAHAHAHAHA
