#----------------------------------PLEASE NOTE---------------------------------#
#This file is the author's own work and represents their interpretation of the #
#song. You may only use this file for private study, scholarship, or research. #
#------------------------------------------------------------------------------##
Received: from animal-farm.nevada.edu by redrock.nevada.edu (5.65c/M1.4)
	with SMTP id <AA06028>; Tue, 30 Mar 1993 00:57:57 -0800
Received: from kunrc1.urc.kun.nl by animal-farm.nevada.edu id <AA26412@animal-farm.nevada.edu>; Tue, 30 Mar 1993 00:57:40 -0800
Received: from AZNVX1.AZN.NL (AZNVX1) by KUNRC1.URC.KUN.NL (PMDF #12484) id
 <01GWF0O4EM748WW2U5@KUNRC1.URC.KUN.NL>; Tue, 30 Mar 1993 10:58 MET
Date: Tue, 30 Mar 93 10:58 MET
From: Jeroen van der Laak <PA_ELEC@aznvx1.azn.nl>
Subject: the passenger, Iggy Pop
To: JAMESB@animal-farm.nevada.edu
Message-Id: <5B8D53E4A25F000741@AZNVX1.AZN.NL>
X-Envelope-To: JAMESB@ANIMAL-FARM.NEVADA.EDU
X-Vms-To: @JAMESB
X-Vms-Cc: PA_ELEC
Comments: Sent using PMDF-822 V3.1, routing is done by KUNRC1

Hi James, please put this one on Navada if you like, it's
a great song from my youth. Anyone mail me at PA_ELEC@AZNVX1.AZN.NL
for comments, corrections etc.
Jeroen

The passenger - Iggy Pop
(from the album Lust for life, 1977)

keep playing  | / . / / | / . / / | / . / / | / . / / |
              | C       | F       | C       | E       |

I am the passenger and I ride and I ride
I ride through the city's backsides
I see the stars come out of the sky
yeah the bright and hollow sky
you know it looks so good tonight
I am the passenger
I stay under glass
I look through my window so bright
I see the stars come out tonight
I see the bright and hollow sky
over the city's ripped backsides
and everything looks good tonight
singing la la la la lalalala
la la la la lalalala la la
get into the car
we'll be the passenger
we'll ride through the city tonight
we'll see the city's ripped backside
we'll see the bright and hollow sky
we'll see the stars that shine so bright
stars made for us tonight
oh the passenger
oh how he rides
oh the passenger
he rides and he rides
he looks through his window
what does he see?
he sees the bright and hollow sky
he sees the stars come out tonight
he sees the city's ripped backsides
he sees the winding ocean drive
and everything was made for you and me
all of it was made for you and me
'cause it just belongs to you and me
so let's take a ride
and see what's mine
singing la la la la lalalala
la la la la lalalala
la la la la lalalala la la
oh the passenger
he rides and he rides
he sees things from under glass
he looks through his window side
he sees the things he knows are his
he sees the bright and hollow sky
he sees the city sleep at night
he sees the stars are out tonight
and all of it is yours and mine
and all of it is yours and mine
so let's ride and ride
singing la la la la lalalala
la la la la lalalala
la la la la lalalala la la
