From: patters@dirac.scri.fsu.edu (Jason Patterson)

Spin The Black Circle
by Pearl Jam
transcribed by Scott S. Minder


Intro I:

Guitar 1 plays this figure.
Guitar 2 doubles at *

 B A G B5                 *B A G B5
-----------------------------------------------------
-----------------------------------------------------
-------4-4-4-4-4-4-4-4-4-4-------4-4-4-4-4-4-4-4-4-4-
-------4-4-4-4-4-4-4-4-4-4-------4-4-4-4-4-4-4-4-4-4-
-2-0---2-2-2-2-2-2-2-2-2-2-2-0---2-2-2-2-2-2-2-2-2-2-
-----3-------------------------3---------------------


Intro II/Chorus

Guitar 1

 F  E  Eb D  C
--------------------------------------
--------------------------------------
-10\9--8--7--5------------------------
-10\9--8--7--5------------------------
-8-\7--6--5--3------------------------
--------------------------------------

Guitar 2

-------------------3---3---3----------
-----------------1-1-1-1-1---1--------
--------------------------------------
--------------------------------------
--------------------------------------
--------------------------------------

Repeat


Verse:

Guitar 1:
Played fast, especially the chords that are slid down to.

 B5              A5    B5              A5
---------------------------------------------
---------------------------------------------
-4-4-4-4-4-4-4-4\2-2-2-4-4-4-4-4-4-4-4\2-2-2-
-4-4-4-4-4-4-4-4\2-2-2-4-4-4-4-4-4-4-4\2-2-2-
-2-2-2-2-2-2-2-2\0-0-0-2-2-2-2-2-2-2-2\0-0-0-
---------------------------------------------

repeat

 D5              C5    D5              C5
---------------------------------------------
---------------------------------------------
-7-7-7-7-7-7-7-7\5-5-5-7-7-7-7-7-7-7-7\5-5-5-
-7-7-7-7-7-7-7-7\5-5-5-7-7-7-7-7-7-7-7\5-5-5-
-5-5-5-5-5-5-5-5\3-3-3-5-5-5-5-5-5-5-5\3-3-3-
---------------------------------------------

repeat


Solo:
Played choppy with some raking to cause mild harmonics

Guitar 2:

--------------------------------------
--------------------------------------
-5-5-5-6-5-4-4-4-5-4-3-3-3-4-3-2------
-5-5-5-6-5-4-4-4-5-4-3-3-3-4-3-2------
--------------------------------------
--------------------------------------


Guitar 1:

--------------------------------------
--------------------------------------
-5-5-5-5-5----------------------------
-5-5-5-5-5-etc------------------------
-3-3-3-3-3----------------------------
--------------------------------------

repeat

Bridge from solo:

Guitar 1:
Played fast, especially the chords that are slid down to.

 B5              A5    B5              A5
---------------------------------------------
---------------------------------------------
-4-4-4-4-4-4-4-4\2-2-2-4-4-4-4-4-4-4-4\2-2-2-
-4-4-4-4-4-4-4-4\2-2-2-4-4-4-4-4-4-4-4\2-2-2-
-2-2-2-2-2-2-2-2\0-0-0-2-2-2-2-2-2-2-2\0-0-0-
---------------------------------------------


 D5              C5    D5              C5
---------------------------------------------
---------------------------------------------
-7-7-7-7-7-7-7-7\5-5-5-7-7-7-7-7-7-7-7\5-5-5-
-7-7-7-7-7-7-7-7\5-5-5-7-7-7-7-7-7-7-7\5-5-5-
-5-5-5-5-5-5-5-5\3-3-3-5-5-5-5-5-5-5-5\3-3-3-
---------------------------------------------

 E5              D5    E5              D5
---------------------------------------------
---------------------------------------------
-9-9-9-9-9-9-9-9\7-7-7-9-9-9-9-9-9-9-9\7-7-7-
-9-9-9-9-9-9-9-9\7-7-7-9-9-9-9-9-9-9-9\7-7-7-
-7-7-7-7-7-7-7-7\5-5-5-7-7-7-7-7-7-7-7\5-5-5-
---------------------------------------------

repeat E5\D5 E5\D5 once more

Outro:

Same as chorus

Corduroy


Corduroy
by Pearl Jam
transcribed by Scott S. Minder

Notes:

Some sections of the song are not transcribed, but are obvious
repetitions of earlier sections.  I have tried to note these
sections when possible.

Guitar I  - medium-light distortion
Guitar II - heavy distortion


Intro:

This is a sampling of the intro.  All the parts are here, but some
sections are longer than tabbed.  Use your ears to figure them out.

w/ high bass
Guitar I

-----------------------------------------------------------------------
-----0---0-----0---0-----0---0-----0---0-----0---0-----0---0-----0---0-
-----------------------------------------------------------------------
-2-2---2---2-2---2---2-2---2---2-2---2---2-2---2---2-2---2---2-2---2---
-----------------------------------------------------------------------
-----------------------------------------------------------------------


Guitar II
-----------------------------------------------------------------------
---------------0---0-----0---0-----0---0-----0---0-----0---0-----------
-----------------------------------------------------------------------
-----------------------------------------------------------------------
-------------------------------0-0---0---0-0---0---0-0---0---0-3-3-3-3-
-----------------------------------------------------------------------


Verse:
Guitar I
 F        E  G      F        E  G
-8--8--8--7--10-----8--8--8--7--10--------------
-10-10-10-9--12-----10-10-10-9--12--------------
-10-10-10-9--12-----10-10-10-9--12--------------
-10-10-10-9--12-----10-10-10-9--12--------------
-8--8--8--7--10-----8--8--8--7--10--------------
------------------------------------------------


Guitar II
 F5       E5 G5     F5       E5 G5
------------------------------------------------
------------------------------------------------
------------------------------------------------
-3--3--3--2--5------3--3--3--2--5---------------
-3--3--3--2--5------3--3--3--2--5---------------
-1--1--1--0--3------1--1--1--0--3---------------

repeat until chorus


Chorus:

Guitar I
 C           B        A  G
-------------2--2--2--0--3--3-----3----------
-1--1--1--1--4--4--4--2--3----3-----3--------
-0--0--0--0--4--4--4--2--0------0-----0------
-2--2--2--2--4--4--4--2--0-------------------
-3--3--3--3--2--2--2--0--x-------------------
-------------------------3-------------------


Guitar II
 C5         B5       A5 G5
---------------------------------------------
---------------------------------------------
---------------------------------------------
-10-10-10-10-9--9--9--7--5-------------------
-10-10-10-10-9--9--9--7--5-------------------
-8--8--8--8--7--7--7--5--3-------------------

repeat as needed

Bridge between the chorus and verse is similar to intro



Bridge ("Everything has changed ... Absolutely ...")

Guitar I

-2-3-3-3-3-2-3-3-3-3-3-3-2-3-3-3-3-3-3-2-3-3-3-3-3-3-2-
-3-----------3-------------3-------------3-------------
-------------------------------------------------------
-------------------------------------------------------
-------------------------------------------------------
-------------------------------------------------------



Guitar II
 B                         C
-2-2-2-2-2-2-2-2-2-2-2-2---3-3-3-3-3-3-3-3-3-3-3-3-----
-4-4-4-4-4-4-4-4-4-4-4-4---5-5-5-5-5-5-5-5-5-5-5-5-----
-4-4-4-4-4-4-4-4-4-4-4-4---5-5-5-5-5-5-5-5-5-5-5-5-----
-4-4-4-4-4-4-4-4-4-4-4-4---5-5-5-5-5-5-5-5-5-5-5-5-----
-2-2-2-2-2-2-2-2-2-2-2-2---3-3-3-3-3-3-3-3-3-3-3-3-----
-------------------------------------------------------


Outro:

Guitar I plays Bridge (above) part

Guitar II plays Intro part



latre..


-------------------------------------------------------------------------------

jason patterson . crunchy@freenet.scri.fsu.edu  //| // // //| //   scene  n._.n
ncruncher : irc . patters@scri4d.scri.fsu.edu  //||// // //||//  missing  `o o'
number cruncher . patters@dirac.scri.fsu.edu  // |// // // |//  #0062048  (~@~)

 the nin home page is at www link: "http://www.scri.fsu.edu/~patters/nin.html"
 "i'm stuck in this dream it's changing me i am becoming" - trent reznor - nin

-------------------------------------------------------------------------------

