-------------------------------------------------------------------------
"Synchronicity II" by the Police from the album "Synchronicity"

Transcribed by Shane Faulkner (faulkner@acsu.buffalo.edu)

The part behind the moaning at the beginning....
   
   p    p     p     p    p
--7_5--7_5---7_5---7_5--7_5-------
--5----5-----5-----5----5---------
----------------------------------   This part is done a total of 8 times
----------------------------------
----------------------------------
----------------------------------

Fill before the first verse:

---------------
--3--3---------
--------2--2~--
---------------
---------------
---------------

"Another suburban family morning...."

-------------------------------------------------------
-------------------------------------------------------
----2~----2~---4--4--4--4--2---4~--4--4--4--4--2--2~---
-------------------------------------------------------
--0-----4----------------------------------------------
-------------------------------------------------------

"Mother chants her litany of boredom and frustration..."

-------------------------
-2-2---3-3---4-4---3-3---
-2-2---2-2---2-2---2-2---
-2-2---4-4---4-4---4-4---
-0-0---0-0---0-0---0-0---
-------------------------

"Daddy only stares into the distance..."

---------------------------------------
--------6--6---------------6--6--------
--5--5--------5--5---4--4--------4--4--
---------------------------------------
---------------------------------------
---------------------------------------


Fill before clean part:

D/E D/E D/E D/E E/F#   D/E D/E D/E D/E D/E E/F# E/F#

D/E chord:         E/F# chord:
  -------------------------
  -3---------------------5-     Sorry if I've named these chords incorrectly
  -2---------------------4-     Maybe they're Asus4 and Bsus4....
  -2---------------------4-
  -------------------------
  -------------------------

"Many miles away...."

---------------------------------------------------------
-----0-----0-------1--1------1-----1-----0-----0-----0---
-------2-----2----------2------2-----------0-----0-------
---------2-----2----------3------3-----------0-----0-----
---0-----------------------------------------------------
---------------------------------------3-----------------

                     *************
--------------------------------------------------------
----3-----3-----3---------------------------------------
------2-----2--------1-----1-----1----2-----2-----2----- repeat starred part
--------3-----3--------2-----2----------3-----3---------
-------------------------2-----2----------3-----3-------
--1----------------0----------------0----------------0--

During the Loch Ness Monster part of the song (as I call it), I just hit an
F# major chord, turn on a lot of delay, and do some long scratchy pick slides,
then repeat the part behind the moaning at the beginning of the song.

The rest of the song repeats the same figures above, except for the very end
which I'll show below.

"cottage on the shore........of a dark....... "
  E                   F
-----------------------------------------------------1-----1-----
-------------------------------------------------------1-----1---
---same as above................-----4-----4-----4-------2-----2-
---------------------------------------5-----5-------------------
-----------------------------------------5-----5-----------------
-----------------------------------0---------------0-------------

Fade out with these chords...

--0--0------0--0------0--0------1--1---
--0--0------0--0------0--0------1--1---
--1--1------2--2------4--4------2--2---
--2--2------3--3------5--5------3--3---
--2--2------3--3------5--5------3--3---
--0--0------0--0------0--0-------------
