Received: from nevada.edu (animal-farm.nevada.edu) by redrock.nevada.edu (5.65c/M1.4)
	with SMTP id <AA03323>; Sun, 6 Dec 1992 17:18:48 -0800
Received: from rpi.edu by animal-farm.nevada.edu. id aa16513; 6 Dec 92 17:14 PST
Received: from localhost (marcus.its.rpi.edu) by rpi.edu (4.1/SMHUB39);
	id AA05527; Sun, 6 Dec 92 20:13:58 EST for jamesb@nevada.edu
From: larsoe@rpi.edu
Mmdf-Warning:  Parse error in original version of preceding line at animal-farm.nevada.edu.
Received: by localhost (AIX 3.1/UCB 5.61/AIXV3-SUB16);
	id AA63428; Sun, 6 Dec 92 20:13:32 -0500 for jamesb@nevada.edu
Message-Id: <9212070113.AA63428@localhost>
Subject: Beutiful Girls by Van Halen
To: jamesb@nevada.edu
Date: Sun, 6 Dec 92 20:12:45 EST
X-Mailer: ELM [version 2.3 PL11]

			Beautiful Girls  
			 by Van Halen

			transcribed by
		  Eric Larson larsoe@rpi.edu

			     ________________
Main Riff (intro)               1,2,3| 4
-------------------------------------|---------------------------
-------------------------------------|---------------------------
----2-H-H--2----2-2-----------------.|---------------------------
--2-2--3-4-2----2-2-----P---X-5-5/6-.|-7-6\4---------------------
--------------------4--5-2--X-5-6/7--|-5-4\2---------------------
--------------2----------------------|---------------------------
	      T

Verses (slightly muted)
-------------------O-
-------------------O-
---------------------
----------4---P------ Etc. He does simple variations on this throughout
------2-4-5--4-O-4---      The verses.
--O-O-O--------------

Bridge (These are the chords, I'm not going to try to notate the rythmn)
F#/A / / / / /           B / / / / / / / / / /
---------------------------|-------------------------|
--2------------------------|-------------------------|
--2-------------P-P-------.|------------------------.|
--2------------4-2-O------.|-4--------4-2-O---4-----.|
--O------------------2-----|-2--------------2-2------|
--2------------------------|-------------------------|
..What a sweet talkin honey
whith a little bit of money....

E    F# G        A      B   C
Here I am,  Your man of the world
E   F#  G        A      B  C
All I need, Is a beautiful girl
G     C      D       E
Ahhhh yeah, beautiful girls

(And in the outro chorus he does this:)
D    A              E
Ahhh yeah, beautiful girls              
								 ______
      ___                                                (__)   /      \
     (__   _   ` _        Eric Larson                    (oo)  (  Moo?  )
     (____/ )_/ (__       1003 Caldwell Hall      /-------\/ --'\______/
     ______________       (518)276-4672          / |     ||
    (______________)      larsoe@rpi.edu        *  ||----||
						   ^^    ^^
