From uunet!zaphod.mps.ohio-state.edu!magnus.acs.ohio-state.edu!usenet.ins.cwru.edu!agate!linus!linus.mitre.org!mwunix!m19318 Tue Aug 11 15:34:43 PDT 1992
Article: 1482 of alt.guitar.tab
Newsgroups: alt.guitar.tab
Path: nevada.edu!uunet!zaphod.mps.ohio-state.edu!magnus.acs.ohio-state.edu!usenet.ins.cwru.edu!agate!linus!linus.mitre.org!mwunix!m19318
From: m19318@mwunix (Ian Dickens)
Subject: Re: TAB REQUEST : HEY JOE by Hendrix   
Message-ID: <1992Aug11.130929.7067@linus.mitre.org>
Sender: news@linus.mitre.org (News Service)
Nntp-Posting-Host: mwunix.mitre.org
Organization: MITRE Corporation, McLean VA
References: <1992Aug11.055744.28295@wam.umd.edu>
Date: Tue, 11 Aug 1992 13:09:29 GMT
Lines: 44

In article <1992Aug11.055744.28295@wam.umd.edu> peugh@wam.umd.edu (General Napolean) writes:
>Summary: 
>Expires: 
>References: <BsspCz.2HL@comp.vuw.ac.nz>
>Sender: 
>Followup-To: 
>Distribution: 
>Organization: University of Maryland, College Park
>Keywords: 
>
>
>   I was wondering if anyone out there has the tab to Hey Joe by Jimi Hendrix.
>I'm looking for the intro in particular, but the main song would be cool too.
>thanks...
>


First tune all your strings down a half-step.  Then...

     h p     
E|-0-0-0------------|----------------|--------------|-
B|-3-5-3------------|----------------|--------------|-
G|-------2-0--------|----------------|--------------|-5
D|-----------2-----2|---5----5---4--2|-----7-----7--|-5
A|---------------2--|---5----5---4--2|-7-9---7-9---7|-3
E|-------------0----|-0----0---0----0|--------------|-0
               ^
               Let ring


After the intro it just goes into this progression:

C  G  D  Am E5 E5  (Em7 or what ever, you can alter it)

If you play along with the song you'll get the timing down.  The "h" and "p"
are for "h"amer on and "p"ull off.

see ya

--
All contents are my opinions or                    Ian Dickens
views and are not linked in any way         So sayeth the Shepard, so sayeth 
with the views oor opinions held by          the Flock.  And in the end it's
the Mitre Corp.                                    all a crock!!


