                \  Jimi Hendrix   \/                   /
                /                 /\  Manic Depression \

   "We'd like to do a frustrating kind of song for you.  It's called
   Manic Depression - it's a story 'bout a cat wishin' he could make
   love to music, instead of the same old everyday woman, O.K.?"

   Tabbed by Greg O'Beirne (gobeirne@tartarus.uwa.edu.au)

Remember to tune all your strings down a step....  :)

KEY

  7b(9)     fret at 7th fret, pick string and
            and bend up to the pitch of the 9th fret

  ~~~~~~    vibrato

  5 (5)\0   Strike at the 5th fret, hold the note, slide down to 0

    X       Mute strings and strike them, so you get a crrk sound.



Time    -1-    -2-    -3-    -1-    -2-    -3-

      |--------------------|--------------------|
 3    |--------------------|--------------------|
 _    |--------------------|--------------------|
      |--------------------|--------------------|
 4    |--5-----6-----7-----|--------------------|
      |--------------------|--------------------|



   -1-   -2-   -3-      -1-   -2-   -3-      -1-   -2-   -3-

e|--------------------|--------------------|--------------------|
B|--------------------|--------------------|--------------------|
G|--------------------|--------------------|--------------------|
D|--5-----6-----7-----|--------7--5--7--5--|--------7--5--7--5--|
A|--------------------|--0-----------------|--0-----------------|
E|--------------------|--------------------|--------------------|


   -1-   -2-   -3-      -1-   -2-   -3-      -1-   -2-   -3-

e|--------------------|--------------------|--------------------|
B|--------------------|--------------------|--------------------|
G|--------------------|--------------------|--------------------|
D|--------7--5--7--5--|--------7--5--7--5--|--------------------|
A|--0-----------------|--0-----------------|--0-----4-----7-----|
E|--------------------|--------------------|--------------------|

                                              Man---ic    De---



   -1-   -2-   -3-      -1-   -2-   -3-      -1-   -2-   -3-

e|--------------------|--------------------|--------------------|
B|--------------------|--------------------|--------------------|
G|--------------------|--------------------|--------------------|
D|--------------------|--------------------|--------7--5--7--5--|
A|--------2-----5--3--|--5-----6-----7-----|--0-----------------|
E|--3-----------------|--------------------|--------------------|

    pre---ssion   is      tou---ching my      soul....



   -1-   -2-   -3-      -1-   -2-   -3-      -1-   -2-   -3-

e|--------------------|--------------------|--------------------|
B|--------------------|--------------------|--------------------|
G|--------------------|--------------------|--------------------|
D|--------7--5--7--5--|--------7--5--7--5--|--------7--5--7--5--|
A|--0-----------------|--0-----------------|--0-----------------|
E|--------------------|--------------------|--------------------|


   -1-   -2-   -3-      -1-   -2-   -3-      -1-   -2-   -3-

e|--------------------|--------------------|--------------------|
B|--------------------|--------------------|--------------------|
G|--------------------|--------------------|--------------------|
D|--------------------|--------------------|--------------------|
A|--0-----4-----7-----|--------2-----5--3--|--5-----6-----7-----|
E|--------------------|--3-----------------|--------------------|

    I     know  what     I     want  but I... I     just  don't

   -1-   -2-   -3-      -1-   -2-   -3-      -1-   -2-   -3-

e|--------------------|--------------------|--------------------|
B|--------------------|--------------------|--------------------|
G|--------------------|--------------------|--------------------|
D|--------7--5--7--5--|--------7--5--7--5--|--------7--5--7--5--|
A|--0-----------------|--0-----------------|--0-----------------|
E|--------------------|--------------------|--------------------|

    know    how  to      go about  gettin'  it...



   -1-   -2-   -3-      -1-   -2-   -3-      -1-   -2-   -3-

e|--------------------|--------------------|--------------------|
B|--------------------|--------------------|--------------------|
G|--------------------|--------------------|--------------------|
D|--------7--5--7--5--|--------------------|--------------------|
A|--0-----------------|--------4-----2-----|--------2-----5-----|
E|--------------------|--0-----------------|--3-----------------|

                         Fee---ling    Sweet  Fee----ling


   -1-   -2-   -3-      -1-   -2-   -3-      -1-   -2-   -3-

e|--------------------|--------------------|--------------------|
B|--------------------|--------------------|--------------------|
G|--------------------|--------------------|--------------------|
D|--------------------|--------------------|--------------------|
A|--5--------3--5--3--|--5--------1--3--1--|--3--1--3--1--------|
E|--------------------|--------------------|--------------3--1--|

              Drops   from my fingers....    fingers...


   -1-   -2-   -3-      -1-   -2-   -3-      -1-   -2-   -3-

e|--------------------|--------------------|--------------------|
B|--------------------|--------------------|--------------------|
G|--------------------|--------------------|--------------------|
D|--------------------|--------------------|--------------------|
A|--------------------|--0-----4-----7-----|--------2-----5--3--|
E|--3--1--3--1--3-----|--------------------|--3-----------------|

                         Man---ic    De-------pression   has a


   -1-   -2-   -3-      -1-   -2-   -3-      -1-   -2-   -3-

e|--------------------|--------------------|--------------------|
B|--------------------|--------------------|--------------------|
G|--------------------|--------------------|--------------------|
D|--------------------|--------------------|--5-----6-----7-----|
A|--5-----6-----7-----|--------------------|--------------------|
E|--------------------|--------------------|--------------------|

    cap---tured my      soul


   -1-   -2-   -3-      -1-   -2-   -3-      -1-   -2-   -3-

e|--------------------|--------------------|--------------------|
B|--------------------|--------------------|--------------------|
G|--------------------|--------------------|--------------------|
D|--------7--5--7--5--|--------7--5--7--5--|--------7--5--7--5--|
A|--0-----------------|--0-----------------|--0-----------------|
E|--------------------|--------------------|--------------------|

    Yeah....

   -1-   -2-   -3-      -1-   -2-   -3-      -1-   -2-   -3-

e|--------------------|--------------------|--------------------|
B|--------------------|--------------------|--------------------|
G|--------------------|--------------------|--------------------|
D|--------7--5--7--5--|--------------------|--------------------|
A|--0-----------------|--0-----4-----7-----|--------2-----5--3--|
E|--------------------|--------------------|--3-----------------|

                         Wo----man's  so       willing...     her


   -1- + -2- +  -3- +   -1-   +   -2-    +   -3-

e|--------------------|----------------------------|
B|--------------------|------------5~~~-------5~~~-|
G|--------------------|-------7b(9)------7b(9)-----|
D|--------------------|----------------------------|
A|--5-----6-----7-----|--0-------------------------|
E|--------------------|----------------------------|

    sweet cause in       vain....


   -1-   +   -2-    +   -3-     -1-   +   -2-    +   -3-

e|----------------------------|----------------------------|
B|------------5~~~-------5~~~-|------------5~~~-------5~~~-|
G|-------7b(9)------7b(9)-----|-------7b(9)------7b(9)-----|
D|----------------------------|----------------------------|
A|--0-------------------------|--0-------------------------|
E|----------------------------|----------------------------|


   -1-   +    -2-   +   -3-      -1-   -2-   -3-      -1-   -2-   -3-

e|----------------------------|--------------------|--------------------|
B|------------5~~~-------5~~~-|--------------------|--------------------|
G|-------7b(9)------7b(9)-----|--------------------|--------------------|
D|----------------------------|--------------------|--------------------|
A|----------------------------|--0-----4-----7-----|--------2-----5--3--|
E|--0-------------------------|--------------------|--3-----------------|

                                You   make  love     you brave girls it's a


e|--------------------|----------------------------|
B|--------------------|------------5~~~-------5~~~-|
G|--------------------|-------7b(9)------7b(9)-----|
D|--------------------|----------------------------|
A|--5-----4-----7-----|--0-------------------------|
E|--------------------|----------------------------|
    all         the      same....


   -1-   +   -2-    +   -3-     -1-   +   -2-    +   -3-

e|----------------------------|----------------------------|
B|------------5~~~-------5~~~-|------------5~~~-------5~~~-|
G|-------7b(9)------7b(9)-----|-------7b(9)------7b(9)-----|
D|----------------------------|----------------------------|
A|--0-------------------------|--0-------------------------|
E|----------------------------|----------------------------|

    when it's.....               when it's over.........


   -1-   -2-   -3-      -1-   -2-   -3-      -1-   -2-   -3-

e|--------------------|--------------------|--------------------|
B|--------------------|--------------------|--------------------|
G|--------------------|--------------------|--------------------|
D|--------------------|--------------------|--------------------|
A|--------------------|--------------2-----|--------2-----5-----|
E|--5--------(5)\0----|--0-----4-----------|--3-----------------|

                                 Mu---sic    Sweet    Mu----sic



   -1-   -2-   -3-      -1-   -2-   -3-      -1-   -2-   -3-

e|--------------------|--------------------|--------------------|
B|--------------------|--------------------|--------------------|
G|--------------------|--------------------|--------------------|
D|--------------------|--------------------|--------------------|
A|--5--------3--5--3--|--5--------1--3--1--|--3--1--3--1--------|
E|--------------------|--------------------|--------------3--1--|

    I        wish         I   could  caress... caress...


   -1-   -2-   -3-      -1-   -2-   -3-      -1-   -2-   -3-

e|--------------------|--------------------|--------------------|
B|--------------------|--------------------|--------------------|
G|--------------------|--------------------|--------------------|
D|--------------------|--------------------|--------------------|
A|--------------------|--0-----4-----7-----|--------2-----5--3--|
E|--3--1--3--1--3-----|--------------------|--3-----------------|

    caress...            Man---ic    De-------pression    is a

   -1-   -2-   -3-      -1-   -2-   -3-      -1-   -2-   -3-

e|--------------------|--------------------|--------------------|
B|--------------------|--------------------|--------------------|
G|--------------------|--------------------|--------------------|
D|--------------------|--------------------|--5-----6-----7-----|
A|--5-----6-----7-----|--------------------|--------------------|
E|--------------------|--------------------|--------------------|

    frus--tra---ting    mess!


   -1-   -2-   -3-      -1-   -2-   -3-      -1-   -2-   -3-

e|--------------------|--------------------|--------------------|
B|--------------------|--------------------|--------------------|
G|--------------------|--------------------|--------------------|
D|--X-----X-----X-----|--------------------|--5-----6-----7-----|
A|--X-----X-----X-----|--5-----6-----7-----|--------------------|
E|--X-----X-----X-----|--------------------|--------------------|

   whwhhhOWWWWWWWW!!!

   -1-   +    -2-   +   -3-     -1-   -2-   -3-

e|----------------------------|--------------------|
B|-------5~~~~~~~~~~~~~~~~~~~~|~~~~~~~~~~~~~~------|
G|--7b(9)---------------------|--------------------|
D|----------------------------|--------------------|
A|----------------------------|--------------------|
E|----------------------------|--------------------|


   -1-     +    -2-   +   -3-     -1-   -2-   -3-

e|------------------------------|--------------------|
B|---------8~~~~~~~~~~~~~~~~~~~~|~~~~~~~~~~~~~~------|
G|--10b(12)---------------------|--------------------|
D|------------------------------|--------------------|
A|------------------------------|--------------------|
E|------------------------------|--------------------|


   -1-     +    -2-   +   -3-     -1-   -2-   -3-

e|---------7~~~~~~~~~~~~~~~~~~~~|~~~~~~~~~~~~~~------|
B|--10b(12)---------------------|--------------------|
G|------------------------------|--------------------|
D|------------------------------|--------------------|
A|------------------------------|--------------------|
E|------------------------------|--------------------|


   -1-     +    -2-   +   -3-

e|---------10~~~~~~~~~~~~~~~~~~~|
B|--13b(15)---------------------|
G|------------------------------|
D|------------------------------|
A|------------------------------|
E|------------------------------|

-|-----------------------------------------------------------|-
\ /                                                         \ /
 v                                                           v
***  I N S E R T   2 8   B A R S   O F   S O L O   H E R E  ***
 ^                                                           ^
/ \                                                         / \
-|-----------------------------------------------------------|-

   -1-   -2-   -3-      -1-   -2-   -3-      -1-   -2-   -3-

e|--------------------|--------------------|--------------------|
B|--------------------|--------------------|--------------------|
G|--------------------|--------------------|--------------------|
D|--------7--5--7--5--|--------------------|--------------------|
A|--0-----------------|--0-----4-----7-----|--------2-----5--3--|
E|--------------------|--------------------|--3-----------------|

          Well I...      Think I'm  gonna     tear myself off and a


   -1- + -2- +  -3-  +  -1-   +   -2-    +   -3-

e|--------------------|----------------------------|
B|--------------------|------------5~~~-------5~~~-|
G|--------------------|-------7b(9)------7b(9)-----|
D|--------------------|----------------------------|
A|--5-----6-----7-----|--0-------------------------|
E|--------------------|----------------------------|

    go      on           down....



   -1-   +   -2-    +   -3-     -1-   +   -2-    +   -3-    +

e|----------------------------|----------------------------------|
B|------------5~~~-------5~~~-|------------10~~~-------10~~~-----|
G|-------7b(9)------7b(9)-----|------12b(14)-----12b(14)--12b(14)|
D|----------------------------|----------------------------------|
A|--0-------------------------|--0-------------------------------|
E|----------------------------|----------------------------------|

                                  all the way down....


   -1-   +    -2-   +   -3-  +   -1-   -2-   -3-      -1-   -2-   -3-

e|----------------------------|--------------------|--------------------|
B|--10~~~------10~~~-----8--9-|--------------------|--------------------|
G|-------7b(9)----------------|--------------------|--------------------|
D|----------------------------|--------------------|--------------------|
A|----------------------------|--0-----4-----7-----|--------2-----5--3--|
E|----------------------------|--------------------|--3-----------------|

                                 Really  aint no       use  in  me


e|--------------------|----------------------------|
B|--------------------|------------5~~~-------5~~~~|
G|--------------------|-------7b(9)------7b(9)-----|
D|--------------------|----------------------------|
A|--5-----4-----7-----|--0-------------------------|
E|--------------------|----------------------------|

    hang--ing   a--------round....


   -1-   +   -2-    +   -3-     -1-   +   -2-    +   -3-

e|----------------------------|----------------------------|
B|~~~~~~------5~~~-------5~~~-|------------5~~~-------5~~~-|
G|-------7b(9)------7b(9)-----|-------7b(9)------7b(9)-----|
D|----------------------------|----------------------------|
A|----------------------------|--0-------------------------|
E|----------------------------|----------------------------|

                                you know what kinda scene...


   -1-   -2-   -3-      -1-   -2-   -3-      -1-   -2-   -3-

e|--------------------|--------------------|--------------------|
B|--------------------|--------------------|--------------------|
G|--------------------|--------------------|--------------------|
D|--------------------|--------------------|--------------------|
A|--------------------|--------------2-----|--------2-----5-----|
E|--5--------(5)\0----|--0-----4-----------|--3-----------------|

                                Mu---sic    Sweet    Mu----sic



   -1-   -2-   -3-      -1-   -2-   -3-      -1-   -2-   -3-

e|--------------------|--------------------|--------------------|
B|--------------------|--------------------|--------------------|
G|--------------------|--------------------|--------------------|
D|--------------------|--------------------|--------------------|
A|--5--------3--5--3--|--5--------1--3--1--|--3--1--3--1--------|
E|--------------------|--------------------|--------------3--1--|

    I        wish         I   could  caress...   and kiss....


   -1-   -2-   -3-      -1-   -2-   -3-      -1-   -2-   -3-

e|--------------------|--------------------|--------------------|
B|--------------------|--------------------|--------------------|
G|--------------------|--------------------|--------------------|
D|--------------------|--------------------|--------------------|
A|--------------------|--0-----4-----7-----|--------2-----5--3--|
E|--3--1--3--1--3-----|--------------------|--3-----------------|

    kiss....             Man---ic    De-------pression    is a

   -1-   -2-   -3-      -1-   -2-   -3-

e|--------------------|--------------------|
B|--------------------|--------------------|
G|--------------------|--------------------|
D|--------------------|--------------------|
A|--5-----6-----7-----|--------------------|
E|--------------------|--------------------|

    frus--tra---ting    mess!


   -1-   -2-   -3-      -1-   -2-   -3-

e|--------------------|--------------------|
B|--------------------|--------------------|
G|--------------------|--------------------|
D|--5-----6-----7-----|--------------------|
A|--------------------|--------------------|
E|--------------------|--------------------|

                         whwhhhOWWWWWWWW!!!

   -1-   -2-   -3-      -1-   -2-   -3-

e|--------------------|--------------------|
B|--------------------|--------------------|
G|--------------------|--------------------|
D|--------------------|--------------------|
A|--5-----6-----7-----|--------------------|
E|--------------------|--------------------|

                        Yeah....

   -1-   -2-   -3-      -1-   -2-   -3-

e|--------------------|--------------------|
B|--------------------|--------------------|
G|--------------------|--------------------|
D|--5-----6-----7-----|--------------------|
A|--------------------|--------------------|
E|--------------------|--------------------|

                         Owww!.....

   -1-   -2-   -3-      -1-   -2-   -3-

e|--------------------|--------------------|
B|--------------------|--------------------|
G|--------------------|--------------------|
D|--------------------|--5-----6-----7-----|
A|--5-----6-----7-----|--------------------|
E|--------------------|--------------------|


   -1-   -2-   -3-      -1-   -2-   -3-

e|--------------------|--------------------|
B|--------------------|--------------------|
G|--------------------|--------------------|
D|--------------------|--5-----6-----7-----|
A|--5-----6-----7-----|--------------------|
E|--------------------|--------------------|


   -1-   -2-   -3-      -1-   +   -2-   +   -3-

e|--------------------|----------------------------|
B|--------------------|-------5~~~~~~~~~~~~~~~~~~\0|
G|--------------------|--7b(9)---------------------|
D|--------------------|----------------------------|
A|--5-----6-----7-----|----------------------------|
E|--------------------|----------------------------|


   -1-   -2-   -3-      -1-   +   -2-   +   -3-

e|--------------------|----------------------------|
B|--------------------|--------10~~~~~~~~~~~~~~~~\0|
G|--------------------|-12b(14)--------------------|
D|--5-----6-----7-----|----------------------------|
A|--------------------|----------------------------|
E|--------------------|----------------------------|


   -1-   -2-   -3-      -1-   +   -2-   +   -3-

e|--------------------|----------------------------|
B|--------------------|-------5~~~~~~~~~~~~~~~~~~\0|
G|--------------------|--7b(9)---------------------|
D|--------------------|----------------------------|
A|--5-----6-----7-----|----------------------------|
E|--------------------|----------------------------|


   -1-   -2-   -3-      -1-   +   -2-   +   -3-

e|--------------------|----------------------------|
B|--------------------|--------10~~~~~~~~~~~~~~~~\0|
G|--------------------|-12b(14)--------------------|
D|--5-----6-----7-----|----------------------------|
A|--------------------|----------------------------|
E|--------------------|----------------------------|


   -1-   -2-   -3-      -1-   -2-   -3-

e|--------------------|--------------------|
B|--------------------|--------------------|
G|--------------------|--------------------|
D|--------------------|--5-----6-----7-----|
A|--5-----6-----7-----|--------------------|
E|--------------------|--------------------|

    Mus---ic    sweet    Mus---ic    sweet


   -1-   -2-   -3-      -1-   -2-   -3-

e|--------------------|--------------------|
B|--------------------|--------------------|
G|--------------------|--------------------|
D|--------------------|--5-----6-----7-----|
A|--5-----6-----7-----|--------------------|
E|--------------------|--------------------|

 Mus---ic    sweet      Mus---ic....


   -1-   -2-   -3-      -1-   +   -2-   +   -3-

e|--------------------|----------------------------|
B|--------------------|-------5~~~~~~~~~~~~~~~~~~\0|
G|--------------------|--7b(9)---------------------|
D|--------------------|----------------------------|
A|--5-----6-----7-----|----------------------------|
E|--------------------|----------------------------|


   -1-   -2-   -3-      -1-   +   -2-   +   -3-

e|--------------------|----------------------------|
B|--------------------|-------5~~~~~~~~~~~~~~~~~~\0|
G|--------------------|--7b(9)---------------------|
D|--------------------|----------------------------|
A|--5-----6-----7-----|----------------------------|
E|--------------------|----------------------------|


   -1-   -2-   -3-      -1-   +   -2-   +   -3-

e|--------------------|----------------------------|
B|--------------------|-------5~~~~~~~~~~~~~~~~~~\0|
G|--------------------|--7b(9)---------------------|
D|--------------------|----------------------------|
A|--5-----6-----7-----|----------------------------|
E|--------------------|----------------------------|


   -1-   -2-   -3-      -1-   +   -2-   +   -3-

e|--------------------|----------------------------|
B|--------------------|--------10~~~~~~~~~/12~~~~\0|
G|--------------------|-12b(14)--------------------|
D|--5-----6-----7-----|----------------------------|
A|--------------------|----------------------------|
E|--------------------|----------------------------|


   -1-   -2-   -3-      -1-   -2-   -3-

e|--------------------|--------------------|
B|--------------------|--------------------|
G|--------------------|--------------------|
D|--------------------|--5-----6-----7-----|
A|--5-----6-----7-----|--------------------|
E|--------------------|--------------------|


   -1-   -2-   -3-      -1-   -2-   -3-

e|--------------------|--------------------|
B|--------------------|--------------------|
G|--------------------|--------------------|
D|--------------------|--5-----6-----7-----|
A|--5-----6-----7-----|--------------------|
E|--------------------|--------------------|

    Mus---ic    sweet      Mus---ic....


   -1-   -2-   -3-      -1-   -2-   -3-

e|--------------------|--------------------|
B|--------------------|--------------------|
G|--------------------|--------------------|
D|--------------------|--5-----6-----7-----|
A|--5-----6-----7-----|--------------------|
E|--------------------|--------------------|


   -1-   +    -2-   +   -3-     -1-   -2-   -3-

e|----------------------------|--------------------|
B|-------5~~~~~~~~~~~~~~~~~~~~|~~~~~~~~~~~~~~------|
G|--7b(9)---------------------|--------------------|
D|----------------------------|--------------------|
A|----------------------------|--------------------|
E|----------------------------|--------------------|


   -1-     +    -2-   +   -3-     -1-   -2-   -3-

e|------------------------------|--------------------|
B|---------8~~~~~~~~~~~~~~~~~~~~|~~~~~~~~~~~~~~------|
G|--10b(12)---------------------|--------------------|
D|------------------------------|--------------------|
A|------------------------------|--------------------|
E|------------------------------|--------------------|


   -1-     +    -2-   +   -3-     -1-   -2-   -3-

e|---------7~~~~~~~~~~~~~~~~~~~~|~~~~~~~~~~~~~~------|
B|--10b(12)---------------------|--------------------|
G|------------------------------|--------------------|
D|------------------------------|--------------------|
A|------------------------------|--------------------|
E|------------------------------|--------------------|


   -1-     +    -2-   +   -3-    +   -1-    + -2-   + -3-

e|---------10~~~~~~~~~~~~~~~~~~10~|~10~~~~10~10~~~10~10~~~|
B|--13b(15)-----------------------|-----------------------|
G|--------------------------------|-----------------------|
D|--------------------------------|-----------------------|
A|--------------------------------|-----------------------|
E|--------------------------------|-----------------------|

--> OUTRO  <--
Just make up your own ending, I always do...
