Voodoo Chile (Slight return) by Jimi Hendrix
--------------------------------------------

played with a wah  (waht else?)

            |       |       |       |          |       |       |       |
|-X------|----------------------------------|---------------------------------|
|-X------|----------------------------------|---------------------------------|
|-X-etc.-|--8-------------------------------|--8---------------8--------------|
|-X------|----------8---11----------8-------|----------8---11-----------------|
|-X------|------------------11--11----11-9--|---------------------------------|
|-X------|----------------------------------|---------------------------------|
    ^
That chucka-chucka wah-wah sound
repeated until you feel its time
to start the notes. (4 measures I think)

   |       |       |       |          |       |       |       |
|----------------------------------|---------------------------------|
|----------------------------------|------------------11--9-7--------|
|--8-------------------------------|--8-----------------------8------|
|----------8---11----------8-------|----------8---11-----------------|
|------------------11--11----11-9--|---------------------------------|
|----------------------------------|---------------------------------|

This is probably riddled with nasty notes so could someone with ears
repair it and complete it pleeeeze?

Mail/correct/flame me.

Has anybody done Creep by Radiohead yet?

BYE!
