House of the Risin' Sun (1961) Traditional
Bob Dylan

Transcription by Kelvin Sherlock (ksherloc@zoo.uvm.edu)
Corrections from Eike Westermann (EikeWes@emsnet.de)

Play it kind of like this:

  Am                     C
E---------------------------------------------
B----1-1-1-1----1-1-1-1----1-1-1-1----1-1-1-1-
G----2-2-2-2----2-2-2-2----0-0-0-0----0-0-0-0-
D----2-2-2-2----2-2-2-2----2-2-2-2----2-2-2-2-
A-0----------0----------3----------3----------
E---------------------------------------------

  Dm                     F
E---------------------------------------------
B----3-3-3-3----3-3-3-3----1-1-1-1----1-1-1-1-
G----2-2-2-2----2-2-2-2----2-2-2-2----2-2-2-2-
D-0----------0----------3----------3----------
A---------------------------------------------
E---------------------------------------------

  Am                     C
E---------------------------------------------
B----1-1-1-1----1-1-1-1----1-1-1-1----1-1-1-1-
G----2-2-2-2----2-2-2-2----0-0-0-0----0-0-0-0-
D----2-2-2-2----2-2-2-2----2-2-2-2----2-2-2-2-
A-0----------0----------3----------3----------
E---------------------------------------------

  E
E-----------------------
B----0-0-0-0----0-0-0-0-
G----1-1-1-1----1-1-1-1-
D----2-2-2-2----2-2-2-2-
A-----------------------
E-0----------0----------

 
Intro: Am  C  Dm  F  Am  E  Am  

      Am   C             Dm     F
There is a house down in New Orleans

     Am       C      E
They call the Risin' Sun

         Am       C       Dm        F
And it's been the ruin of many poor girl

    Am     E          Am    C  Dm  F  E
And me, oh God, I'm a-one

2)
My mother was a taylor
She sewed these new blue jeans
My sweetheart was a gambler, Lord
Down in New Orleans

3)
Now the only thing a gambler needs
Is a suitcase and a trunk
And the only time he's satisfied
Is when he's on a drunk

4)
He fills his glasses up to the brim
And he'll pace the cards around
And the only pleasure he gets out of life
Is ramblin' from town to town

5)
Oh tell my baby sister
Not to do as I have done
But to shun that house in New Orleans
They call the Risin' Sun

6)
Well, it's one foot on the platform
And the other foot on the train
I'm goin' back to New Orleans
To wear that ball and chain

7)
I'm a-goin' back to New Orleans
My race is almost run
I'm goin' back to end my life
Down in the Risin' Sun

8)
There is a house in New Orleans
They call the Risin' Sun
It's been the ruin of many poor girl
And me, oh God, Im a-one


