
From: Scott A. Yanoff <yanoff@csd4.csd.uwm.edu>



U2   "Zoo Station"

Use heavy distortion and make the slides heard.

Intro: (Repeat about 12 times)
E---------------------------------------
B---------------------------------------
G---------------------------------------
D---------------------------------------
A-12/-----------------------------------
E-----3-5-------------------------------
  (The / means to slide all the way down the string)
 Second Part of Intro & Also used in Chorus:
E-----10---------10--------5--------5---
B---8----8-----8----8----3---3----3---3-
G-7----------7---------2--------2-------
D---------------------------------------
A---------------------------------------
E---------------------------------------

Solo at end:
E--------------------------------------------------------------------------
B--------------------------------------------------------------------------
G-----------------------9-9-9-9-9-9-9-9-9-11--9-9-9-9-9-9-9-9-9-11---------
D-11---9--7---11---9--7----------------------------------------------------
A--------------------------------------------------------------------------
E--------------------------------------------------------------------------
