From: WECK0820@duq3.cc.duq.edu


Rhime of the Ancient Mariner  (Partial Bass Tab)      By: Iron Maiden
=========================================================================
                                                      Transcribed By:
                                                      Brian M.Weck
**PLAY FAST**


            e e e e  e e e  e     e  e e e  e e e  e
+------+---11-----11-----11----+--12-----12-----12----+   <------+
|------|------0-0----0-0----0--|-----0-0----0-0----0--|          |
|------|-----------------------|----------------------|    Listen to the
+------+-----------------------+----------------------+    recording to
                                                           get the exact
                                                           number of times
                                                           these two lines 
   e  e e e  e e e  e     e  e e e  e e e  e               are played.
+--14-----14-----14----+--14-----14-----14-----+------+          |
|-----0-0----0-0----0--|-----0-0----0-0----0---|-*--*-|          |
|----------------------|-----------------------|-*--*-|          |
+----------------------+-----------------------+------+   <------+


   e e e e e e e e     e  e e e  e e e  e     e e e e e e e e                 
+--9-----9-----9----+--10-----10-----10----+--9-----9-----9----+
|----0-0---0-0---0--|-----0-0----0-0----0--|----0-0---0-0---0--|
|-------------------|----------------------|-------------------|
+-------------------+----------------------+-------------------+


   e  e e e e e e e e     e e e e e e e e     e e e e e e e e                
+--10-----9-----9------+--7-----7-----7----+--7-----7-----7----+
|-----0-0---0-0---0-0--|----0-0---0-0---0--|----0-0---0-0---0--|
|----------------------|-------------------|-------------------|
+----------------------+-------------------+-------------------+


   e e e e e e e e     e e e e e e e e                     
+--5-----5-----5----+--3-----5-----3----+
|----0-0---0-0---0--|----0-0---0-0---0--|
|-------------------|-------------------|
+-------------------+-------------------|


   e e e e e e e e     e e e e e e e e     e e e e e e e e               
+--2-----2-----2----+--2-----2-----2----+--2-----2-----2----+
|----0-0---0-0---0--|----0-0---0-0---0--|----0-0---0-0---0--|
|-------------------|-------------------|-------------------|
+-------------------+-------------------+-------------------+


   e e e e e e e e
+--2-----2-----2----+                                               
|----0-0---0-0---0--|   Repeat.....
|-------------------|                                             
+-------------------+





==========================================================================

                Created using the Bass Tab Creator    August 1994
     
                This may not be the whole and exact bass tab but
                I think it is close.  It sounds pretty cool anyway.
                I did my best, I have been only playing the bass
                for a couple of months now.
                                                  Brian Weck
==========================================================================

     __         Transcribed By: Brian M. Weck (weck0820@duq3.cc.duq.edu)
   +|oo|+
   +|oo|+       Notes:  w = Whole  h = Half  q = Quarter
     ||                 e = 8th    s = 16th  t = 32nd  x = 64th
     ||
     ||               
     ||          
     ||
     ||             #
     ||         +----+                   +----+
  _  ||  _      |*--*+  = MEASURE        |4:--|  = TIME
  \\_||_//      |*--*+    REPEATS        |4:--|    SIGNATURES
   | [] |       +----+   (#=Num Repeats) +----+
   | || |
  /  []  \      + = TIE         ^  = TRIPLET           > = BEND
  \______/      H = HAMMER ON   \  = SLIDE TO FRET     R = Rest
                P = PULL OFF    \X = SLIDE TO NOWHERE  ~ = Trill

