#----------------------------------PLEASE NOTE---------------------------------#
#This file is the author's own work and represents their interpretation of the #
#song. You may only use this file for private study, scholarship, or research. #
#------------------------------------------------------------------------------##
Date: Wed, 16 Aug 1995 09:28:24 -0230 (NDT)
From: Bryan Holden <zbe3060@InfoNET.st-johns.nf.ca>


                               Train Kept A Rollin' 
                                    Aerosmith
                                "Get Your Wings"
                                 Transcribed by:
                                  Bryan Holden
                             zbe3060@st-johns.nf.ca
   
  Intro:   Play Twice
e:----------------------------|   
B:--15~~~-----------12--------|
G:--14b(16r15.5b14)---12---9--|
D:----------------------12^9--|
A:----------------------------|
E:----------------------------|
 
 
   Riff 1
e:--------------------|--------|--------------------|-----------------|
B:--------------------|--------|--------------------|-----------------|
G:--------------------|-Play---|--------------------|-----------------|
D:-5--5-5-5-5--5-5---5^-Twice--^-7--7-7-7-7--7-7--7\|-5--5-5-5-5--5-5\|
A:-5--5-5-5-5--5-5---5|--------|-7--7-7-7-7--7-7--7\|-5--5-5-5-5--5-5\|
E:-3--0-0-3-3--0-3---0|--------|-5--0-0-5-5--0-5--0\|-3--0-0-3-3--0-3\|
                                                   
 
e:----------------------------|-------------|
B:----------------------------|-------------|
G:----------------------------|-Repeat-from-|
D:-7-7--7--7-9--99-9\7---5--4-|----Start----|
A:-7-7--7--7-9--99-9\7---5--4-|-------------|
E:-5-5--5--5^0--77-0\5---3--2-|-------------|
 
                                                
           Interlude 1:   6 Times
e:-------|--------------------------------------------|
B:-------|--------------------------------------------|
G:-------|--------------------------------------------|
D:-2-----|----------5-------------2-2------------2-2--|
A:-2-----|-----5-----^7^5---------2-2------------2-2--|
E:-0~~~--|-5^7--^7-------^7^5\3~--0-0--0--2--3~~-0-0--|
                                  . .            . .
 
 
    E  A  B  Chord Progression
e:-----5--7-------------------------------|---------|
B:-----5--7-------------------------------|-Back-to-|
G:-----6--8-------------------------------|-Riff-1--|
D:-----7--9-------------------------------|--Over---|
A:-----7--9-------------------------------|--Solo---|
E:--0--5\-7--7-8-9-10~~-10-11-12-13-15~~~-|---------|
 
Riff 2:  Same as Riff 1 but faster and less blues.  also the into the 
same but loose the ending of it.  the interlude 2 is the same but with 
out the 1st fast run.
 
Riff 1
Well, on a train, I met a dame,
She rather handsome, but kind of looked the same.
She was pretty, from New York City
I'm walkin' down that old fair lane,
I'm in heat, I'm in love,
But I just couldn't tell her so
 
I said, train kept a-rollin' all night long
Train kept a-rollin' all night long
Train kept a-rollin' all night long
Train kept a-rollin' all night long
With a "heave!", and a "ho!"
But I just couldn't tell her so, no, no, no... (lead)
 
Well, get along, sweet little woman get along
On your way, get along, sweet little woman get along
On your way,
I'm in heat, I'm in love,
But I just couldn't tell her so, no, no, no
 
(Interlude 1, and solo)
 
Drum role, lead, fast guitar.
 
Riff 2
Well, on a train, I met a dame,
She rather handsome, but kind of looked the same.
She was pretty, from New York City
I'm walkin' down that old fair lane,
I'm in heat, I'm in love,
But I just couldn't tell her so
 
I said, train kept a-rollin' all night long
Train kept a-rollin' all night long
Train kept a-rollin' all night long
Train kept a-rollin' all night long
With a "heave!", and a "ho!"
But I just couldn't tell her so, no, no, no
 
solo
 
Well, get along, sweet little woman get along
On your way, get along, sweet little woman get along
On your way,
I'm in heat, I'm in love,
But I just couldn't tell her  yah...ayh....
 
Interlude 2, solo
 
Riff 2
Well, we made a stop in Albequerque
She must'a thought I was a real cool jerk
Got off the train, and put her hands up
Lookin' so good jack couldn't let her go   oOOooo..
But I just couldn't tell her so
 
I said, train kept a-rollin' all night long  (lead)
Train kept a-rollin' all night long          (lead)
Train kept a-rollin' all night long          (lead)
Train kept a-rollin' all night long          (lead)
I'm in heat, I'm in love,
But I just couldn't tell her   ayh...ayh...
___________________________________________________________________________
This is the original Aerosmith version, there are so many, live and 
Greatest hits.  that is why i included the format.

That about the best you can get.

Bryan



