Better Than You
written by: Hetfield and Ulrich
as performed on ReLoad
tab by Phil Boyle and Wayne Hanvey;


Tune all guitars down 1/2 step

Drum intro
1)
Db------------------------
Ab--5-6-7-5--2--5-6-7-5--2
Eb--3-4-5-3--0--3-4-5-3--0

2)
Db--------------------------------------------------------
Ab--5-6-7-5------2-----2-----2--5-6-7-5------2-----2-----2
Eb--3-4-5-3--0-0-0-0-0-0-0-0-0--3-4-5-3--0-0-0-0-0-0-0-0-0
            pm..   ...   ...             ...   ...   ...
3a)
Gb--------------------------------------------
Db--------------------------------------------
Ab--5-6-7-5-5-5-7-7-7-5-5-5------2-----2-----2  2 times
Eb--3-4-5-3-3-3-5-5-5-3-3-3--0-0-0-0-0-0-0-0-0
(timing is messed up)       pm..   ...   ...
"I look at you look at me"

3b)
Gb-------------------------------------------------------
Db--------------------5-5-5-7-7-7-------------10-10-10-12
Ab--5-6-7-5-5-5-7-7-7-3-3-3-5-5-5-5-5-5-7-7-7-8--8--8--10
Eb--3-4-5-3-3-3-5-5-5-------------3-3-3-5-5-5------------
"Holding the lion's share, holding the key"

4)
Gb---------------4p2-------------    --------------6p4-------------
Db--2-4-2-4-2-4------4--4p2---2-3 tw -4/6-4-6-4/6------4--6p4---4-5
Ab--2-4-0-4-2-4-------------2-2-3 ic -4/6-2-6-4/6-------------4-4-5
Eb--0h2---2-0h2---------------0-1 e  -2/4---4-2/4---------------2-3
Chorus
"Oh, cannot stop this train from rolling"
