Bleeding Me
written by Hetfield, Ulrich & Hammett
as performed on Load
tab by Phil Boyle;


tune all guitars down 1/2 step
1a)
Db-------5-----------------5----------5------------------
Ab----/7---5-7-----7-----5---5-----/7---5-7-----7-----7--
Eb--0------------0---0-5---------0------------0---0-5---3
  intro undistorted w/ flange or phaser

1b)                                                 
Db-------5-----------------5----------5----------------------
Ab----/7---5-7-----7-----5---5-----/7---5-7-----7-----7---5--
Eb--0------------0---0-5---------0------------0---0-5---3---2
a and b are the basic pattern, but there are variations from here

1c)
eb--0--0--0---0
Bb--8--8--8-7-8
Gb--9--9--9---9
Db-------------
Ab-------------
Eb-------------
Lead intro


2a)
Db--9-9--9-9---7-7--7-7---7-7--7-7---9-9--9-9
Ab--7-7--7-7---5-5--5-5---5-5--5-5---7-7--7-7
Eb-------------------------------------------

2b)
Db--9-9--9-9---7-7--7-7---7-7--7-7---------------
Ab--7-7--7-7---5-5--5-5---5-5--5-5---7-7-7-------
Eb-----------------------------------5-5-5--0-3~0
  distorted 
  Ohhh...


3)
Db--9-9-9--7-7-7--7-7-7-----------
Ab--7-7-7--5-5-5--5-5-5--7-7-7---- repeat
Eb-----------------------5-5-5--3~
  Caught under wheels roll


4)
eb-------------------------------  ------------------------------
Bb-------------------------------  ---------------------------1-0
Gb----------------------------5-4  -------------------------0---0
Db--------------------------5----  -2--2-2--2-2-2--2-2-2--2------
Ab--7--7-7--7-7-7--7-7-7--7------  -2--2-2--2-2-2--2-2-2---------
Eb--0--0-0--0-0-0--0-0-0---------  -0--0-0--0-0-0--0-0-0---------
      pm..   ....   ....              pm..   ....    ...
     Right channel (Kirk??)           Left channel (James??)
This is where it turns into a "different" song.  This and riff 3 go
through the entire solo also except for one part below.


5)
Db--4-4-4--5-2
Ab--2-2-2--3-0 twice
Eb------------

Then they play riff 1 distorted after the solo and that's pretty much it.