Breadfan
 written by Budgie
 as performed by Metallica
 on the Japanese "One" EP
 tab by Phil Boyle; phil@encycmet.com


 1)
 D------------------------------------------------------------------2
 A--5h7-7-5h7-7-5h7---5h7-7-5h7-7-5h7---5h7-7-5h7-7-5h7---7-5-------2
 E------------------------------------------------------------7-5-3-0
 intro


 2a)
 G--9---------9-9---------9-9---------9-7----------7-7-7-7-7-8-9
 D--9---------9-9---------9-9---------9-7----------7-7-7-7-7-8-9
 A--7---------7-7---------7-7---------7-5----------5-5-5-5-5-6-7
 E----0-0-0-0-----0-0-0-0-----0-0-0-0-----0-0-0-0----5---5------
     pm......     .......     .......     .......
 Breadfan, open up your mind

 2b)
 G---------------------------------------------------------------
 D--9-9---------9-7---------9-7----------------5----7-7-7-7-7-8-9
 A--7-7---------7-5---------7-5---------7--5h7---7--5-5-5-5-5-6-7
 E------0-0-0-0-----0-0-0-0-----0-0-0-0---------------5---5------
 Breadfan, you've got it wrong


 3a)
 D--2----2-2-----2-2-----2-3-5----6-6----7-7---7-7--7-7
 A--2----2-2-----2-2-----2-3-5----6-6----7-7---7-7--7-7
 E--0----0-0-----0-0-----0-1-3----4-4----5-5---5-5--5-5
 beginning of solo

 3b)
 D------------------------------------------------------
 A--3/5--3/5--3/5--3/5---5/7--5/7--5/7--5/7--7-5-7-5-7-5
 E--1/3--1/3--1/3--1/3---3/5--3/5--3/5--3/5--5-3-5-3-5-3
 ending of solo


 4)
 D------5---------3------------------------    ---------------
 A--5-7---7---3-5---5-------5-------------- 4x -7-5-7-5-7-5--2
 E----------------------5-7---7---0-0-3-4-5    -5-3-5-3-5-3--0


 5)
 e--------0----3-----0---------1----1------
 B----------0----0-----------3---3----3----
 G------0----------0-------2------------2-0
 D----2------------------0-----------------
 A-----------------------------------------
 E--0--------------------------------------
 clean
 This riff and the solo that goes over it are never played live.
 It's also different from the original Budgie version, which features
 an accoustic guitar if memory serves.  The original IMO isn't very good
 compared to the Metallica version.


 "Mommy, where's fluffy?"

