 Die, die my darling
 written by The Misfits
 as performed by Metallica on Garage Inc
 tab by Brad Ryder and Phil Boyle; 


 Tune all guitars down 1/2 step
 1)
 eb------------------------------
 Bb--4--4--4--4--4--4--4--4------
 Gb--4--4--4--4--4--4--4--4--4--3
 Db--4--4--4--4--4--4--4--4--5--4
 Ab--2--2--2--2--2--2--2--2--5--4
 Eb--------------------------3--2
  "Die, die, die my darlin..."


 2a) James
 eb-----------------------------------------------------------
 Bb-------4--4--4--4--4--4--4--4------------------------------
 Gb--1----4--4--4--4--4--4--4--4----1-----4------------------4
 Db--2----4--4--4--4--4--4--4--4----2-----5------------------5
 Ab--2----2--2--2--2--2--2--2--2----2-----5------------------5
 Eb--0------------------------------0-----3--3-3-3-3-3-3-3-3-3
    "Oh, I'll be seeing you again..."       pm-------------|

 2b)
 eb-----------------------------------------------------------
 Bb------4----------------------------------------------------
 Gb--1---4--4--4--4--4--4-4/6\4-----1-----4------------------4
 Db--2---4--4--4--4--4--------------2-----5------------------5
 Ab--2---2--2--2--2--2--2-2/4\2-----2-----5------------------5
 Eb--0------------------------------0-----3--3-3-3-3-3-3-3-3-3


 3)
 eb--------------------------------------
 Bb--4--4--4--4--4--4--4--4-------7--6--4
 Gb--4--4--4--4--4--4--4--4--6----7--6--4
 Db--4--4--4--4--4--4--4--4--5----7--6--4
 Ab--2--2--2--2--2--2--2--2--5----5--4--2
 Eb--------------------------3-----------
  "Don't cry to me oh baby..."


 4a)                       4b)
 eb----------------------   --14
 Bb--12-12-12-12-12-12-12   ----
 Gb----------------------   ----
 Db----------------------   ----
 Ab----------------------   ----
 Eb----------------------   ----
 Riff 4a goes through the entire song until the end where 4b rings out.

