#----------------------------------PLEASE NOTE---------------------------------#
#This file is the author's own work and represents their interpretation of the #
#song. You may only use this file for private study, scholarship, or research. #
#------------------------------------------------------------------------------##
Received: from animal-farm.nevada.edu by redrock.nevada.edu (5.65c/M1.4)
	with SMTP id <AA26900>; Mon, 19 Jul 1993 09:24:38 -0700
Received: from dialIP-48.mr.net by animal-farm.nevada.edu id <AA19576@animal-farm.nevada.edu>; Mon, 19 Jul 1993 08:51:08 -0700
Date: Mon, 24 May 93 16:32:07 GMT
Message-Id: <124@dialip-48.mr.net>
From: wbajzek@dialip-48.mr.net
To: jamesb@animal-farm.nevada.edu
Subject: Metallica - The Four Horsemen


I'll tab up the riffs, but you have to listen to the song for timing.

intro

g --5-----7--5----------------------------------------------------------
d --5--5--7--5----------------------------------------------------------
a --3--5--5--3----------------------------------------------------------
e -----3----------------------------------------------------------------

a --5--7--5--7--5--7--5--7--5--7--5--7--5-------------------------------
e --0--0--0--0--0--0--0--0--0--0--0--0--0--7----------------------------

d -----------------------------------------7p-5-------------------------
a --5--7--5--7--5--7--5--7--5--7--5-----5--------7p-5-------------------
[C[C[C[C[C[C[C[C[C[C[C[C[C[C[C[C[C[C[C[C[C[C[C[C[C[C[C[C[C[C[C[C[C[C[C[C[C[C[C[C[C[C[
C[C[C[C[C[C[C[C[C[C[C[C[C[C[C[C[C[C[C[C[C[C[C[C[C[C[C[C[C[C
e --0--0--0--0--0--0--0--0--0--0--0--7----------------------------------

a --5--7--5--7--5--7--5--7--5--7--5--7--5-----5-------------------------
e --0--0--0--0--0--0--0--0--0--0--0--0--0--7--0-------------------------

g --5-----7--5----------------------------------------------------------
d --5--5--7--5----------------------------------------------------------
a --3--5--5--3----------------------------------------------------------
e -----3----------------------------------------------------------------

verse

d -----------9-----------9-----------9--7--7----------------------------
a -----------7-----------7-----------7--5--5----------------------------
e --0--0--0-----0--0--0-----0--0--0-------------------------------------

d -----------9-----------9-----------9--5--7----------------------------
a -----------7-----------7-----------7--3--5----------------------------
e --0--0--0-----0--0--0-----0--0--0-------------------------------------

d -----------9-----------9-----------9--12--9---------------------------
a -----------7-----------7-----------7--10--7---------------------------
e --0--0--0-----0--0--0-----0--0--0-------------------------------------

g --5-----7--5----------------------------------------------------------
d --5--5--7--5----------------------------------------------------------
a --3--5--5--3----------------------------------------------------------
e -----3----------------------------------------------------------------

chorus ( I'm not sure about this. Please correct it.)

g --9--9--9s--7--7--7s--5--5--5s--4---pickslide-------------------------
d --9--9--9s--7--7--7s--5--5--5s--4---pickslide-------------------------
a --7--7--7s--5--5--5s--3--3--3s--2---pickslide-------------------------

g --9--9--9s--7--7--7s--5--5--5s--4--4--5-------------------------------
d --9--9--9s--7--7--7s--5--5--5s--4--4--5--5----------------------------
a --7--7--7s--5--5--5s--3--3--3s--2--2--3--5----------------------------
e -----------------------------------------3----------------------------

bridge

e --0--0--0--0--0-------------------------------------------------------

g -----------------5s--4--4--------------------5------------------------
d -----------------3s--2--2--------------------3------------------------
a ----------------------------------------------------------------------
e --0--0--0--0--0---------------0--0--0--0--0---------------------------

a --7--5-----5--------------------------7--5-----5----------------------
[C[C[C[C[C[C[C[C[C[C[C[C[C[C[C[C[C[C[C[C[C[C[C[C[C[C[C[C[C[C[C[C[C[C[C[C[C[C[C[C[C[C[
C[C[C[C[C[C[C[C[C[C[C[C[C[C[C[C[C[C[C[C[C[C[C[C[C[C[C[C[C[C
e --------7-----7--6--5--3--5--0--3--5--------7-----7--6-5--------------

d --5--6--7-------------------------------------------------------------
a --3--4--5--------------8--7--5--7-------------------------------------
e -----------0--0--5--7--------------0--0-------------------------------

d --5--6--7-------------------------------------------------------------
a --3--4--5-------------------------------------------------------------
e -----------0--0--0--0--0--0--0--0--0--0-------------------------------

a --7--5-----5----------------------------------------------------------
e --------7-----7--6--5--3--5--0--3--5----------------------------------

1st solo

d --------9--------------7--------------9--------------7----------------
a --7--7-----7--7--5--5-----5--5----------------------------------------
e --------------------------------8--8-----8--8--7--7-----7--7----------

I don't remember how the little part after this goes. The rest of the song
uses riffs that I already tabbed, so I'm done.

Bill

