Frayed Ends of Sanity
written by: Hetfield, Ulrich, and Hammett
as performed on ...And Justice for All
tab by Phil Boyle;


1)
D-------5----------4-----3-------3--
A--2----3----2-----2---2-1-2-x-x-1-2
E--0---------0---------0---0-x-x---0
                       Oh-ee-oh....

2)
D----------3------3------------
A--2-2-2-2-1-2--2-1---------1--
E--0-0-0-0---0--0---0-2-2-1---0
  pm......   ....   .........


3)                                          
D---------------------------------------------
A--7-----7-----7-----7-----7-----7-----7------
E--7-0-0-7-0-0-6-0-0-6-0-0-5-0-0-5-0-0-4-0-3~~
  pm....   ...   ...   ...   ...   ...   .
Never hunger...


4)
D--------------------
A--9-9--8-8--7-7--6-6
E--7-7--6-6--5-5--4-4
Twisting under schitzophrenia(??? how do you spell that)


5a)
D----------------------------------------------
A------5-5/7------5-5/7------5-5------5-6-7-8--
E--0-0-3-3/5--0-0-3-3/5--0-0-3-3--0-0-3-4-5-6--
  pm......    .......    .......  ...........

5b)
D--------------------------------------------
A------5-5/7------5-5-2------5-5------5-6-7-8
E--0-0-3-3/5--0-0-3-3-0--0-0-3-3--0-0-3-4-5-6
  pm......    .........  .......  ...........


6a)  1st        3rd       5th       2nd, 4th, 6th
D-------     ----4-    ---------  --------
A--2--4-     -2--2-    -2--5--4-  -5-6-7-8
E--0--2-     -0----    -0--3--2-  -3-4-5-6
Old habits  Fighting   Growing

6b)
D--9--7-----------5-6-7-8---------
A--7--5--5-6-7-8--3-4-5-6--5-6-7-8
E--0-----3-4-5-6-----------3-4-5-6
Frayed ends of sanity



7a)   *                              *
D--2-4-2---------------- several -4-6-4----------------
A--------5-4-2-4-------- times   -------7-6-4-6--------
E----------------5-3-2-0 then up ---------------7-5-4-7
Move it up one more fret (1/2 step) so 5 is the first note,
and the order follows this way.

2, 4, 2, 2 (doubled), 4 (doubled), 5, 6(half way through), then

7b)
G--9--7h9p7
D--9--7h9p7  before going into it on the 7th
A----------
E----------



8)
G---------------         --------------------9-7-9
D---------------         -------5-4-5--9-7-9------
A----------7-5-7 several -------------------------
E--0-0-0-0------         -0-0-0-------------------
pre-solo


9a)
D---------------------------------------------------------
A---------------------------------------------------------
E--0--0-0-0--0-0-0--0-0-7-0-6-0--0-0-0--0-0-0--0-0-7-0-6-0

9b)
D---------------------------------------------------------
A-----------------------4---3----------------------4---3--
E--2--2-2-2--2-2-2--2-2---2---2--2-2-2--2-2-2--2-2---2---2

9c)
D---------------------------------------------------------
A--0--0-0-0--0-0-0--0-0-7-0-6-0--0-0-0--0-0-0--0-0-7-0-6-0
E---------------------------------------------------------
solo riffs
The solo changes from 9a to 9b a few times, and ends on 9c.


10)
D--------7---9----------7-9
A--7-----5---7------7---5-7
E----0-0---0---0--0---0----
pm......   .   ....   .
post solo

At the end there's a hybrid of some of the above riffs, but you'll
figure it out.