Hit the Lights
written by Hetfield and Ulrich
as performed on Kill 'em All
tab by Phil Boyle;


1)
D--9-9-9-9-9-9-9-9---11-11-11-11-11-11-11------------
A--7-7-7-7-7-7-7-7---9--9--9--9--9--9--9-------------
E------------------------------------------pick slide
intro


2)
G----------------5-7---5-------------------------
D--2-------------5-7-5-5--------------7p5---5----
A--0-0-0-0-0-0-0-----5----0-0-0-0-0-0-----7---5-7
E------------------------------------------------
  pm............          ...........


3)
D--7-7-------7-7--------2
A--5-5--7-7--5-5--5-3-2-0
E-------5-5--------------
"No life till leather..."


4)
D--9-------------
A--7--------7-5-7
E-----7-5-7------
"never..."


5)
D------2------2--5---2
A--0-0-0--0-0-0--3-5-0
E------------------3--
  pm..    ...
"Hit the Lights"


6)
G-------|--------5---------7---------5-------------
D--5-2--|7-7-7-7-5-7-7-7-7-7-7-7-7-7-5--7-5--------
A--3-0--|0-0-0-0---0-0-0-0---0-0-0-0--------7-6-5-3
E-------|------------------------------------------
pre solo and second half of solo


7)
G--4-4-4-4-2-4-4-4-4-4-4-4-4-4-2--4-2--------
D--4-4-4-4-2-4-4-4-4-4-4-4-4-4-2------4-3-2-0
A--2-2-2-2---2-2-2-2---2-2-2-2---------------
E--------------------------------------------
first half of solo

song ends on an A5

