The House That Jack Built
written by Hetfield, Ulrich & Hammett
as performed on Load
tab by Phil Boyle;


Tune all guitars down 1/2 step
1)
eb----------------------------------
Bb------------------------------5//7
Gb------------------------------5//7
Db------3------5------3------5--5//7  several times 
Ab----3------5------3------5--------                 --3-3-3-3-3
Eb--1------3------1------3----------                 --1-1-1-1-1
   let ring..........................                 pm........


2)
eb---------------------------------------------
Bb------------------------------0--------------
Gb----------------------------2------4------2--
Db--2---5--3p5p3p0-2-3-2----3------5------3---3
Ab--2------------------------------------------
Eb--0------------------------------------------


3)
Db----------------------------------2-3
Ab--1-2-2-1-2-2-2-1-2-2-1-2-2-2-3-5-0-1
Eb--0-0-0-0-0-0-0-0-0-0-0-0-0-0-1-3----
  pm...................................
Opened my eyes


4)
Gb--------------5--7----------------------5--------
Db--------5--7--3--5--5--7-7--------5--7--3--5-----
Ab--3--5--3--5--------3--5-5--3--5--3--5-----3--3-3
Eb--1--3----------------------1--3--------------1-1
                                              pm..
The higher you walk

