#----------------------------------PLEASE NOTE---------------------------------#
#This file is the author's own work and represents their interpretation of the #
#song. You may only use this file for private study, scholarship, or research. #
#------------------------------------------------------------------------------##
Date: Fri, 8 Dec 1995 06:53:15 +0200 (EET)
From: Stefanou Stefanos <sstef@egnatia.ee.auth.gr>


  -----------------------------------------------  
  - Of Wolf And Man -
  From : METALLICA   
  Album: METALLICA
  Words & music by J.Hetfield,L.Ulrich,K.Hammett
  -----------------------------------------------
  FROM  A.Stefanou <sstef@egnatia.ee.auth.gr>

  INTRO  
e:------------|-----------|-----------|-----------|-----------|-----------|
B:------------|-----------|-----------|-----------|-----------|-----------|
G:------------|-----------|-----------|-----------|-----------|-----------|
D:-2--2--2--2-|2--2--2--2-|2--2--2--2-|2--2--2--2-|2--2--2--2-|2--2--2--2-|
A:-2--2--2--2-|2--2--2--2-|2--2--2--2-|2--2--2--2-|2--2--2--2-|2--2--2--2-|
E:-0--0--0--0-|0--0--0--0-|0--0--0--0-|0--0--0--0-|0--0--0--0-|0--0--0--0-|


                                                              


e:-----------------------------|-----------------------------|
B:-----------------------------|-----------------------------|
G:-----------------------------|-----------------------------|
D:---------------------4-----3-|---------------------4-----3-|
A:------------3--2-----2-----1-|------------3--2-----2-----1-|
E:-0----0--0--1--0--0-----0----|-0----0--0--1--0--0-----0----|


                                    


e:---------------------------------|
B:---------------------------------|
G:---------------------------------|
D:----------------------------4--3-|
A:------------3--2------------2--1-|
E:-0----0--0--1--0--0---0--0-------|


                F5  E5    B5   Bb5  E5
Off through the new day's mist I    run.
             
             F5  E5    B5   Bb5  F5   E5
Out from the new day's mist  I   have come.

  F5 E5              F5 E5
I    hunt, therefore I  am.

        F5  E5
Harvest the land.

          F5  E5       B5  Bb5
Taking of the fal__len     lamb. 

 

e:----------------------------|-------------------------------|-|
B:----------------------------|-------------------------------|-|
G:----------------------------|-------------------------------|-|
D:--------------------4-----3-|-------------------------------|-|
A:-----------3--2-----2-----1-|--------5-7-5-0-5-7---5-7--7\--|-|
E:0----0--0--1--0--0-----0----|--5--7-------------------------|-|

 

                F5  E5    B5   Bb5  E5
Off through the new day's mist I    run.
             
             F5  E5    B5   Bb5  F5   E5
Out from the new day's mist  I   have come.


   F5 E5    B5 Bb5
We    shift,      pulsing with the earth.

               F5 E5
Company we keep,     roaming the land while you 

                           Shape shift.
   sleep.      Oh...                  Nose to the wind.
e:---------------|----------------||--------------------------------|
B:---------------|----------------||--------------------------------|
G:---------------|----------------||--------------------------------|
D:-2---2---2---2-|-----4-------3--||----------------------4-------3-|
A:-2---2---2---2-|-----2-------1--||--2---2---3---2-------2-------1-|
E:-0---0---0---0-|-0-------0------||--0---0---1---0---0-------0-----|

Shape shift. 
                         Move shift
   Feeling I've been               All senses clean
e:-------------------------------|-------------------------------|
B:-------------------------------|-------------------------------|
G:-------------------------------|-------------------------------|
D:---------------------6-------5-|---------------------6-------5-|
A:-2---2---3---2-------4-------3-|-4---4---5---4-------4-------3-|
E:-0---0---1---0---0-------0-----|-2---2---3---2---0-------0-----|

Earth's gift

(Back to the meaning),back to the meaning of...         life.
e:-----------------------------------------|------------------|
B:-----------------------------------------|------------------|
G:-----------------------------------------|------------------|
D:-----------------------------------------|------------------|
A:-----------5---4-------------5---4-------|-4---4---4--------|
E:-2---2-2---3---2---2---2-2---3---2-------|-2---2---2---14\--|

 - Additional lyrics :
 
 Bright is the moon,high in starlight.
 Chill in the air,cold as steel tonight.
 We shift.Call of the wild.
 Fear in your eyes.It's later than you realized.
              
              ********************
 
 That's all for now.For any comments: A.Stefanou <sstef@egnatia.ee.auth.gr>
                      
           
           ... AND JUSTICE FOR ALL !!!
 


