Phantom Lord
by Hetfield, Ulrich and Mustaine
as performed on Kill 'em All
tab by Amriel Kissner and Phil Boyle; <a href="mailto:Psyd524@aol.com">Psyd524@aol.com</a>


(bass intro)

intro
1)
D--2-----2--2-----2--2--2--2------4-----4--4-----4--4--4--4-----4
A--2-----2--2-----2--2--2--2------4-----4--4-----4--4--4--4-----4
E--0-----0--0-----0--0--0--0------2-----2--2-----2--2--2--2-----2


2)
e----------------------------------------------
B----------------------------------------------
G--7\-9---9--9--9---7--9-----7\-9---9--9--9---7
D--7\-9---9--9--9---5--7-----7\-9---9--9--9---7
A--5\-7---7--7--7------------5\-7---7--7--7---5
E----------------------------------------------
repeat a bunch of times


3)
D-----5--4-5-4
A--7--3--2-3-2 then riff 2
E--5---------- 
verse


chorus(repeat 8 times)
4)
D---7----5----7----4----5
A---7----5----7----4----5
E---5----3----5----2----3
 Hear  the cry  of   war...


5)
G-----------------
D----5--4--5------
A----3--2--3--4--5
E--0----------2--3
Solo riff


6)
e------------------------------------------------
B-----------------------------------------------0
G--------0-----------0-----------0---------------
D-----------2-----------2-----------2--------2---
A-----2-----------2-----------0-----------0------
E--0-----------3-----------2-----------1---------
interlude (semi-clean) 


7)
D--2-2-2-2------------------------
A--2-2-2-2-2-2-2-2-1-1-1-1-0-0-0-0
E--0-0-0-0-3-3-3-3-2-2-2-2-1-1-1-1

