Stone Cold Crazy
 written by Mercury, May, Taylor, Deacon (Queen)
 as performed by Metallica
 tab by Phil Boyle; phil@encycmet.com


 1)
 G--5
 D--5
 A--3
 E---


 2)
 G------------3---------------------
 D------------3---------------------
 A------------1------------3p1h3-4-5
 E--1-3-3-3-3----1-3-3-3-3----------
     pm......    .........


 3)
 G-----------------3-3-3-----5--3-5
 D--5--5-5--5-5-5--3-3-3-----5--3-5
 A--5--5-5--5-5-5--1-1-1--\\\3--1-3
 E--3--3-3--3-3-3---------\\\------
   pm  ...  ............
 ..here comes the law...


 4)
 G----2-3-4-------------------
 D--5-2-3-4------4-----4-----4
 A--5-0-1-2--2-2-2-2-2-2-2-2-2
 E--3-------------------------
   pm......  ...   ...   ...
 solo 1


 5)
 G--4-2------
 D------4-2-0
 A-----------
 E-----------

