The More I See
 written by Discharge
 as performed by Metallica on Garage Inc
 tab by Phil Boyle; phil@encycmet.com


 tune all guitars down 1 1/2 steps (C# tuning)
 low to high C#, F#, B, E, G#, c#
 bass intro
 1)
 E--------------------------------2~
 B----------------------------------
 F#--2-2-2-2-2-2---2-2-2-2-2-2------
 C#--0-0-0-0-0-0---0-0-0-0-0-0-*----
 *=slide on C# string near the nut


 2)
 B----------------------------
 F#--8-7-8-7-8-7--5-2---------
 C#--6-5-6-5-6-5--3-0--0-0-0-0
 From where I stand I see


 3)
 B-------------------------------------
 F#--8------------------7--------------
 C#--6-6-6-6-6-6-6-6-6--5-5-5-5-5-5-5-5
 The less I believe


 4)
 B---------------------------------------------
 F#--8----------------------2------------------
 C#--6-6-6-6-6-6-6-6-6-6-6--0-0-0-0-0-0-0-0-0-0

