Turn the Page
 originally performed by Bob Seger
 as performed by Metallica on Garage Inc.,
 tab by Phil Boyle; phil@encycmet.com


 tune all guitars down 1/2 step
 1a) James
 eb--0--0-0-0-0-0-0-0-------------0--0-0-0-0-0-0-0
 Bb--0--0-0-0-0-0-0-0-------------0--0-0-0-0-0-0-0
 Gb--0--0-0-0-0-0-0-0-------------0--0-0-0-0-0-0-0
 Db--2--------2------------2------2--------2------
 Ab--2--------------------------------------------
 Eb--0-----------------0-3----0-------------------
 intro (strummed chords mostly repeated on the higher strings))

 1b) Kirk
 eb--/15-14~~------------------------
 Bb----------15-15~---12~------------
 Gb----------------14----12-11~~-----
 Db-----------------------------12-14
 Ab----------------------------------
 Eb----------------------------------


 2a) James
    Emin Dmaj Amaj Emin
 eb--0----2----0-----0
 Bb--0----3----2-----0
 Gb--0----2----2-----0
 Db--2----0----2-----2
 Ab--2---------0-----2
 Eb--0---------------0
 clean verse (strummed chords)
 "On a long and lonely highway"

 2b) Kirk
 eb------------------------------------
 Bb------------------------------------
 Gb------------------/12-11------------
 Db--14-12~~~5-7~~~~~-------12-12~~~7-9
 Ab------------------------------------
 Eb------------------------------------


 3)
 eb--0-----------0---------------------------------------
 Bb--0-----------0----7--7--7-8-8-7----2--2--2-3-3-2--2--
 Gb--0-----------0--9-7--7--7-7-7-7--7-2--2--2-2-2-2--2--
 Db--2--2--2-2-2-2--9-7--7--7-7-7-7--7-2--2--2-2-2-2--2-2
 Ab--2--2--2-2-2-2--7-5--5--5-5-5-5--5-0--0--0-0-0-0--0-2
 Eb--0--0--0-0-0-0--0-----------------------------------0
 Crunch verse
 The heavy chords have quite a bit of decoration (4ths especially).
 but the basic chord progression is the same as the clean verse
 There is the little fill from riff 1) in one of the verses too.


 4a)
 Gb--7---7--7-7--7-7-------------------
 Db--7---7--7-7--7-7----2---2--2-2--2-2
 Ab--5---5--5-5--5-5----2---2--2-2--2-2
 Eb---------------------0---0--0-0--0-0
 distorted
 but here I am,     on the road again 

 4b)
 Gb--7---7--7-7--7-7----2---2--2-2--2-2
 Db--7---7--7-7--7-7----2---2--2-2--2-2
 Ab--5---5--5-5--5-5----0---0--0-0--0-0
 Eb------------------------------------
 here I go,         playing the star again

 4c)
 Gb--5-5-5/7-7-7----
 Db--5-5-5/7-7-7---2
 Ab--3-3-3/5-5-5---2
 Eb----------------0
 there I go,  turn the page


 5)  ^V
 eb---------------         ------------------------
 Bb--7~~----------         -5--5--7--5--7--10--7--9
 Gb--7~~---------- 3 times -5--5--7--5--7--10--7--9
 Db-------------9-         -5--5--7--5--7--10--7--9
 Ab---------5---7-         ------------------------
 Eb-----5-7---7---         ------------------------
       pm....
 with wah
 ...what she said


