**************************************************************************
Wykonawca          :HEY
Utwor              :DREAMS
Plyta              :FIRE
Opracownie         :Arkadiusz Golon
Miejsce            :Wroclaw
Data               :8 kwietnia 1995
**************************************************************************
Nie jest mi tak dokladnie znany ten utwor, ale postaram sie napisac
wszystko co o nim wiem. Postanowilem opracowac DREAMS, poniewaz podoba
mi sie wokalistka tego zespolu - Katarzyna Nosowska -,a konkretnie
podoba mi sie jej glos. Mysle, ze i Wam sie podoba.


                            I gitara ( SOLO )
                            ********

e-]-----------0--------0-------------------------------------
B-]--------3-----3-----3----------------------2--3p-2--------
G-]-----4-----------4--4-------------------2-----------2-----
D-]--4-----------------4--/-7-7-\-9--9--2-----------------2--
A-]-----------------------/-5-5-\-7--7-----------------------
E-]-----------------------/-5-5-\-7--7-----------------------

e-]-----------------
B-]--------2--------
G-]----------2------
D-]------4-----4----
A-]----4---------4--
E-]--2--------------

                            II gitara ( SOLO )
                            *********

e-]-----------0-----------------------------------------
B-]--------3-----3-------/7--7--8p-7--------------------
G-]-----4-----------4----/7--7--------7--------2--3p-2--
D-]--4-------------------/7-----------------2-----------
A-]--------------------------------------0--------------
E-]-----------------------------------------------------

e-]-------------------------
B-]----------------5--------
G-]------------------2------
D-]--------------4-----4----
A-]------------4---------4--
E-]----------2--------------

A teraz chcialbym przedstawic Wam slowa z zapisem akordowym tego utworu.
Sa one grane przy pomocy palcowania:


	e-]---------x--------
	B-]-------x---x------
	G-]-----x-------x----
	D-]---x-----------x--
	A-]------------------
	E-]------------------




                    DREAMS ( by HEY )
                    ^^^^^^^^^^^^^^^^^


	*** Gitar solo ( 3 times ) ***


	h         D               A
 A	There is something in her eyes
	fis               h
	And I thing it's fear
	               D              A
	Why don't You tell me little girl
	fis               h
	Why are You so afraid
	                   D
	Last night my father
	fis              h
	Came to my room alone
	               D   A
	He was stark naked
	     fis               G
	Very quiet closed the door
	                 D
 B	And it was not dream
	        C
	I still feel his hand 
	       h             A
	On my trembling body

****************************************************************
***   Gitar solo ( 1 times )                                 ***
***   Fragment A ( 1 times ) - sam podklad muzyczny          ***
***   Fragment B ( 1 times ) - podklad muzyczny ze slowami   ***
****************************************************************

 A	Come to me girl
	I hold you now
	You can really trust me
	You will never cry again
	'Cause you've got your faith
	Put hands together
	Start talking to your God
	He will be listening
 	'Cause His mercy is so big
 B	And you fuckin' dad
	Gonna die in hell
	Gonna pay for all his sins.

****************************************************************
***   Gitar solo ( 1 times )                                 ***
***   Fragment A ( 1 times ) - sam podklad muzyczny          ***
***   Fragment B ( 1 times ) - podklad muzyczny ze slowami   ***
****************************************************************

Przyjemnej gry !!!



                                                 Arkadiusz Golon
 
 
 
 
 
 
 