#----------------------------------PLEASE NOTE---------------------------------#
#This file is the author's own work and represents their interpretation of the #
#song. You may only use this file for private study, scholarship, or research. #
#------------------------------------------------------------------------------##
Date: Tue, 10 Oct 1995 14:36:42 +0100 (MET)
From: potwor <karol@student.uci.agh.edu.pl>

                                 HEY
                               Nadzieja
                         from the album 'Fire'


Fill 1
    a              G               d
|------------------------------------------0-----------0---------|
|----------0---------------0-------------------3-----------3-----|
|--------------5-------4-------4-------2-----------2-----------2-|
|---7--------------5---------------3-----------------------------|
|----------------------------------------------------------------|
|----------------------------------------------------------------|


Verse 1   ( fill 1 )

a       G   d
Sprobuj   powiedziec to
     a         G
Nim uwierzysz, ze
    d
Nie warto mowic kocham
a       G  d
Sprobuj   uczynic gest
     a         G
Nim uwierzysz, ze
d
Nic nie warto robic


Chorus 1

        a     G      d
        Nic naprawde nic nie pomoze
        a     G        d
        Jesli Ty nie pomozesz dzis milosci
        a     G      d
        Nic naprawde nic nie pomoze
        a     G        d
        Jesli Ty nie pomozesz dzis milosci


Verse 2

Musisz odnalezc nadzieje
I niewazne ze
Nazwa Ciebie glupcem
Musisz pozwolic by
Sny
Sprawily bys pamietal ze...

Chorus 1

end of fill 1

Chorus 2

    a    G   F     G   a      G F G
    Moja   i Twoja   nadzieja
     a     G   F     G      a          G F G
    Uczyni   realnym   krok w chmurach
    a    G   F     G   a      G F G
    Moja   i Twoja   nadzieja
      a     G  F      G      a    G F G
    Pozwoli   uczynic   dzis cuda


Chorus 1  x2


Fill 1

    Nic naprawde nic
    Nie pomoze
    Nic nie pomoze
    Nic naprawde nic
    Nie pomoze
    Oooooooo
    Nic, o nic

Chorus 1

                  ,d#b
                  #####    ,.
                  t####   d##b
                  ]###I   ####
                  ####[   ####
                ,w##############bwwwwwwd####b.       ,odb
                ##############################b.   ,d####
                `^####~~~~####~~^^^^^^^^^~~#####b d######
                  ####    ####  ,d#######im,`############
                  i###    ####b 9#####~~^####`###########
                  I###    `####b `####boo###P  ~^#^' i##P
                  ####      `###b, `^###b,           t##[
                  V###        `###b   `^###b,        ###[
                   ^##          `###     `^###b,     ###[
                     ~            ~^        `^###    ####
                                                ~    t##P
                                                      ##'
                                                      t#
                                                       P

