
TRANSCRIPTION: PATRYK "PAZI" MAZUREK
E-MAIL:        pazee@poczta.fm
COMMENTS:      APPRECIATED  :)))
KIND OF TAB:   SOLO

                                                                
E||------------------------------------------------------------|
B||-------------------------------------------------10---------|
G||--7--------9--10--12---10------9--7----9----9---------------|
D||------------------------------------------------------------|
A||------------------------------------------------------------|
E||------------------------------------------------------------|


                                                   
E|--------------------------------------------------|
B|--------------------------------------------------|
G|--7----9--10--12---10------9--7----9--------------|
D|---------------------------------------7----------|
A|--------------------------------------------------|
E|--------------------------------------------------|


                                                                     
E|--------------------------------------------------------------------|
B|--10/---11\---10----8---6--5------6--8----10---10-------------------|
G|---------------------------------------------------10----7----------|
D|--------------------------------------------------------------------|
A|--------------------------------------------------------------------|
E|--------------------------------------------------------------------|


                                                          
E|---------------------------------------------------------|
B|-----------------------------------------10--------------|
G|--9----9------9--9---9------9------9--9------------------|
D|-------------------------------------------------7-------|
A|---------------------------------------------------------|
E|---------------------------------------------------------|


                                                                            
E|--10------8----------------------------------------------------------------|
B|------10------11---10---8--------8----10----10----10--8--------------------|
G|----------------------------10---------------------------10--9-------------|
D|---------------------------------------------------------------------------|
A|---------------------------------------------------------------------------|
E|---------------------------------------------------------------------------|


                                                       
E|--10----12--13--15---13---12----10----17--------------|
B|------------------------------------------------------|
G|------------------------------------------------------|
D|------------------------------------------------------|
A|------------------------------------------------------|
E|------------------------------------------------------|


                                                                                
E|--15--17---18------17--15---13--12------10--12--13---17---17---13---22----------|
B|--------------------------------------------------------------------------------|
G|--------------------------------------------------------------------------------|
D|--------------------------------------------------------------------------------|
A|--------------------------------------------------------------------------------|
E|--------------------------------------------------------------------------------|


                                                                     
E|--16--------------------12--------17--------------------------------|
B|--------------------------------------------------------------------|
G|--------------------------------------------------------------------|
D|--------------------------------------------------------------------|
A|--------------------------------------------------------------------|
E|--------------------------------------------------------------------|


                                                             
E------------------------------------------------------------|
B-------------------------------------------------10---------|
G--7--------9--10--12---10------9--7----9----9---------------|
D------------------------------------------------------------|
A------------------------------------------------------------|
E------------------------------------------------------------|


                                                   
E--------------------------------------------------|
B--------------------------------------------------|
G--7----9--10--12---10------9--7----9--------------|
D---------------------------------------7----------|
A--------------------------------------------------|
E--------------------------------------------------|


                                                                     
E--------------------------------------------------------------------|
B--10/---11\---10----8---6--5------6--8----10---10-------------------|
G---------------------------------------------------10----7----------|
D--------------------------------------------------------------------|
A--------------------------------------------------------------------|
E--------------------------------------------------------------------|


                                                          
E---------------------------------------------------------|
B------------------------------------------------10-------|
G--9----9------9--9---9------9------9--9--9---------------|
D---------------------------------------------------------|
A---------------------------------------------------------|
E---------------------------------------------------------|


                                                                            
E--10------8----------------------------------------------------------------|
B------10------11---10---8--------8----10----10----10--8--------------------|
G----------------------------10---------------------------10--9-------------|
D---------------------------------------------------------------------------|
A---------------------------------------------------------------------------|
E---------------------------------------------------------------------------|


                                                       
E--10----12--13--15---13---12----10----17--------------|
B------------------------------------------------------|
G------------------------------------------------------|
D------------------------------------------------------|
A------------------------------------------------------|
E------------------------------------------------------|


                                                                                
E--15--17---18------17--15---13--12------10--12--13---17---17---13---22----------
B--------------------------------------------------------------------------------
G--------------------------------------------------------------------------------
D--------------------------------------------------------------------------------
A--------------------------------------------------------------------------------
E--------------------------------------------------------------------------------


                                                                      
E--16--------------------12--------17--------------------------------||
B--------------------------------------------------------------------||
G--------------------------------------------------------------------||
D--------------------------------------------------------------------||
A--------------------------------------------------------------------||
E--------------------------------------------------------------------||


