<---- Umieszczone na http://diablo.mega.com.pl ----->
<--- Taboteka grup:  KULT, Kazik na Zywo, Kazik ---->
<-- Kontakt: Achilles(achi@topnet.pl) ICQ:2262772 -->
<-- Zrodlo tabulatury: Karol "Karel" Lisiak keyell@friko2.onet.pl

"Sztos"

e |5-------3-------| |5-------6-------|
h |7-------3-------| |5-------6-------|
g |7-------4-------| |6-------7-------|
d |7-------5-------| |7-------8-------|
a |5-------5-------| |7-------8-------|
e |5-------3-------| |5-------6-------|

e |5-------3-------| |5-------6-------8-------9--|
h |7-------3-------| |5-------6-------8-------9--|
g |7-------4-------| |6-------7-------9-------10-|
d |7-------5-------| |7-------8-------10------11-|
a |5-------5-------| |7-------8-------10------11-|
e |5-------3-------| |5-------6-------8-------9--|

a |5-4-3-2-1-0-----| Tego momentu nie jestem pewien.
e |----------------|
