#----------------------------------PLEASE NOTE--------------------------------#
#This file is the author's own work and represents their interpretation of the#
#song. You may only use this file for private study, scholarship, or research.#
#-----------------------------------------------------------------------------#

Date: Fri, 20 Feb 1998 14:43:50 -0500
From: Grzegorz Musialik <grg@giga.com.pl> (by way of cal woods)
Subject: TAB: "24 radical questions" by Acid Drinkers





				Grzegorz Musialik
				grg@giga.com.pl
				Guitar Page http://giga.com.pl/~grg

Content-Type: TEXT/PLAIN; charset=US-ASCII; name="24quest.tab"
Content-ID: <Pine.LNX.3.96.980129235550.143B@slayer.hell.org>
Content-Description:

                                ACID DRINKERS

                        24 RADICAL QUESTIONS



        Transcribed by Grzegorz Musialik (grg@giga.com.pl)

        More tablatures : http://giga.com.pl/~grg

  Tune down 2 whole steps (low to high C F Bb Eb G C )



                                                                play 2 times

C--------------------------------------------------------------------------|

G--------------------------------------------------------------------------|

Eb-------------------------------------------------------------------------|

Bb-8---------------10-----------------13------------------5----------------|

F--8---------------10-----------------13------------------5----------------|

C--6----------------8-----------------11------------------3----------------|





C------------------------------|

G------------------------------|

Eb-----------------------------|

Bb-2---------------------------|

F--2---------------------------|

C--0---------------------------|





   rhy fig 1 (play 3 times)

C----------------------------------------------------------------------------

G----------------------------------------------------------------------------

Eb---------------------------------------------------------------------------

Bb-----9-----7-----9-----7---9-------9----7----9--------------9----7----9----

F------7-----5-----7-----5---7-------7----5----7--9--10-------7----5----7----

C--0-----------------------------0----------------7---8---0------------------







                end rhy fig 1

C---------------------------------|

G---------------------------------|

Eb--------------------------------|

Bb-7--9------9----7----9----------|

F--5--7------7----5----7--10--9---|

C--------0-----------------8--7---|





   rhy fig 2 (play 4 times)                                     end rhy fig 2

C---------------------------------------------------------------------------|

G---------------------------------------------------------------------------|

Eb--------------------------------------------------------------------------|

Bb--------------------------------------------------------------------------|

F-------------------------------------------------------------------3----5--|

C---3h5-5-5--5-5-5-5--3h5-5-5--5-5-5-5--3h5-5-5--5-5-5-5---3----5-----------|



 play fig 1 (2 times)

 play fig 2 (4 times)





  rhy fig 3                                             end rhy fig 3

C------------------------------------------------------------------------|

G------------------------------------------------------------------------|

Eb-----------------------------------------------------------------------|

Bb------------------------------------------------------------------5----|

F--7----------------7----------------7-------------------------5---------|

C-----0-0--0-0-0-0-----0-0--0-0-0-0-----0-0--0-0-0-0---3--\7-------------|







C-------------------|

G-------------------|

Eb------------------|

Bb------------------|

F-------------------|

C--0-0-0-0--0-0-0-0-|





 play fig 1 (2 times)

 play fig 2 (4 times)

 play fig 3 (3 times)





 pick slide (4 bars)





   rhy fig 4 (play 8 times)

C----------------------------------------------------------------------------

G----------------------------------------------------------------------------

Eb---------------------------------------------------------------------------

Bb---------------------------------------------5-----------------------------

F--7---------------7-----------------------5-------7-----------------------5-

C------0---0---0-------0---0---0---3--\7---------------0---0---0---3--\7-----



                                                end rhy fig 4

C----------------------------------------------------------------|

G----------------------------------------------------------------|

Eb---------------------------------------------------------------|

Bb---5-----------------------------------------------------------|

F--------7---5---------------5-------------7---7-----------------|

C----------------7---6---5---3-------------5---5-----------------|







C---------------------------------------------------------------------------|

G---------------------------------------------------------------------------|

Eb--------------------------------------------------------------------------|

Bb------------------------------------------------------------2-------------|

F--5---5---------7---7---------5---5-----------7---7----------2-------------|

C--3---3---------5---5---------3---3-----------5---5----------0-------------|





 play rhy fig 1 (2 times)





  fig 5 (play 3 times) end fig5 rhy fig 6               end rhy fig 6

C------------------------------|-------------------------------------|

G------------------------------|-------------------------------------|

Eb-----------------------------|-------------------------------------|

Bb-----------------------------|-------------------------------------|

F-----5----4----5----4----5----|-------------------------------------|

C--0--3----2----3----2----3----|-0-0-0-0--0-0-0-0--0-0-0-0--0-0-0-0--|

   ^

 (1st time only)



 play fig 5 (3 times)

 play fig 6

 play fig 2 (4 times)

 play fig 1 (4 times)





C---------------------------------------------------------------|

G---------------------------------------------------------------|

Eb--------------------------------------------------------------|

Bb-9---------9-9-9-----9-------9-------9-------9----------------|

F--7---------7-7-7-----7-------7-------7-------7----------------|

C---------------------------------------------------------------|


