

#----------------------------------PLEASE NOTE---------------------------------#
#This file is the author's own work and represents their interpretation of the #
#song. You may only use this file for private study, scholarship, or research. #
#------------------------------------------------------------------------------##
From: K12OCAZG@vaxc.hofstra.edu

Township Rebellion by Rage Against The Machine

   This song uses Dropped D tuning.  Meaning you would tune your Low E string
to a "D".  I've only figured out the Chorus Riff, I would assume a talkbox is
used for the verses. Timing is in no way represented by the TAB.

h=hammer on
/=Slide
b=bend and release

E----------------------------------------------------------------------------
B----------------------------------------------------------------------------
G----------------------------------------------------------------------------
D----------------------------------------------------------------------------
A--3h5-----------3h5---------3/5---3h5--------3h5--------5-------------------
D--------O--O---------O--O---3/5--------O--O-------O--O-----2----------------

E----------------------------------------------------------------------------
B----------------------------------------------------------------------------
G----------------------------------------------------------------------------
D----------------------------5b-3-------------------------------------------
A--3h5-----------3h5---------------5----------------------------------------
D-------O--O----------O--O--------------------------------------------------

Part at end with Flanger

E--------------------------------------------------------------------------
B--------------------------------------------------------------------------
G--------------------------------------------------------------------------
D--------------------------------------------------------------------------
A------------------3/5----------------------------------------------------
D---O-O-O-O-O-O-O--3/5------------------------------------------------------

