#----------------------------------PLEASE NOTE---------------------------------#
#This file is the author's own work and represents their interpretation of the #
#song. You may only use this file for private study, scholarship, or research. #
#------------------------------------------------------------------------------##
Date: Fri, 1 Sep 1995 16:42:10 +0200
From: PINTER Denes <dpinter@eik.bme.hu>
Subject: correction: dreamers_ball.tab

                           QUEEN : DREAMERS BALL
                            From the album JAZZ   
                           written by  Brian May 
                                  (1978)

acoustic guitar:
(tune down 1/2 step)
    |     |     |     o     |     |     |     o     |     |     o   o |     |  
E-|-------------------------2-----2-----2-----2-----------------2---0-------|
B-|-------------2-----------3-----3-----3-----1-----2-----2-----3---3-------|
G-|-2-----------2-----2-----2-----2-----2-----2-----2-----2-----1---1-------|
D-|-2-----------2-----3-----0-----0-----0-----1-----2-----2-----2---2-------|
A-|-0---2-3---4-0-----4-----------------------0-----0-----0-----------------|
E-|-----------------------------------------------------------0-------------|
                                                                               
    |     |     |     o     |     |     |     o     |     |     |     o     |  
E-|-------------------------------------2-----1-----2-----2-----2-----------|
B-|-2-----2-----2-----2-----3-----3-----3-----3-----3-----3-----3-----1-----|
G-|-2-----1-----0-----0-----2-----2-----2-----1-----2-----2-----2-----2-----|
D-|-2-----2-----2-----3-----0---2-3---4-0-----0-----0-----0-----0-----1-----|
A-|-0-----0-----0-----4-----------------------------------------------0-----|
E-|-------------------------------------------------------------------------|
                                                                               
    |     |     o   o o     |     |     |     |     |     |     |   o |     |  
E-|-------------2---0-0---------------------------------------------0-------|
B-|-2-----2-----3---3-3-----2-----2-----2-----2-----------------------------|
G-|-2-----2-----1---1-1-----2-----2-----3-----3-----------------------------|
D-|-2-----2-----2---2-2-----2-----2-----2-----2-----------------------------|
A-|-0-----0-----------------0-----0-----4-----4-----------------------------|
E-|-------------------------------------3-----3-------4-2---1-0-------0---1-|
                                                                               
    o     |     |     |     |     |     |     |     |     o     o o   |     |  
E-|-------------------------------------------------------0-----0-0---------|
B-|-----3-------4-----3-----2-----------3-----4-----5-----5-----5-5---------|
G-|-----2-------2-----2-----2-----------4-----5-----6-----7-----7-7---------|
D-|-----0-------1-----0-----2-----------0-----7-----7-----6-----6-6---------|
A-|-------------3-----2-----0----/4-----5-----6-----7-----7-----7-7---------|
E-|-2-----2-----1-----0-----------------------------------0-----0-0---------|
                                                                               
    |     |     |     o     |     |     |     o     |     |     |     |     |  
E-|-------------------------2-----2-----2-----2-----------------0-----0-----|
B-|-------------------------3-----3-----3-----1-----2-----2-----3-----3-----|
G-|-2-----------2-----2-----2-----2-----2-----2-----2-----2-----1-----1-----|
D-|-2-----------2-----3-----0-----0-----0-----1-----2-----2-----2-----2-----|
A-|-0---2-3---4-0-----4-----------------------0-----0-----0-----------------|
E-|-------------------------------------------------------------------------|
                                                                               
    |     |     |     o     |     |     |     o     |     |     |     o     |  
E-|-------------------------2-----2-----2-----1-----2-----2-----2-----------|
B-|-2-----2-----2-----2-----3-----3-----3-----3-----3-----3-----3-----1-----|
G-|-2-----2-----2-----2-----2-----2-----2-----1-----2-----2-----2-----2-----|
D-|-2-----2-----2-----3-----0-----0-----0-----0-----0-----0-----0-----1-----|
A-|-0-----0-----0-----4-----------------------------------------------0-----|
E-|-------------------------------------------------------------------------|
                                                                               
    |     |     |     |     |     |     |     |     |     |   o |   o |     |  
E-|-------------0-----0---------------------------------------------0-------|
B-|-2-----2-----3-----3-----2-----2-----2-----2-----------------------------|
G-|-2-----2-----1-----1-----2-----2-----3-----3-----------------------------|
D-|-2-----2-----2-----2-----2-----2-----2-----2---------0-------------------|
A-|-0-----0-----------------0-----0-----4-----4-----------------------------|
E-|-------------------------------------3-----3-----4-----2-1-0-------0---1-|
                                                                               
    |     |     |     |     |     |     |     |     |     o     o   o |     |  
E-|-------------------------------------------------------0-----0---0-------|
B-|-----3-------4-----3-----2-----------3-----4-----5-----5-----5---5-------|
G-|-----2-------2-----2-----2-----------4-----5-----6-----7-----7---7-------|
D-|-----0-------1-----0-----2-----------0-----7-----7-----6-----6---6-------|
A-|-------------3-----2-----0----/4-----5-----6-----7-----7-----7---7-------|
E-|-2-----2-----1-----0-----------------------------------0-----0---0-------|
                                                                               
    |     |     |     |     |     |     |     |     |     |     |     |     |  
E-|-5-----5-----5-----5-----5-----5-----4-----4-----------------------------|
B-|-5-----5-----5-----5-----6-----6-----6-----6-----------------------------|
G-|-6-----6-----6-----6-----4-----4-----4-----4-----2-----2-----2-----2-----|
D-|-7-----7-----7-----7-----6-----6-----6-----6-----4-----4-----4-----4-----|
A-|-7-----7-----7-----7-----4-----4-----4-----4-----4-----4-----4-----4-----|
E-|-5-----5-----5-----5-----------------------------2-----2-----2-----2-----|
                                                                               
    |     |     |     |     |     |     |     |     |     |     |     |     |  
E-|-------------------------2-----2-----------------2-----2-----------------|
B-|-2-----3-----4-----2-----3-----3-----2-----2-----3-----3-----2-----2-----|
G-|-2-----2-----2-----2-----2-----2-----2-----2-----2-----2-----2-----2-----|
D-|-2-----0-----1-----2-----0-----0-----2-----2-----0-----0-----2-----2-----|
A-|-0-----2-----3-----4-----------------0-----0-----------------0-----0-----|
E-|-------------------------------------------------------------------------|
                                                                               
    |     |     |     |     |     |     |  o  |     |     |     |     |     |  
E-|-5-----5-----5-----5-----------------------------------------------------|
B-|-7-----7-----7-----7-----0----2----3----4--------2-----2-----6-----6-----|
G-|-8-----8-----8-----8-----1----2----4----5--------2-----2-----4-----4-----|
D-|-7-----7-----7-----7-----2-----------------------2-----2-----6-----6-----|
A-|-------------------------2-----------------------0-----0-----4-----4-----|
E-|-------------------------0-----------------------------------------------|
                                                                               
    |     |     |     |     |     |     |     |     |     |     o   o |     |  
E-|-2-----2-----2---2-2-----5-----5---------------------------------0-------|
B-|-3-----3-----1---1-1-----5-----5-----4-----2-----2-----2-----------------|
G-|-2-----2-----2---2-2-----6-----6-----2-----3-----2-----2-----0-----------|
D-|-0-----0-----1---1-1-----7-----7-----1-----0-----2-----2-----------------|
A-|-------------------------7-----7-----3-----2-----0-----0-----------------|
E-|-------------------------5-----5-----1-----0-----------------------------|
                                                                               
    |     |     |     o     |     |     |     o     |     |     o   o o     |  
E-|-------------------------2-----2-----2-----2---------------------0-0-----|
B-|-------------------------3-----3-----3-----1-----2-----2-----3-----------|
G-|-2-----------2-----2-----2-----2-----2-----2-----2-----2-----1-----------|
D-|-2-----------2-----3-----0-----0-----0-----1-----2-----2-----2-----------|
A-|-0---2-3---4-0-----4-----------------------0-----0-----0-----------------|
E-|-------------------------------------------------------------------------|
                                                                               
    |     |     |     o     |     |     |     o     |     |     |     o     |  
E-|-------------------------------------2-----1-----2-----2-----2-----------|
B-|-2-----2-----2-----2-----3-----3-----3-----3-----3-----3-----3-----1-----|
G-|-2-----2-----2-----2-----2-----2-----2-----1-----2-----2-----2-----2-----|
D-|-2-----2-----2-----3-----0---2-3---4-0-----0-----0-----0-----0-----1-----|
A-|-0-----0-----0-----4-----------------------------------------------0-----|
E-|-------------------------------------------------------------------------|
                                                                               
    |     |     |     |     |     |     |     |     |     |     |     |     |  
E-|-------------2-----2-----------------------------------------0---0-0-----|
B-|-2-----2-----3-----3-----2-----2-----2-----2-----------3-----3---3-3-----|
G-|-2-----2-----1-----1-----2-----2-----3-----3-----2-----1-----1---1-1-----|
D-|-2-----2-----2-----2-----2-----2-----2-----2-----2-----2-----2---2-2-----|
A-|-0-----0-----------------0-----0-----4-----4-----2-----------------------|
E-|-------------------------------------3-----3-----0---------------------0-|
                                                                               
    |     |     |     |     |     |     |     |     |     o     o   o |     |  
E-|-------------------------------------------------------0-----0---0-------|
B-|-3---3-------4-----3-----2-----------3-----4-----5-----5-----5---5-------|
G-|-2---2-------2-----2-----2-----------4-----5-----6-----7-----7---7-------|
D-|-0---0-------1-----0-----2-----------0-----7-----7-----6-----6---6-------|
A-|-0-----------3-----2-----0----/4-----5-----6-----7-----7-----7---7-------|
E-|-2-----2-----1-----0-----------------------------------0-----0---0-0---0-|
                                                                               
    |     |     |     |     |     |     |     |     |     |     |     |     |  
E-|-------------------------------------------------2-----4-----2-----2-----|
B-|-2-----2-----2-----2-----6-----6-----6-----6-----4-----4-----4-----2-----|
G-|-2-----2-----2-----2-----4-----4-----4-----4-----2-----2-----2-----2-----|
D-|-2-----2-----2-----2-----6-----6-----6-----6-----4-----4-----4-----4-----|
A-|-0-----0-----0-----0-----4-----4-----4-----4-----------------------------|
E-|-------------------------------------------------------------------------|
                                                                               
    |     |     |     |     |     |     |     |     |     |     |     |     |  
E-|-------------------------2-----2-----------------2-----2-----------------|
B-|-------------2-----2-----3-----3-----2-----2-----3-----3-----2-----2-----|
G-|-2-----2-----2-----2-----2-----2-----2-----2-----2-----2-----2-----2-----|
D-|-2-----2-----2-----3-----0-----0-----2-----2-----0-----0-----2-----2-----|
A-|-0-----0-----0-----4-----------------0-----0-----------------0-----0-----|
E-|-------------------------------------------------------------------------|
                                                                               
    |     |     |     |     |     |     |     |     |     |     |     |     |  
E-|-5-----5-----5-----5-----------------------------------------------------|
B-|-7-----7-----7-----7-----0----2--3------4--------2-----2-----6-----6-----|
G-|-8-----8-----8-----8-----1----2--4------5--------2-----2-----4-----4-----|
D-|-7-----7-----7-----7-----2-----------------------2-----2-----6-----6-----|
A-|-------------------------2-----------------------0-----0-----4-----4-----|
E-|-------------------------0-----------------------------------------------|
                                                                               
    |     |     |     |     |     |     |     |     |     |     |     |     |  
E-|-2-----2-----2---2-2-----5-----5-----0-----0-----5-----5-----0---0-------|
B-|-3-----3-----1---1-1-----5-----5-----5-----5-----5-----5-----5---5-------|
G-|-2-----2-----2---2-2-----6-----6-----7-----7-----6-----6-----7---7-------|
D-|-0-----0-----1---1-1-----7-----7-----6-----6-----7-----7-----6---6-------|
A-|-------------------------7-----7-----7-----7-----7-----7-----7---7-------|
E-|-------------------------5-----5-----0-----0-----5-----0-----0---0-------|
                                                                               
    |     |     |     |     |     |     |     |     |     |     |     |     |  
E-|-------------------------------------------------2-----2-----2---2-2-----|
B-|-2-----2-----2-----2-----6-----6-----6-----6-----3-----3-----3---3-3-----|
G-|-2-----2-----2-----2-----4-----4-----4-----4-----2-----2-----2---2-2-----|
D-|-2-----2-----2-----2-----6-----6-----6-----6-----0-----0-----0---0-0-----|
A-|-0-----0-----0-----0-----4-----4-----4-----4-----------------------------|
E-|-------------------------------------------------------------------------|
                                                                               
    |     |     |     |     |     |     |     |     |     |     |     |     |  
E-|-------------------------2-----2-----------------2-----2-----------------|
B-|-2-----3-----4-----2-----3-----3-----2-----2-----3-----3-----2-----2-----|
G-|-2-----2-----2-----2-----2-----2-----2-----2-----2-----2-----2-----2-----|
D-|-2-----0-----1-----2-----0-----0-----2-----2-----0-----0-----2-----2-----|
A-|-0-----2-----3-----4-----------------0-----0-----------------0-----0-----|
E-|-------------------------------------------------------------------------|
                                                                               
    |     o     |     o     |     |     |     |     |     |     |     |     |  
E-|-5-----5-----5-----5-----------------------------------------------------|
B-|-7-----7-----7-----7-----0----2----3---(4)-------2-----2-----6-----6-----|
G-|-8-----8-----8-----8-----1----2----4---(5)-------2-----2-----4-----4-----|
D-|-------------------------2-----------------------2-----2-----6-----6-----|
A-|-------------------------2-----------------------0-----0-----4-----4-----|
E-|-------------------------0-----------------------------------------------|
                                                                               
    |     |     |     |     |     |     |     |     |            o     o    o    
E-|-2-----2-----2---2-2-----------------0---0-0------------------2---<12>-----|
B-|-3-----3-----1---1-1-----2-----2-----3---3-3------------------1--------1-2-|
G-|-2-----2-----2---2-2-----2-----2-----1---1-1-----2------------2-2------2-2-|
D-|-0-----0-----1---1-1-----2-----2-----2---2-2-----2----------0-1-2-<12>-1-2-|
A-|-------------------------0-----0-----------------0---2-3--4---0-0------0-0-|
E-|------------------------------------------------------------------<12>-----|

o: let ring                                                                               
transcipted by Pinter Denes / dpinter@goliat.eik.bme.hu
1994 December, correction(P.D) '95 Februar
special chords are:
   
  Aaug       Adim   Ddim  A#dim   C#7   C#7/A    E7   E7/F#  Amaj7  Adim  
E-|-----------2------1-------------4------5------0-0----2------0------5------|
B-|-2----2----1------3------2------6------6------3-5----3------2------7------|
G-|-2----0----2------1------3------4------4------1-7----1------1------8------|
D-|-3----3----1------0------2------6------6------2-6----2------2------7------|
A-|-4----4----0-------------4------4------4--------7-----------0-------------|
E-|-------------------------3----------------------0-------------------------|

  Esus7  F7    B7   B7/G#  F#m   D/B   Adim
E-|-------------2-----4-----2------------------|
B-|-3-----4-----4-----4-----2-----3-----4------|
G-|-2-----2-----2-----2-----2-----4-----5------|
D-|-0-----1-----4-----4-----4-----0-----7------|
A-|-2-----3-----------------4-----5-----6------|
E-|-0-----1-----------------2------------------|
WARNING!
This transcription is not perfect. 
There is a lot of "bluff" in it.
But...

