#----------------------------------PLEASE NOTE---------------------------------#
#This file is the author's own work and represents their interpretation of the #
#song. You may only use this file for private study, scholarship, or research. #
#------------------------------------------------------------------------------##
Tabbed by Daan Willems
E-mail: Wiber@pi.net
========================================================================
TAB: Who's The King
BY:  Dog Eat Dog

Tuning: Normal (E A D G B E)
Distortion 

========================================================================
INTRO  (These mutes are played before the Riff starts)
|-----------|   
|-----------|
|-----------|
|--x-x-x-x--|
|--x-x-x-x--|
|--x-x-x-x--| 


INTRO RIFF 
|----------------------------|   
|----------------------------|
|-----------------------x-3--|
|-3---x-x-x-x-3---------x-3--|
|-3---x-x-x-x-3---------x-1--|
|-1---x-x-x-x-1--------------|


RIFF 1  (CHORUS / VERSE)
|----------------------------|-------------------------------------|
|----------------------------|-------------------------------------|
|-----------------------x-3--|-------------------------------------|
|-3---x-x-x-x-3---------x-3- |-3---x-x-x-x-3---------x--xx--x--xx--|
|-3---x-x-x-x-3---------x-1--|-3---x-x-x-x-3---------x--xx--x--xx--|
|-1---x-x-x-x-1--------------|-1---x-x-x-x-1---------x--xx--x--xx--|


FILL 1A					FILL 1B
|------------------|			|------------------|
|------------------|			|------------------|
|------6-x-x---5\--|			|---5---x-x-x-x----|
|--6---6-x-x---5\--|			|-x-5---x-x-x-x-3--|
|--6---4-x-x---3\--|			|-x-3---x-x-x-x-3--|
|--4---------------|			|-x-----x-x-x-x-1--|


RIFF 2A
|-------------------------------------------------|
|-------------------------------------------------|
|-3--5--------------------------------------------|
|-3--5--2--3----2/3-3-3-3---2/3-3-3-3--2/3-3-3-3--|
|-1--3--2--3----2/3-3-3-3---2/3-3-3-3--2/3-3-3-3--|
|-------0--1----0/1-1-1-1---0/1-1-1-1--0/1-1-1-1--|


RIFF 2B					RIFF 2C
|-----------------------|		|----------------------|
|-----------------------|		|----------------------|
|-3--5-----3--5---------|		|-x-3---x-x-5----------|
|-3--5--2--3--5--2--\3--|		|-x-3---x-x-5---x-x-2--|
|-1--3--2--1--3--2--\3--|		|-x-1---x-x-3---x-x-2--|
|-------0--------0--\1--|		|---------------x-x-0--|


RIFF 3A
|------------------------------------------|-----------|
|------------------------------------------|-----------|
|------------------------------------------|-3--5------|
|-3-3-3-3---3-3---x-x-x-x---3-3-3-3---3-3--|-3--5--2---|
|-3-3-3-3---3-3---x-x-x-x---3-3-3-3---3-3--|-1--3--2---|
|-1-1-1-1---1-1---x-x-x-x---1-1-1-1---1-1--|-------0---|


RIFF 3B
|------------------------------------------|
|------------------------------------------|
|------------------------------------------|
|-3-3-3-3---3-3---x-x-x-x---3-3-3-3---3-3--|
|-3-3-3-3---3-3---x-x-x-x---3-3-3-3---3-3--|
|-1-1-1-1---1-1---x-x-x-x---1-1-1-1---1-1--|

OUTRO
|----------------|
|----------------|
|----------------|
|-3-----------3--|
|-3-----------3--|
|-1-----------1--|



SONG STRUCTURE
--------------
INTRO	    1x
INTRO RIFF  2x
RIFF 1	    1x
FILL 1A     1x
RIFF 1	    2x
FILL 1A     2x
INTRO	    1x
RIFF 1      2x
FILL 1A     4x
FILL 1B     1x
RIFF 2A     3x
RIFF 2B     1x
RIFF 2C     1x
RIFF 3A     5x
RIFF 3B     1x
RIFF 2A     1x
RIFF 2B     1x
RIFF 1      2x
OUTRO