
SONG:      Neither can I
AUTHOR:    Slash
ALBUM:     It's Five O'clock somewhere
TABBED BY: The Viking


Intro
                                       |1.
||------------------|-----------------||-------0---------|-------0----------||
||--8-------8-------|-----8---8-------||-7-------7-------|-----0---5-0------||
||:---9---9---9---9-|---9---9---9---9-||---8-------8---0-|---0-----------0-:||
||:-----9-------9---|-8-----------8---||-----7-------7---|-5-----------5---:||
||------------------|-----------------||-----------------|------------------||
||------------------|-----------------||-----------------|------------------||

|2. 3.                              |4.
|-------0---------|-------0--------||-----------0-----|-------0-2---7---|
|-7-------7-------|-----0---5-0----||-7-------7---7---|-----4---------7-|
|---8-------8---0-|---0---------0-:||---8---8-------8-|---5------s8-----|
|-----7-------7---|-5-------------:||-----7-----------|-4---------------|
|-----------------|----------------||-----------------|-----------------|
|-----------------|----------------||-----------------|-----------------|

                      Accoustic (4X)
|-----------------|   |-------------------|
|10---------------|   |-------------------|
|---8-------------|   |-------------------|
|-----9-----------|   |---2---2---2---0h2-|
|-----------------|   |-----1---0---------|
|---------10s-----|   |-0-----------3-----|



There are 2 guitars : one accoustic and one electric



Verse:
Accoustic: [A] [A] [A] [A] [B] [C] [D] [E] [A] [A] [A] [A] [F] [G]
Electric:  [J] [K] [J] [K] [L] [L] [L] [M] [N] [O] [N] [O]
Chorus:
[H] [I] [H] [I] [H] [I] [H] [I] [H] [I] [H] [I] [H] [I] [H] [I]



Accoustic:

        [A]                       [B]                      [C]
|-------------------|   |-----5-------------|   |-----5-------------|
|-------------------|   |-----5-----2-2-0---|   |-----4-----2-2-0---|
|-------------------|   |-----5-----------2-|   |-----5-----------2-|
|---2---2---2---0h2-|   |-----7-------------|   |-----4-------------|
|-----1---0---------|   |-0-----------------|   |-0-----------------|
|-0-----------3-----|   |-------------------|   |-------------------|
  .   .   .   .           .   .   .   .           .   .   .   .


        [D]                           [E]                     [F]
|-----5--5----------|   |-------------------------|   |-----------------|
|-----4--4--2-2-0---|   |-------------------------|   |-----------------|
|-----5--5--------2-|   |-2-0---------------------|   |---0---0---0---0-|
|-----3-------------|   |-----2-1-0---0-----------|   |-----------------|
|-0-----------------|   |-----------3---3-0-------|   |-3---2---0-------|
|-------------------|   |-------------------3-2-1-|   |-------------3---|
  .   .   .   .           .     .     .     .           .   .   .   .

            [G]                    [H]
|---------------------|   |---------------------|   |---------------------|
|-3-3-3-3-0-----------|   |-----2b3-2v----------|   |-----2b3-2v----------|
|-2-2-2-2-2-----------|   |-----2b3-2v----------|   |-----2b3-2v----------|
|-0-0-0-0-1---------2-|   |-------------------2-|   |-5b-----------------2-|
|---------2-----2-5---|   |---------------2-5---|   |---------------2-5---|
|---------------------|   |-3-0-----------------|   |---0-----------------|
  .     .   .   .           .   .     .   .           .   .     .   .




Electric guitar:

        [J]                     [K]                      [L]
|-------------------|   |----------------|   |-----------------------|
|-------------------|   |----------------|   |-----------------------|
|-------------------|   |----------------|   |-----0h2---0h2---0h2---|
|-----5---7b8r7-----|   |-----5----------|   |---------------------2-|
|---7---7-----------|   |---7---7--------|   |-0-0-----0-----0-------|
|-------------------|   |---------5b-----|   |-----------------------|
  .   .   .     .         .   .   .   .        .   .     .     .


              [M]                            [N]                     [O]
|-------------------------------|   |---------------------|   |-------------|
|-14b15r14-12-------------------|   |---------------------|   |-------------|
|-14b15r14-12----------12b13b14-|   |--------12-----------|   |-------------|
|-------------14-11-14----------|   |---12h14--14-----b17-|   |-r14---------|
|-------------------------------|   |---------------------|   |-------------|
|-------------------------------|   |---------------------|   |-------------|
   .     .        .     .        .           .  .  .




Solo

--------------------------------------------------------------------------
---------8-------------------s8-7-8-7s10------8h10p8p7----8--7------h8p7--
------------7-7h9v--------------------------------------9-----------------
---7s8s9------------------------------------------------------------------
--------------------------------------------------------------------------
--------------------------------------------------------------------------

----------------7p6-7-6---6---6---------------------8-11-12-11-8-11-8h11p8
------------------------8---8---8p7p5-8-5-7-8-10-12-----------------------
--9--9v-------------------------------------------------------------------
--------------------------------------------------------------------------
--------------------------------------------------------------------------
--------------------------------------------------------------------------

--------------------------------------------------------------------------
-12p9-13p9-12h13p12p10-12-------------------------------------------------
---------------------------14b16--------r14p12----12-14-12----------------
-----------------------------------------------14-----------14-14-14-14v--
--------------------------------------------------------------------------
--------------------------------------------------------------------------

--------------------------------------------------------------------------
----------13-----15-----13-12-13-12---------------------------------------
---12-14------14----14----------------------------------------------------
--------------------------------------------------------------------------
--------------------------------------------------------------------------
--------------------------------------------------------------------------

