From: Michael Martin <behs@u.washington.edu>

Title: Blood Sugar Sex Magik
Artist: Red Hot Chili Peppers
Section: Intro

 .   .    .   .   .           .   .   .   .   .
-------------------------------------------------------------------------------
-------------------------------------------------------------------------------
-2---5------------------------2---4--------------------------------------------
-2---5------------------------2---4--------------------------------------------
-0---3--5/7-3/5-1/3-X-X-X-X-X-0---2-3/5-2/3-----X-X-X-X-X----------------------
--------------------------------------------2/3--------------------------------

Section: Fill


-------------------------------------------------------------------------------
-------8-----------------8-10-8------------------------------------------------
-9-7-9---9-7-9-----9-7-9--------9-7-9------------------------------------------
-------------------------------------------------------------------------------
-------------------------------------------------------------------------------
-------------------------------------------------------------------------------


Notation:   . stacatto

Well, this is all the stuff I felt like typing in tonight. I have a couple
of other that I sorta know, but if you're interested, I have tabulation
books of Randy Rhoades, Metallica, Ozzy's Tribute, and something called
Heavy Metal Vol. 3. I also have 12 issues of Guitar (for the practicing
musician), Guitar World, and Guitar Player.
The thing I'm really looking for is 316, by Van Halen...
If you know it, or know where I can get it, I'd appreciate it...

   ** Jon **


