	I was just fooling around, and I stumbled on to this song.
	It's pretty cool, and I played it for about 4 hours on
	Saturday while I was letting my two Peking ducks dry off...


	Breaking the Girl - Red Hot Chili Peppers.
------------------------------------------------------

	Jangly Acoustic part, play all those strings, and let
	them open strings ring!

Intro/verse:
A (strumming) B C C       D      E   A  A
0-0-0-- ... --0-0-0-...---0-...--0---0--0---------------------------
2-2-2-- ... --4-5-5-...---7-...--9---10-10--------------------------
2-2-2-- ... --4-5-5-...---7-...--9---9--9--------------------------
2-2-2-- ... --4-5-5-...---7-...--9---7--7--------------------------
0-0-0-- ... --0-0-0-...---0-...--0---0--0--------------------------
0-0-0-- ... --0-0-0-...---0-...--0---0--0--------------------------
I am a       man          cut from the  know ...

Bridge:

C            G         A 
0- ...     --3- ... ---0
1- ...     --0- ... ---2
0- ...     --0- ... ---2
2- ...     --0- ... ---2
3- ...     --2- ... ---0
0- ...     --3- ... ---0
Feeling so good that day

Chorus: (I'm not *real* sure about this, please correct if you know it)    
A   B   C   D   E   D   C   B   
0---2---3---5---7---5---3---2
2---4---5---7---9---7---5---4
2---4---5---7---9---7---5---4
2---4---5---7---9---7---5---4
0---2---3---5---7---5---3---2
0---2---3---5---7---5---3---2


	Anyway, the really cool part is the intro/verse. I love the sound
	of the moving chords with the three open strings ringing.

	Enjoy,
-- 
~~~~~~~~~~~~~~~~~~~~~~~~~~~~~~~~~~~~~~~~~~~~~~~~~~~~~~~~~~~~~~~~~~~~~~~~
Zip   Steelers in 92!          | Illinois Basketball: More three point 
      Bubby's Back!!!!         | shooters than you can shake a stick at!
"I didn't lose, the Team lost" - Coach
