                          Californication - Red Hot Chilli Peppers 



|-------------------------| 
|-------------------------| 
|------4-5-----------2----| 
|----2-------------3------| 
|--0-------------3--------| 
|--------------1----------| 

Graj 6x 

Riff 2 

C G F D 
|----------------------------------------| 
|----------------------------------------| 
|------5-----------------------------7---| 
|----5---5------5---------3--------7-----| 
|--3----------5---5-----3---3---/5-------| 
|-----------3---------1------------------| 

graj 1x 

Riff 1 graj 4x 
Riff 2 graj 1x 

Riff 3 
A F 
|---0-0-0-0-0-0-0--0-0-0-0-0-0-0---| 
|---0-0-0-0-0-0-0--0-0-0-0-0-0-0---| 
|---2-2-2-2-2-2-2--2-2-2-2-2-2-2---| 
|---2-2-2-2-2-2-2--3-3-3-3-3-3-3---| 
|---0-0-0-0-0-0-0--3-3-3-3-3-3-3---| 
|------------------1-1-1-1-1-1-1---| 

Riff Graj x6 

Refren 
Riff 1 
|-----------------------------------------------| 
|-----------------------------------------------| 
|--5--5--------7--7----------5--5--------7------| 
|--5--5--5--5--7--7--7--7----5--5--5--5--7------| 
|--3--3--5--5--5--5--7--7----3--3--5--5--5------| 
|--------3--3--------5--5----------3--3---------| 

graj x1 

Graj Riff 1 x4 
Graj Riff 2 x1 
Graj Riff 1 x4 
Graj Riff 2 x1 

Riff 3 graj x6 

Riff 4 
|--------------------------------------------------------| 
|--------------------------------------------------------| 
|--5--5--------7--7----------5--5--------7-7-7-7-7-7-7---| 
|--5--5--5--5--7--7--7--7----5--5--5--5--7-7-7-7-7-7-7---| 
|--3--3--5--5--5--5--7--7----3--3--5--5--5-5-5-5-5-5-5---| 
|--------3--3--------5--5----------3--3------------------| 

|-----------------------------------------------| 
|-----------------------------------------------| 
|--5--5--------7--7----------5--5--------7------| 
|--5--5--5--5--7--7--7--7----5--5--5--5--7------| 
|--3--3--5--5--5--5--7--7----3--3--5--5--5------| 
|--------3--3--------5--5----------3--3---------| 

Solo: 

|--------------------------------------------------------| |--10--14------------10---14-----------------------------| 
|----------12b--11-------------12b--11-----11--11p9------| 
|--------------------------------------------------12p11-| 
|--------------------------------------------------------| 
|--------------------------------------------------------| 

|--------------------------------------------------------| 
|----------------------------------10---14---17--19------| 
|---------9--11b--11---9---------------------------------| 
|--9--11-------------------11----------------------------| 
|--------------------------------------------------------| 
|--------------------------------------------------------| 

|--------------------------------------------------------| 
|--10---14---17---19b--19------21b--21--19--17--19b--17--| 
|--------------------------------------------------------| 
|--------------------------------------------------------| 
|--------------------------------------------------------| 
|--------------------------------------------------------| 

|--------------------------------------------------------| 
|--14---17--14--14b--14b--14b----17--14-----19b--17--14--| 
|--------------------------------------------------------| 
|--------------------------------------------------------| 
|--------------------------------------------------------| 
|--------------------------------------------------------| 

|--------------------------------------------------------| 
|--17--14--12--10-----17b--15--14---10~~~----------------| 
|--------------------------------------------------------| 
|--------------------------------------------------------| 
|--------------------------------------------------------| 
|--------------------------------------------------------| 

Riff 1 graj x4 
Riff 2 graj x1 


