Red Hot Chili PeppersCoffee ShopOne Hot MinuteTabbed by Andrew LoSurdo
Intro:

e|--------------------------------------------------------|
B|--------------------------------------------------------|
G|--9-9-9-9-9-9-9-9-9-9-9-9-9-9-9-9-9-9-9-9-9-9-9-9-9-9---|
D|--------------------------------------------------------|
A|--------------------------------------------------------|
E|--------------------------------------------------------|
Verse:   E5    G5
e|-----|-----|
B|-----|-----|
G|-----|-----|
D|--2--|--5--|
A|--2--|--5--|
E|--0--|--3--|
E5                                                 G5        E5           G5   E5
e|----------------|--------------------|-------------------|----0--------|
B|----------------|-------8--9-9-9\----|-------------------|----0--------|
G|----------------|-------6--7-7-7\----|-------------------|----X--------|
D|--7--7--5-5---2-|--------------------|--7--7---10-10---2-|----2--------|
A|--7--7--5-5---2-|--------------------|--7--7---10-10---2-|----2--------|
E|--5--5--3-3---0-|---0--------------X-|--5--5----8--8---0-|----0--------|

e|----------------|-------------|--------------|-----------------------|
B|----------------|-----------5-|--2-----------|-----------------------|
G|--6--6--4-4---3-|--3--4--4--3-|--3-----------|-----------------------|
D|--7--7--5-5---4-|--4--5--5--X-|-----10-10--7-|-/9-9/11-11/12--12--14-|
A|--7--7--5-5---4-|--4--5--5--4-|--4--10-10----|-----------------------|
E|--5--5--3-3---2-|--2--3--3--2-|--2---8--8--5-|-/7-7/9---9/10--10--12-|
Bass Solo:

e|-------------x-15--15---------------|
B|--12----12---x-15--15---12------12--|
G|--12----12--------------12------12--|   Repeat 2 times
D|--12----12--------------12------12--|
A|------------------------------------|
E|------------------------------------|
Interlude:

e|---------------------|--------------------------|--------------------|
B|---------------------|--------------------------|--------------------|
G|-----9-7-X-6-7-------|----------------7------12-|----9-7-X-6-7-------|
D|---------------X-X-5-|--X-X-7-7-5---9---9/11----|--------------------|
A|--7------------------|------------7-------------|--7-----------X-X-3-|
E|---------------------|--------------------------|--------------------|

e|----------------------|-----------------|------------------|
B|----------------------|--------------12-|------------------|
G|----------7-X-6-------|----9-7-X-6-7-12-|----12/13---------|
D|--------6-------7-5---|-----------------|----11/12---7\6/7-|
A|--X-X-5-------------5-|--7--------------|------------------|
E|----------------------|-----------------|--0-------0-9\8/9-|

e|-------------------|--------------------------------|-----------------|
B|-------------------|--------------------------------|-----------------|
G|----9-7-X-6-7------|--12--X-X-12--X-X-11--X-X-12-12-|-----------------|
D|-------------------|--12--X-X-12--X-X-11--X-X-12-12-|--13-13-13-13-13-|
A|--7-----------X-10-|--10--X-X-10--X-X--9--X-X-10-10-|--11-11-11-11-11-|
E|-------------------|--------------------------------|-----------------|

e|--4/5--5--5--5--5--5--5--|--5/7--7--7--7--7--7--|
B|-------0--0--0--0--0--0--|--0----0--0--0--0--0--|
G|-------9--9--9--9--9--9--|--9----9--9--9--9--9--|
D|--6/7--7--7--7--7--7--7--|--7/9--9--9--9--9--9--|
A|-------------------------|----------------------|
E|-------------------------|----------------------|
Outro:

e|--15----|
B|-----14-|
G|--------|
D|--------|
A|--------|
E|--------|
