========

Newsgroups: rec.music.makers.guitar.tablature

Subject: TAB: Coffee Shop - Red Hot Chili Peppers

From: chthibau@pratique.fr (rOn/pSd!)

Date: Sat, 25 Nov 1995 14:52:18 GMT

Coffee Shop - The Red Hot Chili Peppers

Here is some beginning tab for this GREAT! song :

Theme :

1st guitar :

E-|---------------------------------------------------------------------|
B-|---------------------------------------------------------------------|
G-|---------------------------------------------------------------------|
D-|-2--x--x--x--x--2--x--x--x--x--2--2--2--x--x--x--x--2--x--x--x--2--2-|
A-|-2--x--x--x--x--2--x--x--x--x--2--2--2--x--x--x--x--2--x--x--x--2--2-|
E-|-0--x--x--x--x--0--x--x--x--x--0--0--0--x--x--x--x--0--x--x--x--0--0-|

2nd guitar :
E-|----------------------------------------------------------xxxx//12-12|
B-|----------------------------------------------------------xxxx//12-12|
G-|-------------------------------4--3~~~~~~~~~~~~~~~~~~~~~~~xxxx//12-12|
D-|---------------------------------------------------------------------|
A-|---------------------------------------------------------------------|
E-|---------------------------------------------------------------------|

I am just a lousy bum
Searching for the unknown crumb, the crumb, the crumb
Something of someone to come
Come along illumate my lust, combust
Confucing might have been confused
And buddha might have blown a face, booze the muse

Chorus :
E-|---------------------------------------------------------------------------|
B-|---------------------------------------------------------------------------|
G-|---------------------------------------------------------------------------|
D-|---------------------------------------------------------------------------|
A-|-7----7----5-----5-----2----------2-------------2----------2---------------|
E-|-5----5----3-----3-----0----------0-------------0----------0---------------|
Meet me at the Coffee shop

Where we can dance like Iggy Pop

E-|---------------------------------------------------------------------------|
B-|---------------------------------------------------------------------------|
G-|---------------------------------------------------------------------------|
D-|-----------5----5-------------------------------------------------------|
A-|-7--7--7-7-3----3---2---2----2---------7----7------5--5--4-------4--4----5-----|
E-|-5--5--5-5----------0---0----0---------5-----5-----3--3--2-------2--2----3---|
Another go in the parking lot
Frewak the

E-|--------------------------------------|
B-|--------------------------------------|
G-|--------------------------------------|
D-|-5------5---------9----10---12----14\-|
A-|-3------3---7-------------------------|
E-|------------5-----7----8----10----12\-|
cheek on your hotspo-ot

And then back to theme, chorus again and .... the strange part with

the

strange bass, and then the BASS SOLO ; too hard for me to transcribe

!!

Note that you can play the theme on one guitar only but the result is

better on

2 guitars ...

If someone could continue this tab, it would greatly be appreciated !

Some suggestions or comments are greatly welcomed ...
