#----------------------------------PLEASE NOTE---------------------------------#
#This file is the author's own work and represents their interpretation of the #
#song. You may only use this file for private study, scholarship, or research. #
#------------------------------------------------------------------------------#
#
From: zdxc0d@amoco.com (David Crowson)

Love Me Tender - Elvis Presley.

E---3------------------------
A----3-2-3----0----3-2-0-2-3-
D-----------0---0------------
G----------------------------

E---3------------------------
A----3-2-3----0----3-2-0-2-3-
D-----------0---0------------
G----------------------------

E--------------------------------------
A------------------------------3-------
D-----------2-2-2--2-2-2---2-0---0--2--
G--------------------------------------


E--------------------------------------
A----------------------0----3-2-----3--
D-----------2-2-3--2-0---0------2-0----
G--------------------------------------

Have fun, and give it some slap ;-)
