                        Heavy Fuel (DIRE STRAITS)

Jakos nie widzialem zeby ktos wczesniej zrobil transkrypcje tego utworu, 
wiec postanowilem sprobowac. Sam "Heavy Fuel" nie jest trudny, wiec nie 
powinno wam sprawic wiekszych klopotow.
								       Michal Ludwiczak


INTRO:

Pierwszy fragment, ktory nalezy zagrac 4 razy:
                                                                        
E--------------------------------------------------------
B------------------------------------0-------------------
G---------------------------------------2--0-------------
D---2-----2--2--0-----2-----2--2--0-----------2--0-------
A---2-----2--2--0-----2-----2--2--0--------------0-------
E--------------------------------------------------------
                                                                        

Drugi fragment grany 2 razy:
                                                                        
E--------------------------------------------------------
B--------------------------------------------------------
G------------0-----------------------0-------------------
D---2-----2-----2--------2--2-----2-----2----------------
A---2-----2-----2--0--2--2--2-----2-----2--0--2----------
E--------------------------------------------------------

                                                                                                                                            
E--------------------------------------------------
B--------------------------------------------------
G------------0-----------------------0h2p0--0h2p0--
D---2-----2-----2--------2--2-----2----------------
A---2-----2-----2--0--2--2--2-----2----------------
E--------------------------------------------------
                                                                        

Zwrotka:

Troche trudno zorientowac sie jak grac, po tym co
zamieszczam nizej, ale kiedy posluchasz nagrania,
bedziesz wiedziec o co chodzi.

E------------------------------------------------
B------------------------------------------------
G------------------------------------------------
D---2-----2-----2-----2--2----0------------------
A---2-----2-----2-----2--2--2-0------------------
E---------------------------2--------------------


Refren:

Wlasciwie sa to pewne kombinacje, ktore same wychodza
spod palcow, kiedy juz sie opanuje intro i zwrotke.



Milego grania!

Michal Ludwiczak
mludwik@atrix.com.pl