#----------------------------------PLEASE NOTE---------------------------------#
#This file is the author's own work and represents their interpretation of the #
#song. You may only use this file for private study, scholarship, or research. #
#------------------------------------------------------------------------------##

From: Nir Gilboa <100414.3576@CompuServe.COM>
 
                  |----------------------------------|
Nice Song !!      |   Tablature for Dire Sraits's :  |
                  |       ON EVERY STREET            |
                  |----------------------------------|


(E)[---------------]  Play the three used strings
(B)[---------------]  Simultaneously.
(G)[----2----------]
(D)[------3--------]
(A)[---------------]
(E)[1--------------]

(E)[---------------]  Play the three used strings
(B)[--------5------]  Simultaneously.
(G)[-------4-------]
(D)[---------------]
(A)[---------------]
(E)[-----3---------]

(E)[---------------]  Play the three used strings
(B)[---------------]  Simultaneously.
(G)[----2----------]
(D)[------3--------]
(A)[---------------]
(E)[----2----------]

(E)[---------------]  Play the used string + (G) & (E)
(B)[---------------]  Simultaneously.
(G)[---------------]
(D)[----2----------]
(A)[---------------]
(E)[---------------]

(E)[---------------]  Play the three used strings
(B)[---------------]  Simultaneously.
(G)[----2----------]
(D)[------3--------]
(A)[---------------]
(E)[1--------------]

(E)[---------------]  Play the used strings + (E)
(B)[---------------]  Simultaneously.
(G)[-------4-------]
(D)[--------5------]
(A)[---------------]
(E)[---------------]

(E)[---------------]  Play the three used strings
(B)[---------------]  Simultaneously.
(G)[--------5------]
(D)[--------5------]
(A)[---------------]
(E)[-----3---------]

(E)[---------------]  Play the three used strings
(B)[--------5------]  Simultaneously.
(G)[-------4-------]
(D)[---------------]
(A)[---------------]
(E)[-----3---------]

& Repeat                        NICE SONG, Huh?

Written down by Nir Gilboa and Leeor Ben-Zeev.

*******************************************************
* Comments or Corrections: Please send !!  Nir Gilboa *
* 100414,3576 address in CompuServe                   *
* 100414,3576@Compuserve.com at Internet              *
*******************************************************

-- 
Nir Gilboa

Date: Sat, 5 Aug 1995 19:41:12 +1000
From: "GuyLuke@world.net" <GuyLuke@world.net>

> Dire Straits
> On Every Street
> 
> 
> Notes:  This is truly a beautiful piece of playing on Knopfler's part.
> The bracketed notes are ghost notes, which sound out the melody.  Try
> subdividing the bass part slightly, to prevent the notes from over-
> sustaining, and let the melody ring a little louder and longer.  Not easy.
> Does anyone out there know how to play the intro to "Wild West End"?.
> If someone does, I would love to see it.
> 
>                                         Regards: Guy Luke.
> 
> On Every Street
> Ostinato Outro Riff
> 
> 
>      F         G6              D/F#       Em7           F          Em
>      |         |               |          |             |          |
> ||--------0--(0)-----------|------------------------|--------------------------
> ||----------------0-----3--|--(3)-------------------|----------0--(0)--------1-
> |*--2----------------------|----------0--(0)-----2--|--(2)-------------0-------
> |*-----0-------------0-----|-------0----------0-----|-------0-------------2----
> ||-------------------------|------------------------|--------------------------
> ||--1---------3------------|---2----------0---------|---1----------0-----------
> 
> 
>     Gsus4         G
>     |             |
> |------------------------------||
> |--(1)--------0--(0)--------0--||
> |-------0-------------0--------*|
> |----------0------0------0-----*|
> |------------------------------||
> |---3--------------------------||
> 
> 
> 
> 
> 



Date: Mon, 11 Dec 1995 16:21:31 +0200
From: timbo@sci.fi (Timo Tattari)


Artist: Dire Straits
Composer / Writer : Mark Knopfler
Album: On The Night
Song: On Every Street
Transcriber: Timo Tattari (Timbo@sci.fi)

Guitar used: Schecter Strat Red, effects & amplifiers unknow, probably
             Soldano & Marshall

Tuning: Standard
Capo: None

Here's the outro riff for "On Every Street" on "On The Night":
(Few "chords" inspired by the Nir Gilboa tab)

-------------------------
----5--3-----------------
-2--4--2--0--2--4--5--4--       And repeat ad lib to fade...
-3--------2--0--3--5--5--
-------------------------
-1--3--1--0--2--3--3--3--

Comments to:

E-Mail: Timbo@sci.fi
WWW: http://www.sci.fi/~timbo/

====

From: Nir Gilboa <100414.3576@CompuServe.COM>

                  |----------------------------------|
Nice Song !!      |   Tablature for Dire Sraits's :  |
                  |       ON EVERY STREET            |
Corrected &       |----------------------------------|
Revised

(E)[---------------]  Play the three used strings
(B)[---------------]  Simultaneously.
(G)[----2----------]
(D)[------3--------]
(A)[---------------]
(E)[1--------------]

(E)[---------------]  Play the three used strings
(B)[--------5------]  Simultaneously.
(G)[-------4-------]
(D)[---------------]
(A)[---------------]
(E)[-----3---------]

(E)[---------------]  Play the three used strings
(B)[---------------]  Simultaneously.
(G)[------3--------]
(D)[----2----------]
(A)[---------------]
(E)[----2----------]

(E)[---------------]  Play the used string + (G) & (E)
(B)[---------------]  Simultaneously.
(G)[---------------]
(D)[----2----------]
(A)[---------------]
(E)[---------------]

(E)[---------------]  Play the three used strings
(B)[---------------]  Simultaneously.
(G)[----2----------]
(D)[------3--------]
(A)[---------------]
(E)[1--------------]

(E)[---------------]  Play the used strings + (E)
(B)[---------------]  Simultaneously.
(G)[-------4-------]
(D)[--------5------]
(A)[---------------]
(E)[---------------]

(E)[---------------]  Play the three used strings
(B)[---------------]  Simultaneously.
(G)[--------5------]
(D)[--------5------]
(A)[---------------]
(E)[-----3---------]

(E)[---------------]  Play the three used strings
(B)[--------5------]  Simultaneously.
(G)[-------4-------]
(D)[---------------]
(A)[---------------]
(E)[-----3---------]

& Repeat                        NICE SONG, Huh?

Written down by Nir Gilboa and Leeor Ben-Zeev.

*******************************************************
* Comments or Corrections: Please send !!  Nir Gilboa *
* 100414,3576 address in CompuServe                   *
* 100414,3576@Compuserve.com at Internet              *
*******************************************************

-- 
Nir Gilboa


Schecter / Timo Tattari - Timbo@sci.fi  | Snailmail:
FidoNet: 2:221/319 / 2:221/360          | Timo Tattari
WWW: http://www.sci.fi/~timbo/          | Parolantie 5 A 6
                                        | 13130 H:Linna
Dire Straits Guitar Picture WWW-page:   | Finland Europe
http://www.sci.fi/~timbo/dsguitar.html  |
                                        | Telephone: +358 - 17 - 6823827







