From sportiga@uoguelph.ca  Mon Nov  8 20:48:14 1993
Received: from herman.cs.uoguelph.ca by snowhite.cis.uoguelph.ca (5.64/1.35)
	id AA01190; Mon, 8 Nov 93 20:48:14 GMT
Message-Id: <9311082048.AA01190@snowhite.cis.uoguelph.ca>
Received: by herman.cs.uoguelph.ca
	(1.37.109.4/16.2) id AA05445; Mon, 8 Nov 93 11:44:44 -0500
Date: Mon, 8 Nov 93 11:44:44 -0500
From: Steve L Portigal <sportiga@uoguelph.ca>
To: sportiga@herman.cs.uoguelph.ca
Subject: (fwd) TAB: Bring It On Home (Led Zeppelin)
Newsgroups: alt.guitar.tab,rec.music.makers.guitar.tablature
Organization: Akbar and Jeff's Thesis Hut
Reply-To: stevep@snowhite.cis.uoguelph.ca
Status: OR

Path: nermal.cs.uoguelph.ca!torn!howland.reston.ans.net!sol.ctr.columbia.edu!news.mtu.edu!major.cs.mtu.edu!jfblank
From: jfblank@major.cs.mtu.edu (JEFFREY F. BLANK)
Newsgroups: alt.guitar.tab,rec.music.makers.guitar.tablature
Subject: TAB: Bring It On Home (Led Zeppelin)
Date: 6 Nov 1993 02:13:37 GMT
Organization: Michigan Tech Department of Computer Science
Lines: 167
Message-ID: <2bf18h$k8g@mtu.edu>
NNTP-Posting-Host: major.cs.mtu.edu
Xref: nermal.cs.uoguelph.ca alt.guitar.tab:14746 rec.music.makers.guitar.tablature:9312

This is the tab for Zep's cover of a Willie Dixon tune...enjoy!


"Bring It On Home" by Willie Dixon, as arranged by Led Zeppelin
~~~~~~~~~~~~~~~~~~~~~~~~~~~~~~~~~~~~~~~~~~~~~~~~~~~~~~~~~~~~~~~~

Intro: moderate blues tempo; two eighth notes are played like a quarter and an
       eighth under the little triplet bracket
  /3-\ /3-\ /3-\ /3-\
|---------------------|---------------------|
|---------------------|---------------------|
|---------------------|---------------------|   Repeat several hundred times
|---------------------|---------------------|
|-2--2-4--4-2-------2-|-2--2-4--4-2-------2-|
|-0--0-0--0-0--0-3h4--|-0--0-0--0-0--0-3h4--|

|---------------------|---------------------|
|---------------------|---------------------|
|---------------------|---------------------|   Repeat once
|-2--2-4--4-2-------2-|-2--2-4--4-2-------2-|
|-0--0-0--0-0--0-3h4--|-0--0-0--0-0--0-3h4--|
|---------------------|---------------------|

|---------------------|---------------------|
|---------------------|---------------------|
|---------------------|---------------------|   Repeat once
|---------------------|---------------------|
|-2--2-4--4-2-------2-|-2--2-4--4-2-------2-|
|-0--0-0--0-0--0-3h4--|-0--0-0--0-0--0-3h4--|

|---------------------|---------------------|
|---------------------|---------------------|
|---------------------|---------------------|
|---------------------|---------------------|
|-9--9-11-11-9-9-11-9-|-7--7-9--9-7--7-9--7-|
|-7--7-7--7--7-7-7--7-|-5--5-5--5-5--5-5--5-|

|---------------------|---------------------|
|---------------------|---------------------|
|---------------------|---------------------|
|---------------------|---------------------|
|-2--2-4--4-2-------2-|-2--2-4--4-2-------2-|
|-0--0-0--0-0--0-3h4--|-0--0-0--0-0--0-3h4--|

|---------------------|---------------------|
|---------------------|---------------------|
|---------------------|---------------------|
|---------------------|---------------------|
|-9--9-11-11-9-9-11-9-|-7--7-9--9-7--7-9--2-|
|-7--7-7--7--7-7-7--7-|-5--5-5--5-5--5-5--0-|

Now, it gets a bit slower, although it sounds faster because sixteenth notes
are now used....The eighth and sixteenth notes are now played evenly.

|--------------------------|--------------------------|
|--------------------------|--------------------------|
|-------------4--2p1-2p1---|-------------4--2p1-2-----|   Play four times
|-----0h2----------------2-|-----0h2------------------|
|-0h2----------------------|-0h2----------------------|
|---------0----------------|---------0----------------|
  ^^^
  Those are 16th notes


For the verses, it basically seems to go E7, A7, E7 (quarter notes).
  E7  A7  E7
|-0---0---0------------|
|-0---2---0------------|
|-1---0---1------------|
|-0---2---0------------|
|-2---0---2------------|
|-0-------0---3-0------|
              ^
              I usually bend that up a little...it's kind of a cool effect.

And in between verses (again)....

|--------------------------|--------------------------|
|--------------------------|--------------------------|
|-------------4--2p1-2p1---|-------------4--2p1-2-----|   Play four times
|-----0h2----------------2-|-----0h2------------------|
|-0h2----------------------|-0h2----------------------|
|---------0----------------|---------0----------------|


Then it slows down quite a bit (this is like the intro)....

|---------------------|---------------------|
|---------------------|---------------------|
|---------------------|---------------------|
|---------------------|---------------------|
|-9--9-11-11-9-9-11-9-|-7--7-9--9-7--7-9--7-|
|-7--7-7--7--7-7-7--7-|-5--5-5--5-5--5-5--5-|

|---------------------|-------------------|
|---------------------|-------------------|
|---------------------|-------------------|
|---------------------|-------------------|
|-2--2-4--4-2-------2-|-2--2-4--4-2-------|
|-0--0-0--0-0--0-3h4--|-0--0-0--0-0-4--5--|

|---------------------|--------------------|
|---------------------|--------------------|
|---------------------|--------------------|
|---------------------|--------------------|
|-9--9-11-11-9-9-11-9-|-7--7-9--9-7--7-9---|
|-7--7-7--7--7-7-7--7-|-5--5-5--5-5--5-5-0-|

  /-3--\  /--3---\  /--3---\         E7
|---12-------12--------12---------|---------------------|
|-9----9--10----10--11----11--12\-|---3-----------------|
|---------------------------------|---1-----------------|
|-9----9--10----10--11----11--12\-|---2-----------------|
|---------------------------------|---2-----------------|
|---------------------------------|-0-------------------|

Lyrics
~~~~~
Intro:
Ba-a-a-a-aby,
Ba-a-a-a-aby,
Gonna bring it on home to you.
I've got my ticket, I've got that load.
Got up, gone higher, all aboard.
Take my seat, right way back.
Ooh, yeah,
Watch this train roll down the track.
Gonna bring it on home,
Bring it on home to you.
Watch out, watch out.

Verses:
Try to tell you, baby,
What you tryin' to do?
Tryin' to love me, baby,
Love some other man, too.
Bring it on home,
Bring it on home.

Went a little walk downtown,
Messed and got back late.
Found a little note there waitin'.
It said, "Daddy, I just can't wait."
Bring it on home,
Bring it back home,
Bring it on home,
Bring it back home to me, baby.

Tell you, pretty baby,
Love to mess me 'roun'.
I'm gonna give you lovin', baby,
Gonna move you out of town.
Bring it on home,
Bring it on home.

Sweetest little thing
Daddy ever saw.
I'm gonna give you lovin', baby,
I'm gonna give you more.
Bring it on home,
Bring it on home,
Bring it on home,
Oh, yeah.

Outro:
Bring it on home,
Bring it on home to you.

--
+----------------------------------------------------------------------------+
|  Steve Portigal, Dep't of CIS, University of Guelph, Guelph, ON, N1G 2W1   |
|  email: stevep@snowhite.cis.uoguelph.ca    Phone: (519) 824-4120 ext 3580  |
| ~~~~~~~~ ask me about 'undercover' the Rolling Stones mailing list ~~~~~~~ |
|           I never sought perfection, I loved her for her flaws..           |
+----------------------------------------------------------------------------+

From sportiga@uoguelph.ca  Wed Nov 10 14:16:39 1993
Received: from herman.cs.uoguelph.ca by snowhite.cis.uoguelph.ca (5.64/1.35)
	id AA17891; Wed, 10 Nov 93 14:16:39 GMT
Message-Id: <9311101416.AA17891@snowhite.cis.uoguelph.ca>
Received: by herman.cs.uoguelph.ca
	(1.37.109.4/16.2) id AA26249; Wed, 10 Nov 93 09:16:27 -0500
Received: from herman with uucp; Wed, 10 Nov 93 09:15 EST
Received: by herman.cs.uoguelph.ca
	(1.37.109.4/16.2) id AA26159; Wed, 10 Nov 93 09:15:50 -0500
Date: Wed, 10 Nov 93 09:15:50 -0500
From: Steve L Portigal <sportiga@uoguelph.ca>
To: sportiga@herman.cs.uoguelph.ca
Subject: (fwd) Re: REQ: Bring It On Home / Out On The Tiles
Newsgroups: alt.guitar.tab,rec.music.makers.guitar.tablature
Status: O

Organization: Akbar and Jeff's Thesis Hut
Reply-To: stevep@snowhite.cis.uoguelph.ca

Newsgroups: alt.guitar.tab,rec.music.makers.guitar.tablature
Path: nermal.cs.uoguelph.ca!torn!howland.reston.ans.net!europa.eng.gtefsd.com!uunet!puc.cl!mmelero
From: mmelero@vallenar.ing.puc.cl (Marcelo Melero(TTA))
Subject: Re: REQ: Bring It On Home / Out On The Tiles
Message-ID: <1993Nov10.135736.6028@tolten.puc.cl>
Followup-To: alt.guitar.tab,rec.music.makers.guitar.tablature
Sender: news@tolten.puc.cl (News Manager)
Nntp-Posting-Host: ranco.ing.puc.cl
Organization: Pontificia Universidad Catolica de Chile
X-Newsreader: TIN [version 1.1 PL8]
References: <1993Nov4.233232.3659@newstand.syr.edu>
Date: Wed, 10 Nov 1993 13:57:36 GMT
Lines: 79
Xref: nermal.cs.uoguelph.ca alt.guitar.tab:14905 rec.music.makers.guitar.tablature:9476

David Kim (davidkim@erc.cat.syr.edu) wrote:
: Looking for tab for Bring It On Home and/or Out On The Tiles, both by Led
: Zeppelin.  Thanks

: Dave


    Here's my version of Bring it on Home, by Led Zeppelin (sorry, no chorus, 
    just the beginning):

    e---------------------------|
    B---------------------------|
    G---------------------------|
    D---------------------------|	x 4
    A--2-2---4-4---2-2-------2--|
    E--0-0---0-0---0-0---2-3----|



    e---------------------------|
    B---------------------------|
    G---------------------------|
    D--2-2---4-4---2-2-------2--|	x 4
    A--0-0---0-0---0-0---2-3----|
    E---------------------------|



    e---------------------------|
    B---------------------------|
    G---------------------------|
    D---------------------------|	x 2
    A--2-2---4-4---2-2-------2--|
    E--0-0---0-0---0-0---2-3----|
    

    e---------------------------|
    B---------------------------|
    G---------------------------|
    D--4-4---6-6---4-4---6-4----|
    A--2-2---2-2---2-2---2-2----|
    E---------------------------|
    
    
    e---------------------------|
    B---------------------------|
    G---------------------------|
    D--2-2---4-4---2-2---4-2----|
    A--0-0---0-0---0-0---0-0----|
    E---------------------------|
    
    
    e---------------------------|
    B---------------------------|
    G---------------------------|
    D---------------------------|	x 4
    A--2-2---4-4---2-2-------2--|
    E--0-0---0-0---0-0---2-3----|
    
        
I'm Not sure about the x4, x2, etc. (I don't have the song with me right now).

e------------------------------------|--------------------------------------
B------------------------------------|--------------------------------------
G------------------------------------|--------------------------------------
D------------------5(7)-5----5-------|--------------5(7)-5---5--------------
A-------5-7----------------7---7-5---|--------5-7----------7----------------
E--5-7------0------------------------|---5-7------0-------------------------



That's all I know. Could anyone post the rest of it?
Correctios are wellcome.


--------------------------------------------------------------------------
Marcelo Melero G.		"Me gusta el vino porque el vino es bueno"
mmelero@ranco.ing.puc.cl				   Tito Fernandez
--------------------------------------------------------------------------	

--
+----------------------------------------------------------------------------+
|  Steve Portigal, Dep't of CIS, University of Guelph, Guelph, ON, N1G 2W1   |
|  email: stevep@snowhite.cis.uoguelph.ca    Phone: (519) 824-4120 ext 3580  |
| ~~~~~~~~ ask me about 'undercover' the Rolling Stones mailing list ~~~~~~~ |
|      He's big, he's purple, he's your best friend.................         |
+----------------------------------------------------------------------------+



From sportiga@uoguelph.ca  Fri Nov 12 16:22:53 1993
Received: from herman.cs.uoguelph.ca by snowhite.cis.uoguelph.ca (5.64/1.35)
	id AA04654; Fri, 12 Nov 93 16:22:53 GMT
Message-Id: <9311121622.AA04654@snowhite.cis.uoguelph.ca>
Received: by herman.cs.uoguelph.ca
	(1.37.109.4/16.2) id AA18693; Fri, 12 Nov 93 11:23:44 -0500
Date: Fri, 12 Nov 93 11:23:44 -0500
From: Steve L Portigal <sportiga@uoguelph.ca>
To: stevep@snowhite.cis.uoguelph.ca
Subject: (fwd) Re: REQ: Bring It On Home / Out On The Tiles
Newsgroups: alt.guitar.tab,rec.music.makers.guitar.tablature
Organization: Akbar and Jeff's Thesis Hut
Reply-To: stevep@snowhite.cis.uoguelph.ca
Status: O

Newsgroups: alt.guitar.tab,rec.music.makers.guitar.tablature
Path: nermal.cs.uoguelph.ca!torn!spool.mu.edu!howland.reston.ans.net!europa.eng.gtefsd.com!uunet!puc.cl!mmelero
From: mmelero@vallenar.ing.puc.cl (Marcelo Melero(TTA))
Subject: Re: REQ: Bring It On Home / Out On The Tiles
Message-ID: <1993Nov12.153113.8353@tolten.puc.cl>
Sender: news@tolten.puc.cl (News Manager)
Nntp-Posting-Host: ranco.ing.puc.cl
Organization: Pontificia Universidad Catolica de Chile
X-Newsreader: TIN [version 1.1 PL8]
References: <1993Nov10.135736.6028@tolten.puc.cl>
Date: Fri, 12 Nov 1993 15:31:13 GMT
Lines: 34
Xref: nermal.cs.uoguelph.ca alt.guitar.tab:15079 rec.music.makers.guitar.tablature:9594

Marcelo Melero(TTA) (mmelero@vallenar.ing.puc.cl) wrote:
: David Kim (davidkim@erc.cat.syr.edu) wrote:
: : Looking for tab for Bring It On Home and/or Out On The Tiles, both by Led
: : Zeppelin.  Thanks

: : Dave


:     Here's my version of Bring it on Home, by Led Zeppelin (sorry, no chorus, 
:     just the beginning):

: e------------------------------------|--------------------------------------
: B------------------------------------|--------------------------------------
: G------------------------------------|--------------------------------------
: D------------------5(7)-5----5-------|--------------5(7)-5---5--------------
: A-------5-7----------------7---7-5---|--------5-7----------7----------------
: E--5-7------0------------------------|---5-7------0-------------------------

OOPS!
I arrived home, took the guitar, played this and... yuck!!

Here's how it goes.

e------------------------------------|--------------------------------------
B------------------------------------|--------------------------------------
G------------------------------------|--------------------------------------
D------------------5(7)-5--4-5-4-----|--------------5(7)-5-4-5--------------
A-------5-7----------------------5---|--------5-7---------------------------
E--5-7------0------------------------|---5-7------0-------------------------

-------------------------------------------------------------------------------
 Marcelo Melero			"Me gusta el vino porque el vino es bueno"
 mmelero@ranco.ing.puc.cl				-- Tito Fernandez
-------------------------------------------------------------------------------

--
+----------------------------------------------------------------------------+
|  Steve Portigal, Dep't of CIS, University of Guelph, Guelph, ON, N1G 2W1   |
|  email: stevep@snowhite.cis.uoguelph.ca    Phone: (519) 824-4120 ext 3580  |
|  Remove Jamesb@nevada.edu as the "official" guitar tablature archivist!    |
 
|      He's big, he's purple, he's your best friend.................         |
+----------------------------------------------------------------------------+

From sportiga@uoguelph.ca  Wed Nov 17 23:47:01 1993
Received: from herman.cs.uoguelph.ca by snowhite.cis.uoguelph.ca (5.64/1.35)
	id AA09474; Wed, 17 Nov 93 23:47:01 GMT
Message-Id: <9311172347.AA09474@snowhite.cis.uoguelph.ca>
Received: by herman.cs.uoguelph.ca
	(1.37.109.4/16.2) id AA15740; Wed, 17 Nov 93 18:49:27 -0500
Date: Wed, 17 Nov 93 18:49:27 -0500
From: Steve L Portigal <sportiga@uoguelph.ca>
To: sportiga@herman.cs.uoguelph.ca
Subject: (fwd) Re: REQ: Bring It On Home / Out On The Tiles
Newsgroups: alt.guitar.tab,rec.music.makers.guitar.tablature
Organization: Akbar and Jeff's Thesis Hut
Reply-To: stevep@snowhite.cis.uoguelph.ca
Status: OR

Path: nermal.cs.uoguelph.ca!torn!howland.reston.ans.net!europa.eng.gtefsd.com!uunet!psinntp!tfd!tfd!not-for-mail
From: bret@tfd.com (Bret D Weinraub)
Newsgroups: alt.guitar.tab,rec.music.makers.guitar.tablature
Subject: Re: REQ: Bring It On Home / Out On The Tiles
Date: 17 Nov 1993 14:08:53 -0500
Organization: Twenty-First Designs, Inc., Washington
Lines: 26
Message-ID: <2cdss5INN15e@snow-white.tfd.com>
References: <1993Nov10.135736.6028@tolten.puc.cl> <1993Nov12.153113.8353@tolten.puc.cl> <1993Nov13.052209.23534@usl.edu>
NNTP-Posting-Host: snow-white.tfd.com
Xref: nermal.cs.uoguelph.ca alt.guitar.tab:15444 rec.music.makers.guitar.tablature:9848

In article <1993Nov13.052209.23534@usl.edu> tjk1846@ucs.usl.edu (Kim Timothy J) writes:
>I haven't listened to it in a while, but I saw Pagey playing near the bridge.
>I though it was something like this
>
>E-----------------------------------------------------------------------------
>B------------------------------------------------------------------------------
>G-------------------2~4--2-1-2-1-----------------------------2~4--2-1-2-------
>D-------0--h2--------------------2---------------0--h2-------------------------
>A-0--h2----------------------------------0--h2---------------------------------
>E--------------0---------------------------------------0-----------------------
>

This is the way to play this, because it leaves you in good shape to play the
chords, which are

----2--0-----------2--0-------------|
----2--0-----------2--0------------*|
----2--0-----------2--0-------------|
----2--0--0-h2-----2--0--0-f2-p2---*|
------------------------------------|
-0--------------0-------------------|
   ^  ^	 ^     	  ^  ^  ^            
   |  |	 |     	  |  | 	|
   Double Rake 	       

Get funky with it!!!!!!!

--
+----------------------------------------------------------------------------+
|  Steve Portigal, Dep't of CIS, University of Guelph, Guelph, ON, N1G 2W1   |
|  email: stevep@snowhite.cis.uoguelph.ca    Phone: (519) 824-4120 ext 3580  |
|  Remove Jamesb@nevada.edu as the "official" guitar tablature archivist!    |
|  No I, ain't wasting time no more, cause time blows by like a hurricane    |
+----------------------------------------------------------------------------+

