[two versions]

From: Andrew Gray <psu00453@odin.cc.pdx.edu>

Bron-Yr-Aur - Led Zeppelin 1975            tabbed by Andrew M. Gray
Open C6 tuning (CACGCE) low to high        psu00453@odin.cc.pdx.edu

|-----------0------------------------0------------------------0-|
|--------0--------------0---------0--------------0---------0----|
|-----0--------------0---------0--------------0---------0-------|
|-----------------0------------------------0--------------------|
|-/3-----------------------/3-----------------------/3----------|
|--------------0------------------------0-----------------------|


|-----------------------0------------------------0--------------|
|----------0---------0--------------0---------0--------------0--|
|-------0---------0--------------0---------0--------------0-----|
|----0------------------------0------------------------0--------|
|-------------/3-----------------------/3-----------------------|
|-0------------------------0------------------------0-----------|

                                     p
|-----------0-----------------------3-0-------------------------|
|--------0--------------0--2-------------2-----0-----------0----|
|-----0--------------0--------0-------------0-----------0-------|
|-----------------0--------------2-------2-----------0----------|
|-/3-----------------------2----------2-----------3-------------|
|--------------0----------------------------------------0-----0-|


|----------------0-----------0----------------------------------|
|-------5--------------------0-----------0-----------2----------|
|----0-----4-----------4-----0--------0-----------------0-------|
|-0-----------0-----------0--------0-----------0-----------2----|
|-------5-----------5-----------3--------------------2----------|
|-------------------------------------0-----0-----0-------------|

   p
|-3-0-----------------------------------------0-----------------|
|------2-----------------0-----------5--------------------0-----|
|---------0-----------0-----------0-----4-----------4-----------|
|---------------0--------------0-----------0-----------0--------|
|---2--------3-----3-----------------5-----------5-----------3--|
|---------------------0-----0-----------------------------------|


|----------------------------------------0----------------------|
|-------0--------------------0--------------0-------0-----------|
|----0--------------0-----------------0----------0-----------0--|
|-0-----------0--------0-----------0----------------------0-----|
|-------------------------0-----0-----------0/3-----------------|
|----0-----0-----0--5-----------------0----------------0--------|

                                                        p
|----------------------0-------------------------------3-0------|
|----------0--------------0-------0-----------2-------------2---|
|-0-----------------0----------0-----------0-----0--------------|
|----0-----------0----------------------0-----------2-------2---|
|-------0-----0-----------0/3-----------------2----------2------|
|-5-----------------0----------------0--------------------------|


|-------------------------------------0-----------0-------------|
|----0-----------0-----------5--------------------0-----------0-|
|-0-----------0-----------0-----4-----------4-----0--------0----|
|----------0-----------0-----------0-----------0--------0-------|
|-------3--------------------5-----------5-----------3----------|
|-------------0-----0--------------------------------------0----|


|---------------------------------------------------------------|
|--------------------0-----------2-----------4-----------0------|
|-------0---------0-----------0-----------4-----------0---------|
|----0---------0-----------2-----------4-----------4------------|
|----------/3-----------2-----------0-----------0-----------/3--|
|-0-------------------------------------------------------------|


|---------------------------------------------------------------|
|-------0-----------2-----------4-----------0------------0------|
|----0-----------0-----------4-----------0------------0---------|
|-0-----------2-----------4-----------4------------0------------|
|----------2-----------0-----------0-----------/3-----------2---|
|---------------------------------------------------------------|


|--------------------h-p----------h-p---------------------------|
|-------2/4---------4-5-4--------4-5-4--------4-----------5-----|
|----0-----------4------------4------------4-----------4--------|
|-2-----------4------------4------------4-----------4-----------|
|----------0------------0------------0-----------0--------------|
|---------------------------------------------------------------|


|---------------------------------------------------------------|
|----------4-----------4/5--------5--7--------0-------------0---|
|-------4-----------4----------5-----------7-------------0------|
|----4-----------4----------5-----------7-------------0---------|
|-0-----------0----------------------------------0/3------------|
|------------------------5---------5/7-----7--------------------|


|---------------------------------------------------------------|
|----------0-------------5--7--------0-------------0------------|
|-------0-------------5-----------7-------------0-----------0---|
|----0-------------5-----------7-------------0-----------0------|
|---------------------------------------0/3---------------------|
|-0-----------2/5---------5/7-----7-------------------0---------|


|---------------------------------------------------------------|
|-0-----------5--7--------0-------------0-----------0-----------|
|----------5-----------7-------------0-----------0-----------5--|
|-------5-----------7-------------0-----------0-----------5-----|
|----------------------------0/3--------------------------------|
|----5---------5/7-----7-------------------0-----------5--------|

                                                  p
|------------------------------------------------3-0------------|
|-5--7--------0-------------0-----------2-------------2-----0---|
|----------7-------------0-----------0-----0-------------0------|
|-------7-------------0-----------0-----------2-------2---------|
|----------------0/3--------------------2----------2------------|
|--5/7-----7-------------------0--------------------------------|


|-------------------------------0-----------0-------------------|
|----------0-----------5--------------------0-----------0-------|
|-------0-----------0-----4-----------4-----0--------0----------|
|----0-----------0-----------0-----------0--------0-----------0-|
|-3--------------------5-----------5-----------3----------------|
|-------0-----0--------------------------------------0-----0----|

               p
|-------------3-0------------------------------------------0----|
|----2-------------2------------------0-----------5-------------|
|-0-----0-------------0------------0-----------0-----4----------|
|----------2-----------------0--------------0-----------0-------|
|----2----------2---------3-----3-----------------5-----------5-|
|----------------------------------0-----0----------------------|


|-------0--------------------------------------------0----------|
|-------0-----------0--------------------0--------------0-------|
|-4-----0--------0--------------0-----------------0----------0--|
|----0--------0-----------0--------0-----------0----------------|
|----------3--------------------------0-----0-----------0/3-----|
|----------------0-----0-----0--5-----------------0-------------|


|----------------------------------0----------------------------|
|-0--------------------0--------------0-------0-----------2-----|
|----------0--0-----------------0----------0-----------0-----0--|
|-------0--------0-----------0----------------------0-----------|
|-------------------0-----0-----------0/3-----------------2-----|
|----0--------5-----------------0----------------0--------------|

      p
|----3-0-----------------------------------------0-----------0--|
|---------2-----0-----------0-----------5--------------------0--|
|------------0-----------0-----------0-----4-----------4-----0--|
|-2-------2-----------0-----------0-----------0-----------0-----|
|------2-----------3--------------------5-----------5-----------|
|------------------------0-----0--------------------------------|


|--------------------------------------------------------h-p----|
|----------0--------------------0-----------2/4---------4-5-4---|
|-------0-----------0--------0-----------0-----------4----------|
|----0-----------0--------0-----------2-----------4-------------|
|-3--------------------3-----------2-----------0----------------|
|-------0-----0-------------------------------------------------|


|------------------------------------------------h-p------------|
|----------0------------0-----------2/4---------4-5-4--------0--|
|-------4------------0-----------0-----------4------------4-----|
|----4------------0-----------2-----------4------------4--------|
|-0-----------/3-----------2-----------0------------0-----------|
|---------------------------------------------------------------|


|------------------------------------h-p------------------------|
|-----------0-----------2/4---------4-5-4-----4-----------5-----|
|--------0-----------0-----------4---------------------4--------|
|-----0-----------2-----------4------------4--------4-----------|
|-/3-----------2-----------0------------0--------0-----------0--|
|---------------------------------------------------------------|


|---------------------------------------------------------------|
|-------4-----------5-----------4/5--------5----------0---------|
|----4-----------4-----------4----------5----------7------------|
|-4-----------4-----------4----------5----------7-----------0---|
|----------0-----------0-------------------------------0/3------|
|---------------------------------5---------5/7-----------------|


|---------------------------------------------------------------|
|----0-----------0-------------5-/7-----0-----------0-----------|
|-0-----------0-------------5--------7-----------0-----------0--|
|----------0-------------5--------------------0-----------0-----|
|----------------------------------------0/3--------------------|
|-------0-----------2/5---------5/7--------------------0--------|


|---------------------------------------------------------------|
|-0-------------5-/7-----0-----------0-----------0--------------|
|------------5--------7-----------0-----------0-------------5---|
|---------5--------------------0-----------0-------------5------|
|-------------------------0/3-----------------------------------|
|----2/5---------5/7--------------------0-----------2/5---------|



|---------------------------------------------------------------|
|-5-/7--7--------------4-----------5-----------4-----------5----|
|----------7--------4-----------4-----------4-----------4-------|
|----------------4-----------4-----------4-----------4----------|
|-------------0-----------0-----------0-----------0-----------0-|
|--5/7----------------------------------------------------------|


|---------------------------------------------------------------|
|-------4-----------5-----------4-----------4-----------0-------|
|----4-----------4-----------4-----------4-----------0--------5-|
|-4-----------4-----------4-----------4-----------5--------7----|
|----------0-----------0-----------0-----------7----------------|
|---------------------------------------------------------------|

        slower..
|----0-----------0-----------0-----------0-----------0----------|
|-0-----------5-----------5-----------5-----------5-----------5-|
|----------7-----------7-----------7-----------7-----------7----|
|-------0-----------0-----------0-----------7-----------0-------|
|---------------------------------------------------------------|
|---------------------------------------------------------------|

                 C - let ring
|-0-----------0--X-----------|
|----------5-----0-----------|
|-------7--------0-----------|
|----7-----------0-----------|
|----------------3-----------|
|----------------0-----------|




From: m1dupuye@lei336.lei.u-psud.fr (Eric.Dupuy)

*****************************   BRON-YR-AUR   **********************************
JIMMY PAGE 

 ->    ...  pick-slide
 //    ...  hammer-on
 \\    ...  pull-off

(e)-->e
(b)-->up to c
(g)-->g
(D)-->down to C
(A)-->A
(E)-->down to C

-------------------------------------------------------------0----------
-------------0-----------------------0----------------------------------
-------0-----------0-----------0-----------0-----------0-----------0----
----------0-----------0-----------0-----------0-----------0-----------0-
-0->3--------------------0->3--------------------0->3-------------------
----------------0-----------------------0-----------------------0-------

-------------0-----------------------0-----------------------0----------
------------------------------------------------------------------------
-------0-----------0-----------0-----------0-----------0-----------0----
----------0-----------0-----------0-----------0-----------0-----------0-
-0->3--------------------0->3--------------------0->3-------------------
----------------0-----------------------0-----------------------0-------

-------------0-----------
-------------------------
-------0-----------0-----
----------0-----------0--
-0->3--------------------
----------------0--------

begin 1:
----------3\\0----------------------------------
-2--------------2-----0--------------0----------
----0--------------------------0-----------0----
-------2-----------2--------------0-----------0-
-2-----------2-----------0->3-------------------
----------------------------------------0-------

-1--------0-----------------------------------------------3\\0----------
----------------------0--------------0-----------2--------------2-----0-
----0-----------0--------------0-----------0--------0-------------------
-------2-----------2--------------0-----------0--------2-----------2----
-2-----------2-----------0->3--------------------2-----------2----------
----------------------------------------0-------------------------------

-------------------------1--------0-------------------------------------
-------------0--------------------------------0--------------0----------
-------0-----------0--------0-----------0--------------0-----------0----
----------0-----------0--------2-----------2--------------0-----------0-
-0->3--------------------2-----------2-----------0->3-------------------
----------------0-----------------------------------------------0-------

-------------------------0-------------------------
----------0-----------------------------0----------
-------0-----------0--------------0-----------0----
----0-----------------0--------------0-----------0-
----------------------------0->3-------------------
-5-----------5->9--------------------------0-------

-------------------------0-------------------------
----------0-----------------------------0----------
-------0-----------0--------------0-----------0----
----0-----------------0--------------0-----------0-
----------------------------0->3-------------------
-5-----------5->9--------------------------0-------

----------3\\0-----------------------------------1--------0-------------
-2--------------2-----0--------------0--------------------------------0-
----0--------------------------0-----------0--------0-----------0-------
-------2-----------2--------------0-----------0--------2-----------2----
-2-----------2-----------0->3--------------------2-----------2----------
----------------------------------------0-------------------------------

--------------------------------------------------------
-------------0---------------------------0-----------2--
-------0-----------0------------------0-----------0-----
----------0-----------0------------0-----------2--------
-0->3------------------------0->3-----------2-----------
----------------0---------------------------------------

--------------------------------------------------------
----------3>4//5--4--------0--------------0-----------2-
-------3->4----------4-----------------0-----------0----
----3->4----------------4-----------0-----------2-------
-0----------------0-----------0->3-----------2----------
--------------------------------------------------------

--------------------------------------------------------
----------3>4-----------0--------------0-----------2----
-------3->4----------4--------------0-----------0-------
----3->4----------4--------------0-----------2----------
-0-------------0-----------0->3-----------2-------------
--------------------------------------------------------

---------------------------------------------------------------------
----------3>4//5--4--------4//5--4--------4-----------5----------4---
-------3->4----------4--------------4-----------4-----------4--------
----3->4----------------4--------------4-----------4-----------4-----
-0----------------0--------------0-----------0-----------0-----------
---------------------------------------------------------------------

-------------------------- ----------------------------]
-4->5--------5--5->7------ --0--------------0----------]
-------5--------------7--- -----------0-----------0----]repeat four times
----------5--------------7 --------------0-----------0-]
-4->5-----------5->7------ -----0->3-------------------]
----------------5->7------ --------------------0-------]
end :1 

[repeat 1 but stop at the space (not at ])

-------------------------------------------------------------
----------4-----------5-----------4-----------5-----------4--
-------4-----------4-----------4-----------4-----------4-----
----4-----------4-----------4-----------4-----------4--------
-0-----------0-----------0-----------0-----------0-----------
-------------------------------------------------------------

-------------------------0-----------0-----------0-----------0-----------0-
----------0-----------0-----------5-----------5-----------5-----------5----
-------4-----------5-----------7-----------7-----------7-----------7-------
----4-----------7-----------0-----------7-----------0-----------7----------
-2-------------------------------------------------------------------------
-------------0-------------------------------------------------------------

----------0-----------0------0-
-------5-----------5--------0--
----7-----------7----------0---
-0-----------7------------0----
-------------------------3-----
------------------------0------
transcription by eric dupuy.


