Received: from animal-farm.nevada.edu by redrock.nevada.edu (5.65c/M1.4)
	with SMTP id <AA17476>; Mon, 28 Jun 1993 18:41:10 -0700
Received: from post1.INRE.ASU.EDU by animal-farm.nevada.edu id <AA06250@animal-farm.nevada.edu>; Mon, 28 Jun 1993 18:41:08 -0700
Received: from ASUVM.INRE.ASU.EDU (MAILER@ASUACAD) by asu.edu (PMDF V4.2-12
 #2382) id <01GZX71OU59S8ZDVKJ@asu.edu>; Mon, 28 Jun 1993 18:41:04 MST
Received: from ASUACAD (AUDSM) by ASUVM.INRE.ASU.EDU (Mailer R2.10 ptf000) with
 BSMTP id 4588; Mon, 28 Jun 93 18:42:43 MST
Date: Mon, 28 Jun 1993 18:42:20 -0700 (MST)
From: Paul Zimmerman <AUDSM@asuvm.inre.asu.edu>
Subject: TAB: Tea For One - Zeppelin
To: jamesb@animal-farm.nevada.edu
Message-Id: <01GZX71OU59U8ZDVKJ@asu.edu>
Content-Transfer-Encoding: 7BIT


Tea For One ---- 3/4 blues in Cm


8 bars of Cm
8 bars of Fm
8 bars of Cm
4 bars of Gm (first bar is actually 2 beats of Fm and one beat of Gm)
2 bars of Fm
2 bars of Bb
back to Cm

--3----1----3----6--------
--4----1----3----6--------
--5----1----3----7--------
--5----3----5----8--------
--3----3----5----8--------
-------1----3----6--------
  Cm   Fm   Gm   Bb


------------------------------
-------6--(4)-----------------
------------------------------
---5s7---7s5------------------
------------------------------
------------------------------
riff played over Cm every so often
...let notes ring (that F has to go back down to Eb)

------------------------------
------------------------------
------3--(1)------------------
------------------------------
--3s5---5s3-------------------
------------------------------
same riff played over Fm


---6--8--10--10--8h10p8-------
------------------------------
---7--8--10--10--8h10p8-------
------------------------------
------------------------------
------------------------------
   Bb        Cm
riff played at the end of each verse



Every so often a verse is played like this:
---------------------------------------
---------------------------------------
--3--5-----3--5----3--5----------------
--3--5-----3--5----------3--5----------  Play twice
--1--3-----1--3----------------6-------
---------------------------------------


---------------------------------------
---------------------------------------
--8--10----8--10---3--5----------------  Play once, then the above bit
--8--10----8--10---------3--5----------
--6---8----6---8---------------6-------
---------------------------------------


---------------4-------4--------------6-----6--8--10--10--8h10p8--
-------------6---6-------6----------6---6-------------------------
-----------5-------5-------5------7---------7--8--10--10--8h10p8--
--3--5---3-----------3-------3--8---------------------------------
--3--5------------------------------------------------------------
--1--3------------------------------------------------------------
         This is an arpeggio bit            This is the familiar riff ...
         similar to what Pagey
         plays each time through



Thanks to the original poster.

Peace,
Paul Z
