#----------------------------------PLEASE NOTE---------------------------------#
#This file is the author's own work and represents their interpretation of the #
#song. You may only use this file for private study, scholarship, or research. #
#------------------------------------------------------------------------------##
Yngwie Malmsteen Lesson

These are a bunch of licks and scales that he liked to use.  Especially
on his first two albums.  Fortunately, since then he's branched out,
incorporating modes, and other things like chromatic runs and more major
sounding scales.  But this will give you an idea of where he started
when he did his first two solo albums.  If you listen to Rising Force or
Marching Out, then listen to Fire and Ice or 7th Sign, you can hear a big
difference in his playing.  Less of the dark minor songs, listen
to Leviathan off of Fire and Ice, very major sounding, now if he can only
do the same with his lyrics....:)  Just kidding!

Judy Letostak letostak@ix.netcom.com


B minor scale Aeolian Mode


|-----------------------------------------12--14--15--14--12---------------
|-----------------------------12--14--15----------------------15--14--12---
|-----------------11--12--14-----------------------------------------------
|-----11--12--14-----------------------------------------------------------
|-14-----------------------------------------------------------------------
|--------------------------------------------------------------------------


----------------------------------||
----------------------------------||
--14--12-11-----------------------||
-------------14--12--11-----------||
-------------------------14-------||
----------------------------------||


B minor scale 12th position

|-----------------------------------14-15-17--||
|-------------------------14-15-17------------||
|----------------12-14-16---------------------||
|-------12-14-16------------------------------||
|-14-16---------------------------------------||
|---------------------------------------------||


Shifting into adjoining scale position:  11th to 12th position

|--------------------------------12/14~--|--------------------------------|
|-----------------------12-14-15---------|----------------------12/14~----|
|--------------11-12-14------------------|-------------11-12-14-----------|
|----11-12-14----------------------------|----11-12-14--------------------|
|-14-------------------------------------|-14-----------------------------|
|----------------------------------------|--------------------------------|


|------------------------|------------------------------------------------|
|------------------------|------------------------------------------------|
|--------------11/12~----|----------------11/12~--------------------------|
|----11-12-14------------|----11-12-14-12---------------------------------|
|-14---------------------|-14---------------------------------------------|
|------------------------|------------------------------------------------|


Mini Etudes    Ostinatos

||17-14-16-17-16-14----||--------------------------------------------------
||---------------------||--------------------------------------------------
||---------------------||--repeat------------------------------------------
||---------------------||--------------------------------------------------
||---------------------||--------------------------------------------------
||---------------------||--------------------------------------------------


||-17-14-16-17-16-14-|-21-14-16-17-16-14--20-14-16-17-16-14-||-------------
||-------------------|--------------------------------------||-------------
||-------------------|--------------------------------------||repeat-------
||-------------------|--------------------------------------||-------------
||-------------------|--------------------------------------||-------------
||-------------------|--------------------------------------||-------------


||-------------------------------14-16b(18)-rb16--14-16--14-16-17-16-14--||
||----------------------14-16-17-----------------------------------------||
||-------------13-14-16--------------------------------------------------||
||----13-14-16-----------------------------------------------------------||
||-16--------------------------------------------------------------------||
||-----------------------------------------------------------------------||


||-21-14-16-17-16-14--21-14-16-17-16-14--17b(19)-rb17--16-14-13-16b(18)--||
||-----------------------------------------------------------------------||
||-----------------------------------------------------------------------||
||-----------------------------------------------------------------------||
||-----------------------------------------------------------------------||
||-----------------------------------------------------------------------||


Pedal Points (Pedal Tones)

||19-21-17-21-16-21----21---------------------||
||------------------19-----18-19-21-18-19~----||
||--------------------------------------------||
||--------------------------------------------||
||--------------------------------------------||
||--------------------------------------------||


||-16-17-14-17--12-17-11-17--------------------||
||---------------------------14-16-17-14--16~--||
||---------------------------------------------||
||---------------------------------------------||
||---------------------------------------------||
||---------------------------------------------||


||--16-17-14-17-12-17----17----17----------12-16p12--------------------------|
||--------------------16----14----13-14-16----------14----14-----------------|
||-----------------------------------------------------13----11b(12)rb11p9-8~|
||---------------------------------------------------------------------------|
||---------------------------------------------------------------------------|
||---------------------------------------------------------------------------|


||-15p12h15----15----15----15----------12-14-15p14-12-14p12----------------||
||----------14----12----11----12-14-15----------------------15-14-12-15/19~||
||-------------------------------------------------------------------------||
||-------------------------------------------------------------------------||
||-------------------------------------------------------------------------||
||-------------------------------------------------------------------------||


Sequences

||14p12p10--------------------------------------------------||
||---------14p12p10-14p12p10---------12p11p10---------------||
||---------------------------12p11p9----------12p11p9--11~--||
||----------------------------------------------------------||
||----------------------------------------------------------||
||----------------------------------------------------------||


||----------------------------------------19-16-17-19-17-16--19-16-17-19-17
||-18-15-17-18-17-15---18-15-17-18-17-15-----------------------------------
||-------------------------------------------------------------------------
||-------------------------------------------------------------------------
||-------------------------------------------------------------------------
||-------------------------------------------------------------------------


--16--------------------19-16-17-19-17-16-20-16-17-19-17-16--20b(21)rb-19~||
------18-15-17-18-17-15---------------------------------------------------||
--------------------------------------------------------------------------||
--------------------------------------------------------------------------||
--------------------------------------------------------------------------||
--------------------------------------------------------------------------||


Modulating Sequence

||-----------------------------------------------------------------------||
||-----------------------------------------------------------------------||
||9-12-11-9-8-11-9-8-11-14-12-11-12-16-14-12-11-14-12-11-9-12-11-8-9~~---||
||-----------------------------------------------------------------------||
||-----------------------------------------------------------------------||
||-----------------------------------------------------------------------||


||-------------------------------------------------------------------------
||---------15-15-15---------15---------15-------------------12-13-15-12-13-
||-17b(18)----------17b(18)----17b(18)----17-16-14-14-13-14----------------
||-------------------------------------------------------------------------
||-------------------------------------------------------------------------
||-------------------------------------------------------------------------


-----12-------12--|--13----12-13-15-12-13-15-17-13-15-17-19-15-17-19b(21)--
--15----13-15-----|-----15-------------------------------------------------
------------------|--------------------------------------------------------
------------------|--------------------------------------------------------
------------------|--------------------------------------------------------
------------------|--------------------------------------------------------


--rb(19)p17-19~~~~---||
---------------------||
---------------------||
---------------------||
---------------------||
---------------------||


||-19-17-15-13-17-15-13-12-15-13-12----13-12-------12----------------------||
||----------------------------------15-------15-13----15-13-12-15-13-12----||
||----------------------------------------------------------------------14~||
||-------------------------------------------------------------------------||
||-------------------------------------------------------------------------||
||-------------------------------------------------------------------------||


Arpeggios

|-------14-19p14--------------|-------------14-15-17-19-14---------------||
|----15----------15-----------|----14-15-17----------------15------------||
|-16-----------------16~------|-16----------------------------16---------||
|-----------------------------|------------------------------------------||
|-----------------------------|------------------------------------------||
|-----------------------------|------------------------------------------||


Aeolian Mode

|-----------------------------||
|---------------------8--10---||
|-----------7--9--10----------||
|-7--9--10--------------------||
|-----------------------------||
|-----------------------------||


||----------15-17-19-17-15-17-15----------15-------------------------------
||-15-17-19----------------------19-17h19----19-17-15-19-17-15-14-17-15-14-
||-------------------------------------------------------------------------
||-------------------------------------------------------------------------
||-------------------------------------------------------------------------
||-------------------------------------------------------------------------


-------------|-19p14----------------14-17-15-14----15-14-------14----------------||
-------------|-------15----14-15-17-------------17-------17-15----17-15-14-------||
--16-15-14---|----------16-------------------------------------------------16~---||
-------------|-------------------------------------------------------------------||
-------------|-------------------------------------------------------------------||
-------------|-------------------------------------------------------------------||



||-------------------------------------------------------------------------
||-------------14~w/bar----------------------------------------------------
||----------13-----------------14-------------------------------13-------13
||----13-14-----------------13-------13-14----13-14-16-13-14-16----14-16---
||-16--------------------16-------16-------16------------------------------
||-------------------------------------------------------------------------


-------------------------------------------------------14-16-17-14-16-17-19
-------------------------------------14-16-17-14-16-17---------------------
--14p13---------------------13-14-16---------------------------------------
--------16-14-13~--13-14-16------------------------------------------------
---------------------------------------------------------------------------
---------------------------------------------------------------------------


-19-19b(21)--------------------------------------------------------------||
------------19b(21)-rb19-17-16-17~--14-16-16~-12-14-14~------------------||
-------------------------------------------------------------------------||
-------------------------------------------------------------------------||
-------------------------------------------------------------------------||
-------------------------------------------------------------------------||

 trem picking
||-21--21------19h21p19p17-19p17-------------------------------------------
||-------------------------------21-19p21h19p17-19p17--16-17-19-17-16----19
||--------------------------------------------------------------------18---
||-------------------------------------------------------------------------
||-------------------------------------------------------------------------
||-------------------------------------------------------------------------


---------------------------------------------------------------------------
--17-16-14-17-16-14-12-16-14-12-10-14-12-10-9------------------------------
----------------------------------------------11b(12)-(12)-(12)rb11p9h11p9-
---------------------------------------------------------------------------
---------------------------------------------------------------------------
---------------------------------------------------------------------------


--------------||
--------------||
--h11p9-8~----||
--------------||
--------------||
--------------||


Harmonic Minor Scale

||----------------------||
||---------------9-10---||
||--------7-9-10--------||
||-7-9-10---------------||
||----------------------||
||----------------------||




||-13h14p13p10----------------------------------------||
||-------------14-12-10-------------------------------||
||----------------------13-11-10----------------------||
||-------------------------------12-11-9--------------||
||---------------------------------------12-11-9-8----||
||----------------------------------------------------||


||--------10-13p10-------------13-16p13-------------16-19/21~---13h14p13p10
||-----12----------12-------15----------15-------18------------------------
||-/13----------------13/16----------------16/19---------------------------
||-------------------------------------------------------------------------
||-------------------------------------------------------------------------
||-------------------------------------------------------------------------


----------------------------------------||
--14-12-10------------------------------||
-----------13-11-10---------------------||
--------------------12-11-9-------------||
----------------------------12-11-9-8---||
----------------------------------------||


Harmolian Scale

||------------------------||
||----------------8-9-10--||
||---------7-9-10---------||
||--7-9-10----------------||
||------------------------||
||------------------------||


||-19-16-17-19-17-16-------------------------------------------------------
||-------------------18-15-17-18-17-15-17-13-15-17-15-13-15-12-13-15-13-12-
||-------------------------------------------------------------------------
||-------------------------------------------------------------------------
||-------------------------------------------------------------------------
||-------------------------------------------------------------------------


-------12h13p12-10---------------------------------------------------------
-13-12-------------13p12p10----------13p12p10-----------------------10p9---
----------------------------13p12p10----------13p12p10-9---------12--------
---------------------------------------------------------12p10p9-----------
---------------------------------------------------------------------------
---------------------------------------------------------------------------


-------------------------------------------------------------------------||
-------------------------------------------------------------------------||
--12-10p9----10p9--------------------------------------------------------||
----------12------12-10p9----10p9----------------------------------------||
--------------------------12------12b(13)--rb12~-------------------------||
-------------------------------------------------------------------------||


||----14-15-17b(19)-rb17p15-17-14-15----------19p15--------19p15-19p15-----
||-17--------------------------------17----17-------17-----------------17/-
||--------------------------------------16-------------16------------------
||-------------------------------------------------------------------------
||-------------------------------------------------------------------------
||-------------------------------------------------------------------------


--19h20p19-17--------------------------------------------------------------
--------------20-19-17-------------------------------------------------16--
-----------------------20-19-17-16----------------------------16-17-19-----
-----------------------------------19-17-16----------16-17-19--------------
--------------------------------------------19-18-19-----------------------
---------------------------------------------------------------------------


-----------17-19~-------------15-17-19-17-15-14-17-15-14----15-14-------14-
--17-19-20-----------16-17-19----------------------------17-------17-15----
---------------------------------------------------------------------------
---------------------------------------------------------------------------
---------------------------------------------------------------------------
---------------------------------------------------------------------------


---------------------------------------------------------------------------
--17-15-13-17-15-13-12-15-13-12-10-13-12-10----12-10-------10--------------
--------------------------------------------12-------12-11----12-11-9-12-11
---------------------------------------------------------------------------
---------------------------------------------------------------------------
---------------------------------------------------------------------------


-------------------||
-------------------||
--9-8-9~~--/21~----||
-------------------||
-------------------||
-------------------||


Diminished Sounds

||-------5-8----------8-11-----------11-14-----------14-17-----------------
||-----7-----------10-------------13--------------16------------5--8-------
||-5-8--------8-11----------11-14-----------14-17-------------6------------
||----------------------------------------------------------7--------------
||-------------------------------------------------------------------------
||-------------------------------------------------------------------------


------------------------------------------||
-------8-11--------11-14--------14-17-----||
-----9----------12-----------15-----------||
--11---------14-----------17--------------||
------------------------------------------||
------------------------------------------||


||-21p18----21\18p15----18\15p12----15\12p9---------------9--12-9----------
||-------20----------17----------14---------11---------11---------11-------
||---------------------------------------------12-9-12---------------12-9--
||-------------------------------------------------------------------------
||-------------------------------------------------------------------------
||-------------------------------------------------------------------------


--------------------------||
--------------------------||
-12----9------------------||
----11---8-11----8--------||
--------------10----7~----||
--------------------------||


||-12h13p12-10\9h10p9------------------------------10/17h18p17-15\13-------
||--------------------11-10p8---8-11-8----8--------------------------15----
||----------------------------9--------10---10-9~--------------------------
||-------------------------------------------------------------------------
||-------------------------------------------------------------------------
||-------------------------------------------------------------------------


--------12------------------------------------||
--14-15----15-13------------------------------||
-----------------15-14-12----14-12------------||
--------------------------15-------15-14-12---||
----------------------------------------------||
----------------------------------------------||


||----------12-15p12-18p15-21p18----------------18\15----------------------
||----11-14----------------------20----------20-------17-------------------
||-12-------------------------------21-18-21-------------18-15----15-18----
||-------------------------------------------------------------17----------
||-------------------------------------------------------------------------
||-------------------------------------------------------------------------


-------------------------||
--17/20~w/bar-19p17h19---||
-------------------------||
-------------------------||
-------------------------||
-------------------------||


||---------------12--17p12--------------------------12/17-20-12h17p12--12b-
||------------13-----------13--------------------13------------------------
||-------9-14-----------------14-9----------9-14---------------------------
||----10---------------------------10----10--------------------------------
||-12---------------------------------12-----------------------------------
||-------------------------------------------------------------------------


-(13)----------||
--------15~----||
---------------||
---------------||
---------------||
---------------||


||-------14-19p14----14----------------------------------------------14----
||----15----------15-------15-------------------------------------15-------
||-16-------------------16----11-16----11-------------------11-16----------
||----------------------------------12-------12----------12----------------
||----------------------------------------14----9~--9-14-------------------
||-------------------------------------------------------------------------


--19-18-19-14-13-14---------------------------||
--------------------15-14-15-12-11-12---------||
--------------------------------------13~-----||
----------------------------------------------||
----------------------------------------------||
----------------------------------------------||


||-12p7------15p12--------19p15--------------------||
||------8----------12-----------17-----------------||
||--------9-----------12-----------16/21~~~~-------||
||-------------------------------------------------||
||-------------------------------------------------||
||-------------------------------------------------||



=======================================================================
h = hammeron                    Judy Letostak                         
p = pulloff                     Internet letostak@ix.netcom.com
/\ = slide                      Fidonet 1:202/762                     
x = ghost note                  MetalNet 182:100/2                    
t = tap (right hand)            The Music Shop BBS (619)423-4970 24hrs
~ = vibrato                     * = picked harmonic
bf = bend full                  tr = trill
rb = release bend               p.s. = pick scrape
dive = dive with bar            b = bend / step written over note
========================================================================
The Music Shop BBS (619)423-4970  24hrs
Guitar Tab, Bass Tab, Lyrics, Sound Files, Pictures, BRE...LORD...FidoNet...
MetalNet...In a band?  Want some exposure?  I have a file area for bands
will take anything that can be put on a computer...Lyrics, pictures, sound
files, gig ads...email me or call my bbs.  It's free, and access is free.
Also have a menu for band to put up Biographies, reviews of shows, demos,
gig advertisements, and you can sell your demo/CD here as well...And it's
absolutely FREE!
























































































































































































































