
DROPPED D TUNING

(6)Db  (3)Gb
(5)Ab  (2)Bb
(4)Db  (1)Eb                    Sepultura
                                 Kaiowas
                              from Chaos A.D

                                                                                
||------------------------------------------------------------------||--||------
||------------------------------------------------------------------||--||------
||*-----------------------------------------------------------------||--||*-----
||*-----------------------------------------------------------------||--||*-----
||---5-----5--5--5--5--5-----5--5--3--2-----2--2--2--2--2-----2--2--||--||------
||---0-----0--0--0--0--0-----0--0--0--0-----0--0--0--0--0-----0--0--||--||------
                                                                                

                                                                                
---------------------------------------------------------------||--||-----------
---------------------------------------------------------------||--||-----------
---------------------------------------------------------------||--||*----------
---------------------------------------------------------------||--||*----------
2--1-----1--1--1--1-----1-----1--1--1--1--1-----1--1--1--1-----||--||---9--9----
0--0-----0--0--0--0-----0-----0--0--0--0--0-----0--0--0--0-----||--||---0--0----
                                                                                

                                                                                
-----------------------------------------------------------|--------------------
-----------------------------------------------------------|--------------------
-----------------------------------------------------------|--------------------
-----------------------------------------------------------|--------------------
9--9--9-----9--9--9-----11--11--11--11--11-----11--11--11--|--------------------
0--0--0-----0--0--0-----0---0---0---0---0------0---0---0---|--------------------
                                                                                



================================================================================
==                           TABLATURE EXPLANATION                            ==
================================================================================

----------                            ----------
----5h8--- Hammeron                   ----(8)--- Ghost Note
----------                            ----------
----5p8--- Pulloff                    ----------

----------                            ----------
----5/8--- Slide Up                   -----x---- Dead Note
----------                            ----------
----5\8--- Slide Down                 ----------

----------                            ||------|| Repeat Start & End
----5~~~-- Vibrato                    ||*----*||
----------                            ||*----*||
----------                            ||------||

Rhythm:
  w = whole note            W = dotted whole
  h = half note             H = dotted half
  q = quarter note          Q = dotted quarter
  e = eighth note           E = dotted eighth
  s = sixteenth note        S = dotted sixteenth
  ^ = triplet

================================================================================
==           Created with a shareware version of the BUCKET 'O TAB            ==
==                  tablature creation software for Windows                   ==
==                           For more information:                            ==
==                          email: gse@ocsystems.com                          ==
==      US Mail: The Bucket, 3176-B5 Summit Square Dr., Oakton, VA 22124      ==
================================================================================

Tab for   : KAIOWAS
     by   : SEPULTURA

Song no. 5 off the "Chaos A.D." Album

date      : 21/3/95

tabbed by : RICHARD COOPER
            Kingston University
            England
            (k943707@king.ac.uk)


PLEASE.....allow for any mistakes

Looks(and sounds) ok to me though.  Sorry dont know the solo bit.
It's not that hard to work out though.

The strumming is very important so listen to the track a few times
to get the idea.

_____________________________________
D = Down     U = Up

D.DUDUD.DUDUD.DUDUD.DUDUD.DUDUD 

this is strumming for the first part...you work out the rest!

**********************************************
ALMOST FORGOT.....DONT FORGET DROPED D TUNING!
**********************************************

On the first four parts the single chord represent a whole strum cycle.
I have made the last bit (where the solo is played) easy by expanding
it (so play the chords once).

if you want mail me about this tab or sepultura or anything, do so!
                   
E-|-----------------------------|---------------------|-----------------------|
B-|-----------------------------|---------------------|-----------------------|
G-|--7--7---4--4---3--3--3--3---|--10--10---12---12---|--7--13--7--11---------|
D-|--7--7---4--4---3--3--3--3---|--10--10---12---12---|--7--13--7--11---------|
A-|--5--5---2--2---1--1--1--1---|--8---8----10---10---|--5--11--5--9----------|
E-|--0--0---0--0---0--0--0--0---|--0---0----0----0----|--0--0---0--0----------|
     Main part                      next bit             bit after that        
                                                                               
E-|-------------------|-------------------------------------------------------|
B-|-------------------|-------------------------------------------------------|
G-|--7---7\6--6-6/7---|---7--7-7-7-6--7--7--7-7-7-6-7-------------------------|
D-|--7---7\6--6-6/7---|---7--7-7-7-6--7--7--7-7-7-6-7-------------------------|
A-|--5---5\4--4-4/5---|---5--5-5-5-4--5--5--5-5-5-4-5-------------------------|
E-|--0----------------|---0--0-0-0-0--0--0--0-0-0-0-0-------------------------|
     Slow bit          bit after slow bit (the solo is played over this)       
                                                                               

THATS ALL FOLKS!
__________________________________________________________________________

RiChArD cOoPeR                            (k943707@king.ac.uk)
_____________________________________________________________________________
    ____           .    _  .
   /# /_\_         |\_|/__/|                 ________         __&__
  |  |/o\o\       / / \/ \  \               /        \       /     \
  |  \\_/_/      /__|O||O|__ \             |  DOPE!!! |     |   _  _|
 / |_   |       |/_ \_/\_/ _\ |             \__________>    |  (o)(o)
|  ||\_ ~|      | | (____) | ||   _____________________     C   ---_)
|  ||| \/       \/\___/\__/  // _/                     \    | |  ___|
|  |||_         (_/         ||  \_  Happy Happy Joy Joy |   |  \__/
 \//  |          |          ||    |                     |   /    \
  ||  |          |          ||\    \___________________/       ^
  ||_  \          \        //_/         ______________________/|
  \_|  o|          \______//           | MMMMMMM DONUTS!!!!!!  /
  /\___/         __ || __||            \______________________/
 /  ||||__      (____(____)
    (___)_)

