#----------------------------------PLEASE NOTE---------------------------------#
#This file is the author's own work and represents their interpretation of the #
#song. You may only use this file for private study, scholarship, or research. #
#------------------------------------------------------------------------------##
Received: from mailgate.ericsson.se (mailgate.ericsson.se [130.100.2.2]) by post-office.nevada.edu (8.6.4/8.6.4) with SMTP id BAA25058 for <jamesb@nevada.edu>; Sun, 20 Feb 1994 01:49:56 -0800
Received: from etlxd20 (etlxd20.ericsson.se) by mailgate.ericsson.se (4.1/SMI-4.1-MAILGATE1.14)
	id AA10607; Sun, 20 Feb 94 10:49:53 +0100
Received: from etlxd42k (etlxd42k.ericsson.se) by etlxd20 (4.1/SMI-4.1-LME1.6)
	id AA22154; Sun, 20 Feb 94 09:49:51 GMT
From: etlnbb@etlxd20.ericsson.se ( neil bergin xd/gk)
Received: by etlxd42k (4.1/client-1.3)
	id AA01973; Sun, 20 Feb 94 09:49:50 GMT
Date: Sun, 20 Feb 94 09:49:50 GMT
Message-Id: <9402200949.AA01973@etlxd42k>
To: jamesb@nevada.edu
Subject: TAB: Imagine - John Lennon

Posted by: marp@irix.bris.ac.uk (R. Porter)
Date: Tue, 18 Jan 1994 12:27:59 GMT

Below is a guitar transcription of Imagine. I have tried to
make it sound as true to the piano style as possible.


(1)
Twice:
e-----------------------------------|--------------------------------||
B----------------------------0------|-----------------------------0--||
G----0-------0-------0-------0------|-2-------2-------2-------2-3----||
D----2-------2-------2--------------|-3-------3-------3--------------||
A--------3-------3-------3-------3--|-----3-------3-------3----------||
E----3-------3-------3-------3------|-1-------1-------1--------------||
     C                       Cmaj7    F            
(2)
3 times:
e-----------------------------------|--------------------------------||
B----------------------------0------|-----------------------------0--||
G----0-------0-------0-------0------|-2-------2-------2-------2-3----||
D----2-------2-------2--------------|-3-------3-------3--------------||
A--------3-------3-------3-------3--|-----3-------3-------3----------||
E----3-------3-------3-------3------|-1-------1-------1--------------||
     C                       Cmaj7    F            


e-----------------------------------|--------------------------------|
B----------------------------0------|--------------------------------|
G----0-------0-------0-------0------|-2-------2-------2-------2------|
D----2-------2-------2--------------|-3-------3-------3-------3------|
A--------3-------3-------3-------3--|-----3-------3-------3-------3--|
E----3-------3-------3-------3------|-1-------1-------1-------1------|
     C                       Cmaj7    F


e------------1---------------0------|---------1---------------1------|
B------------1---------------1------|---------3---------------3------|
G------------2-----------2----------|-----2-------------------2------|
D----------------3---2-----------2--|-0-----------0-------0----------|
A--------3--------------------------|-----------------3-----------3--|
E----1------------------------------|--------------------------------|
     F               Am               Dm


e------------3---------------3------|-1-------------------------------|
B------------0---------------3------|-3-------------------------------|
G------------0---------------0------|---------------------------------|
D--------0---------------0----------|---------------------------------|
A----2---------------2--------------|---------------------------------|
E-----------------------------------|---------------------------------|
     G                                G7
(3)
3 times:
e-----------------------------------|---------0---------------0-------||
B------------1---------------0------|---------1---------------3-------||
G------------2---------------0------|---------0---------------1-------||
D------------3---------------0------|-----2---------------2-----------||
A--------3---------------2----------|-3-----------3---2---------------||
E----1-----------1---3-----------3--|------------------------------0--||
     F               G                C               Eadd4
                                            __________________________
                                            | 1st time only
e-----------------------------------|-0-------------------------------|
B------------1---------------0------|-1-------------------------------|
G------------2---------------0------|-0-----------0-------0-------0---|
D------------3---------------0------|-2-------------------------------|
A--------3---------------2----------|-3---------------0-------2-------|
E----1-----------1---3-----------3--|---------3-----------------------|
     F               G                C

Play as : (1) , (2)x2 , (3) , (2) , (3)
(I think)

Diki



