From elric@selway.umt.edu Tue Jun  1 21:05:54 1993
Received: from selway.umt.edu by unix2.tcd.ie (5.65/TCD/1.31)
	id AA27808; Tue, 1 Jun 93 21:05:51 +0100
Received: by selway.umt.edu (5.65/DEC-Ultrix/4.3)
	id AA08202; Tue, 1 Jun 1993 14:04:53 -0600
Message-Id: <9306012004.AA08202@selway.umt.edu>
To: mcdonghj@unix2.tcd.ie
Subject: [elric (RAIN KING): Re: TAB: CIRCLE OF POWER SOUNDGARDEN]
Date: Tue, 01 Jun 93 14:04:53 -0600
From: elric@selway.umt.edu
X-Mts: smtp
Status: RO


>Circle Of Power by Soundgarden
>
>           trem pick these chords
>E---------|-------------------------------------|
>B---------|-------------------------------------|
>G------2-.|-------------------------------------|
>D--2-0-2-.|--4-7-6-5-4-7-6-5--------------------|
>A--2-0-0--|--2-5-4-3-2-5-4-3-4-7-6-5-4-7-6-5--2-|
>D--2-0----|------------------4-7-6-5-4-7-6-5--2-|
>
>
>play these in various order
>
>E-----------------|
>B--5--12--15--10--|
>G--7b-14b-17b-12b-|
>D-----------------|
>A-----------------|
>D-----------------|
>
>IF THIS IS POSTED ANYWHERE ELSE, PLEASE GIVE ME CREDIT
>thanks
>elric@selway.umt.edu
>aka Sam Rowe
>
>-- 
>I am a deaths-head in your frock,
>-Sam
>Your sister is a beauty when she's naked, like my kid.
>We are the dead.


- -- 
I am a deaths-head in your frock,
- -Sam
Your sister is a beauty when she's naked, like my kid.
We are the dead.

------- End of Forwarded Message


