From elric@selway.umt.edu Tue Jun  1 21:06:15 1993
Received: from selway.umt.edu by unix2.tcd.ie (5.65/TCD/1.31)
	id AA27815; Tue, 1 Jun 93 21:06:11 +0100
Received: by selway.umt.edu (5.65/DEC-Ultrix/4.3)
	id AA08229; Tue, 1 Jun 1993 14:05:13 -0600
Message-Id: <9306012005.AA08229@selway.umt.edu>
To: mcdonghj@unix2.tcd.ie
Subject: [elric (RAIN KING): Re: TAB: HE DIDN'T SOUNDGARDEN]
Date: Tue, 01 Jun 93 14:05:13 -0600
From: elric@selway.umt.edu
X-Mts: smtp
Status: RO


>He Didn't by Soundgarden
>
><#> = harmonics
>
>E---------------------------------|-------------------------------------|
>B-----------------<5>-------------|-------------------------------------|
>G---------<5>-------------<5>-----|--2-3-2h3p2----2-3-2h3p2-------------|
>D--<5>--------<9>-----<9>---------|------------234----------432-----234-|
>A-----<9>---------------------<9>-|----------------------------43234----|
>E---------------------------------|-------------------------------------|
>
>E------7-------6------|
>B---5b---5br--5---5br-|
>G--7---------7--------|
>D---------------------|
>A---------------------|
>E---------------------|
>
>it ends on an F# fingered (how else) 244XXX.
>
>IF THIS IS POSTED ANYWHERE ELSE, PLEASE GIVE ME CREDIT
>thanks
>elric@selway.umt.edu
>aka Sam Rowe
>
>-- 
>I am a deaths-head in your frock,
>-Sam
>Your sister is a beauty when she's naked, like my kid.
>We are the dead.


- -- 
I am a deaths-head in your frock,
- -Sam
Your sister is a beauty when she's naked, like my kid.
We are the dead.

------- End of Forwarded Message


